{
  "__inputs": [

  ],
  "__requires": [

  ],
  "annotations": {
    "list": [
      {
        "builtIn": 1,
        "datasource": "-- Grafana --",
        "enable": true,
        "hide": false,
        "iconColor": "#96D98D",
        "name": "deploy",
        "showIn": 0,
        "tags": [
          "deploy",
          "$environment"
        ],
        "type": "tags"
      },
      {
        "builtIn": 1,
        "datasource": "-- Grafana --",
        "enable": false,
        "hide": false,
        "iconColor": "#FFEE52",
        "name": "canary-deploy",
        "showIn": 0,
        "tags": [
          "deploy",
          "${environment}-cny"
        ],
        "type": "tags"
      },
      {
        "builtIn": 1,
        "datasource": "-- Grafana --",
        "enable": false,
        "hide": false,
        "iconColor": "#CA95E5",
        "name": "feature-flags",
        "showIn": 0,
        "tags": [
          "feature-flag",
          "${environment}"
        ],
        "type": "tags"
      }
    ]
  },
  "description": "Uploaded by https://gitlab.com/gitlab-com/runbooks/-/jobs/6792874828 at Tue May  7 02:43:27 UTC 2024",
  "editable": false,
  "gnetId": null,
  "graphTooltip": 1,
  "hideControls": false,
  "id": null,
  "links": [
    {
      "asDropdown": true,
      "icon": "external link",
      "includeVars": true,
      "keepTime": true,
      "tags": [
        "managed",
        "service overview"
      ],
      "targetBlank": false,
      "title": "Service Overview Dashboards",
      "type": "dashboards",
      "url": ""
    },
    {
      "asDropdown": true,
      "icon": "external link",
      "includeVars": false,
      "keepTime": true,
      "tags": "",
      "targetBlank": false,
      "title": "Platform Triage",
      "type": "link",
      "url": "https://dashboards.gitlab.net/d/general-triage/platform-triage?orgId=1"
    }
  ],
  "panels": [
    {
      "collapse": false,
      "collapsed": false,
      "gridPos": {
        "h": 1,
        "w": 24,
        "x": 0,
        "y": 3001
      },
      "id": 2,
      "panels": [

      ],
      "repeat": null,
      "repeatIteration": null,
      "repeatRowId": null,
      "showTitle": true,
      "title": "🌡️ Aggregated Service Level Indicators (𝙎𝙇𝙄𝙨)",
      "titleSize": "h6",
      "type": "row"
    },
    {
      "bars": false,
      "dashLength": 10,
      "dashes": false,
      "datasource": "$PROMETHEUS_DS",
      "decimals": 2,
      "description": "Apdex is a measure of requests that complete within a tolerable period of time for the service. Higher is better.",
      "fill": 0,
      "fillGradient": 0,
      "gridPos": {
        "h": 9,
        "w": 6,
        "x": 0,
        "y": 3002
      },
      "id": 3770536810,
      "legend": {
        "alignAsTable": true,
        "avg": true,
        "current": true,
        "hideEmpty": true,
        "max": true,
        "min": true,
        "rightSide": false,
        "show": true,
        "total": false,
        "values": true
      },
      "lines": true,
      "linewidth": 2,
      "nullPointMode": "null",
      "options": {
        "dataLinks": [
          {
            "targetBlank": true,
            "title": "$type Service Apdex SLO Analysis",
            "url": "/d/alerts-service_slo_apdex?${__url_time_range}&${__all_variables}&var-type=$type&var-stage=$stage"
          }
        ]
      },
      "percentage": false,
      "pointradius": 5,
      "points": false,
      "renderer": "flot",
      "seriesOverrides": [
        {
          "alias": "/6h Degradation SLO \\(5% of monthly error budget\\).*/",
          "color": "#FF4500",
          "dashLength": 4,
          "dashes": true,
          "legend": true,
          "lines": true,
          "linewidth": 2,
          "nullPointMode": "connected",
          "spaceLength": 10,
          "zindex": -2
        },
        {
          "alias": "/1h Outage SLO \\(2% of monthly error budget\\).*/",
          "color": "#F2495C",
          "dashLength": 4,
          "dashes": true,
          "legend": true,
          "lines": true,
          "linewidth": 4,
          "nullPointMode": "connected",
          "spaceLength": 4,
          "zindex": -2
        },
        {
          "alias": "/.*shard (apdex|error ratio|RPS)$/",
          "color": "#E7D551"
        },
        {
          "alias": "$type apdex",
          "color": "#E7D551",
          "zindex": 3
        },
        {
          "alias": "$type apdex avg",
          "color": "#5794F2",
          "dashLength": 1,
          "fillBelowTo": "$type apdex",
          "linewidth": 1,
          "spaceLength": 1,
          "zindex": -3
        },
        {
          "alias": "last week",
          "color": "#dddddd80",
          "dashLength": 4,
          "dashes": true,
          "fill": 0,
          "legend": true,
          "lines": true,
          "linewidth": 1,
          "nullPointMode": "connected",
          "spaceLength": 2,
          "zindex": -3
        }
      ],
      "spaceLength": 10,
      "stableId": "service-$type-apdex",
      "stack": false,
      "steppedLine": false,
      "targets": [
        {
          "expr": "min_over_time(gitlab_service_apdex:ratio_5m{env=\"$environment\",environment=\"$environment\",monitor=\"global\",stage=\"$stage\",type=\"$type\"}[$__interval])\n",
          "format": "time_series",
          "interval": "1m",
          "intervalFactor": 1,
          "legendFormat": "$type apdex",
          "refId": "A"
        },
        {
          "expr": "(1 - 6 * (1 - avg(slo:min:events:gitlab_service_apdex:ratio{component=\"\",monitor=\"global\",type=\"$type\"})\n))\n",
          "format": "time_series",
          "interval": "5m",
          "intervalFactor": 1,
          "legendFormat": "6h Degradation SLO (5% of monthly error budget)",
          "refId": "B"
        },
        {
          "expr": "(1 - 14.4 * (1 - avg(slo:min:events:gitlab_service_apdex:ratio{component=\"\",monitor=\"global\",type=\"$type\"})\n))\n",
          "format": "time_series",
          "interval": "5m",
          "intervalFactor": 1,
          "legendFormat": "1h Outage SLO (2% of monthly error budget)",
          "refId": "C"
        },
        {
          "expr": "avg_over_time(gitlab_service_apdex:ratio_5m{env=\"$environment\",environment=\"$environment\",monitor=\"global\",stage=\"$stage\",type=\"$type\"}[$__interval])\n",
          "format": "time_series",
          "interval": "1m",
          "intervalFactor": 1,
          "legendFormat": "$type apdex avg",
          "refId": "D"
        },
        {
          "expr": "clamp_min(\n  gitlab_service_apdex:ratio_5m{env=\"$environment\",environment=\"$environment\",monitor=\"global\",stage=\"$stage\",type=\"$type\"} offset 1w\n,\n  scalar(min((1 - 14.4 * (1 - avg(slo:min:events:gitlab_service_apdex:ratio{component=\"\",monitor=\"global\",type=\"$type\"})\n))\n))\n)\n",
          "format": "time_series",
          "interval": "1m",
          "intervalFactor": 1,
          "legendFormat": "last week",
          "refId": "E"
        }
      ],
      "title": "$type Service Apdex",
      "tooltip": {
        "shared": true,
        "sort": 1,
        "value_type": "individual"
      },
      "type": "graph",
      "xaxis": {
        "mode": "time",
        "show": true
      },
      "yaxes": [
        {
          "format": "percentunit",
          "label": "Apdex %",
          "logBase": 1,
          "max": 1,
          "show": true
        },
        {
          "format": "short",
          "logBase": 1,
          "max": 1,
          "min": 0,
          "show": false
        }
      ]
    },
    {
      "fieldConfig": {
        "defaults": {
          "displayName": "Status",
          "mappings": [
            {
              "id": 0,
              "options": {
                "0": {
                  "color": "black",
                  "index": 0,
                  "text": "Healthy"
                },
                "1": {
                  "color": "orange",
                  "index": 1,
                  "text": "Warning 🔥"
                },
                "10": {
                  "color": "orange",
                  "index": 10,
                  "text": "Warning 🔥🥵"
                },
                "11": {
                  "color": "red",
                  "index": 11,
                  "text": "Degraded 🔥🥵"
                },
                "12": {
                  "color": "red",
                  "index": 12,
                  "text": "Degraded 🥵"
                },
                "13": {
                  "color": "red",
                  "index": 13,
                  "text": "Degraded 🔥🥵"
                },
                "14": {
                  "color": "red",
                  "index": 14,
                  "text": "Degraded 🔥🥵"
                },
                "15": {
                  "color": "red",
                  "index": 15,
                  "text": "Degraded 🔥🥵"
                },
                "2": {
                  "color": "orange",
                  "index": 2,
                  "text": "Warning 🔥"
                },
                "3": {
                  "color": "red",
                  "index": 3,
                  "text": "Degraded 🔥"
                },
                "4": {
                  "color": "orange",
                  "index": 4,
                  "text": "Warning 🥵"
                },
                "5": {
                  "color": "orange",
                  "index": 5,
                  "text": "Warning 🔥🥵"
                },
                "6": {
                  "color": "orange",
                  "index": 6,
                  "text": "Warning 🔥🥵"
                },
                "7": {
                  "color": "red",
                  "index": 7,
                  "text": "Degraded 🔥🥵"
                },
                "8": {
                  "color": "orange",
                  "index": 8,
                  "text": "Warning 🥵"
                },
                "9": {
                  "color": "orange",
                  "index": 9,
                  "text": "Warning 🔥🥵"
                }
              },
              "type": "value"
            }
          ],
          "thresholds": {
            "mode": "absolute",
            "steps": [
              {
                "color": "black",
                "value": 0
              },
              {
                "color": "orange",
                "value": 1
              },
              {
                "color": "orange",
                "value": 2
              },
              {
                "color": "red",
                "value": 3
              },
              {
                "color": "orange",
                "value": 4
              },
              {
                "color": "orange",
                "value": 5
              },
              {
                "color": "orange",
                "value": 6
              },
              {
                "color": "red",
                "value": 7
              },
              {
                "color": "orange",
                "value": 8
              },
              {
                "color": "orange",
                "value": 9
              },
              {
                "color": "orange",
                "value": 10
              },
              {
                "color": "red",
                "value": 11
              },
              {
                "color": "red",
                "value": 12
              },
              {
                "color": "red",
                "value": 13
              },
              {
                "color": "red",
                "value": 14
              },
              {
                "color": "red",
                "value": 15
              }
            ]
          },
          "unit": "none"
        }
      },
      "gridPos": {
        "h": 1,
        "w": 6,
        "x": 0,
        "y": 3011
      },
      "id": 4,
      "options": {
        "colorMode": "background",
        "graphMode": "none",
        "justifyMode": "auto",
        "orientation": "vertical",
        "reduceOptions": {
          "calcs": [
            "lastNotNull"
          ],
          "fields": "",
          "values": false
        },
        "textMode": "auto"
      },
      "pluginVersion": "7",
      "targets": [
        {
          "expr": "sum(\n  label_replace(\n    vector(0) and on() (gitlab_service_apdex:ratio_1h{env=\"$environment\",environment=\"$environment\",monitor=\"global\",stage=\"$stage\",type=\"$type\"}),\n    \"period\", \"na\", \"\", \"\"\n  )\n  or\n  label_replace(\n    vector(1) and on () (gitlab_service_apdex:ratio_5m{env=\"$environment\",environment=\"$environment\",monitor=\"global\",stage=\"$stage\",type=\"$type\"} < on(tier, type) group_left() (1 - (14.4 * (1 - slo:min:events:gitlab_service_apdex:ratio{component=\"\",monitor=\"global\",type=\"$type\"})))),\n    \"period\", \"5m\", \"\", \"\"\n  )\n  or\n  label_replace(\n    vector(2) and on () (gitlab_service_apdex:ratio_1h{env=\"$environment\",environment=\"$environment\",monitor=\"global\",stage=\"$stage\",type=\"$type\"} < on(tier, type) group_left() (1 - (14.4 * (1 - slo:min:events:gitlab_service_apdex:ratio{component=\"\",monitor=\"global\",type=\"$type\"})))),\n    \"period\", \"1h\", \"\", \"\"\n  )\n  or\n  label_replace(\n    vector(4) and on () (gitlab_service_apdex:ratio_30m{env=\"$environment\",environment=\"$environment\",monitor=\"global\",stage=\"$stage\",type=\"$type\"} < on(tier, type) group_left() (1 - (6 * (1 - slo:min:events:gitlab_service_apdex:ratio{component=\"\",monitor=\"global\",type=\"$type\"})))),\n    \"period\", \"30m\", \"\", \"\"\n  )\n  or\n  label_replace(\n    vector(8) and on () (gitlab_service_apdex:ratio_6h{env=\"$environment\",environment=\"$environment\",monitor=\"global\",stage=\"$stage\",type=\"$type\"} < on(tier, type) group_left() (1 - (6 * (1 - slo:min:events:gitlab_service_apdex:ratio{component=\"\",monitor=\"global\",type=\"$type\"})))),\n    \"period\", \"6h\", \"\", \"\"\n  )\n)\n",
          "format": "time_series",
          "instant": true,
          "interval": "1m",
          "intervalFactor": 1,
          "legendFormat": "$type Service | Latency/Apdex",
          "refId": "A"
        }
      ],
      "title": "",
      "transparent": false,
      "type": "stat"
    },
    {
      "bars": false,
      "dashLength": 10,
      "dashes": false,
      "datasource": "$PROMETHEUS_DS",
      "decimals": 2,
      "description": "Error rates are a measure of unhandled service exceptions per second. Client errors are excluded when possible. Lower is better",
      "fill": 0,
      "fillGradient": 0,
      "gridPos": {
        "h": 9,
        "w": 6,
        "x": 6,
        "y": 3002
      },
      "id": 4149900135,
      "legend": {
        "alignAsTable": true,
        "avg": true,
        "current": true,
        "hideEmpty": true,
        "max": true,
        "min": true,
        "rightSide": false,
        "show": true,
        "total": false,
        "values": true
      },
      "lines": true,
      "linewidth": 2,
      "nullPointMode": "null",
      "options": {
        "dataLinks": [
          {
            "targetBlank": true,
            "title": "$type Service Error-Rate SLO Analysis",
            "url": "/d/alerts-service_slo_error?${__url_time_range}&${__all_variables}&var-type=$type&var-stage=$stage"
          }
        ]
      },
      "percentage": false,
      "pointradius": 5,
      "points": false,
      "renderer": "flot",
      "seriesOverrides": [
        {
          "alias": "/6h Degradation SLO \\(5% of monthly error budget\\).*/",
          "color": "#FF4500",
          "dashLength": 4,
          "dashes": true,
          "legend": true,
          "lines": true,
          "linewidth": 2,
          "nullPointMode": "connected",
          "spaceLength": 10,
          "zindex": -2
        },
        {
          "alias": "/1h Outage SLO \\(2% of monthly error budget\\).*/",
          "color": "#F2495C",
          "dashLength": 4,
          "dashes": true,
          "legend": true,
          "lines": true,
          "linewidth": 4,
          "nullPointMode": "connected",
          "spaceLength": 4,
          "zindex": -2
        },
        {
          "alias": "/.*shard (apdex|error ratio|RPS)$/",
          "color": "#E7D551"
        },
        {
          "alias": "$type error ratio",
          "color": "#E7D551",
          "fillBelowTo": "$type error ratio avg",
          "zindex": 3
        },
        {
          "alias": "$type error ratio avg",
          "color": "#5794F2",
          "dashLength": 1,
          "fillGradient": 10,
          "linewidth": 1,
          "spaceLength": 1,
          "zindex": -3
        },
        {
          "alias": "last week",
          "color": "#dddddd80",
          "dashLength": 4,
          "dashes": true,
          "fill": 0,
          "legend": true,
          "lines": true,
          "linewidth": 1,
          "nullPointMode": "connected",
          "spaceLength": 2,
          "zindex": -3
        }
      ],
      "spaceLength": 10,
      "stableId": "service-$type-error-rate",
      "stack": false,
      "steppedLine": false,
      "targets": [
        {
          "expr": "clamp_max(\n  max_over_time(gitlab_service_errors:ratio_5m{env=\"$environment\",environment=\"$environment\",monitor=\"global\",stage=\"$stage\",type=\"$type\"}[$__interval])\n,\n  1\n)\n",
          "format": "time_series",
          "interval": "1m",
          "intervalFactor": 1,
          "legendFormat": "$type error ratio",
          "refId": "A"
        },
        {
          "expr": "(6 * avg(slo:max:events:gitlab_service_errors:ratio{component=\"\",monitor=\"global\",type=\"$type\"})\n)\n",
          "format": "time_series",
          "interval": "5m",
          "intervalFactor": 1,
          "legendFormat": "6h Degradation SLO (5% of monthly error budget)",
          "refId": "B"
        },
        {
          "expr": "(14.4 * avg(slo:max:events:gitlab_service_errors:ratio{component=\"\",monitor=\"global\",type=\"$type\"})\n)\n",
          "format": "time_series",
          "interval": "5m",
          "intervalFactor": 1,
          "legendFormat": "1h Outage SLO (2% of monthly error budget)",
          "refId": "C"
        },
        {
          "expr": "clamp_max(\n  avg_over_time(gitlab_service_errors:ratio_5m{env=\"$environment\",environment=\"$environment\",monitor=\"global\",stage=\"$stage\",type=\"$type\"}[$__interval])\n,\n  1\n)\n",
          "format": "time_series",
          "interval": "1m",
          "intervalFactor": 1,
          "legendFormat": "$type error ratio avg",
          "refId": "D"
        },
        {
          "expr": "clamp_max(\n  gitlab_service_errors:ratio_5m{env=\"$environment\",environment=\"$environment\",monitor=\"global\",stage=\"$stage\",type=\"$type\"} offset 1w\n,\n  scalar(max((14.4 * avg(slo:max:events:gitlab_service_errors:ratio{component=\"\",monitor=\"global\",type=\"$type\"})\n)\n))\n)\n",
          "format": "time_series",
          "interval": "1m",
          "intervalFactor": 1,
          "legendFormat": "last week",
          "refId": "E"
        }
      ],
      "title": "$type Service Error Ratio",
      "tooltip": {
        "shared": true,
        "sort": 2,
        "value_type": "individual"
      },
      "type": "graph",
      "xaxis": {
        "mode": "time",
        "show": true
      },
      "yaxes": [
        {
          "format": "percentunit",
          "label": "Error %",
          "logBase": 1,
          "min": 0,
          "show": true
        },
        {
          "format": "short",
          "logBase": 1,
          "max": 1,
          "min": 0,
          "show": false
        }
      ]
    },
    {
      "fieldConfig": {
        "defaults": {
          "displayName": "Status",
          "mappings": [
            {
              "id": 0,
              "options": {
                "0": {
                  "color": "black",
                  "index": 0,
                  "text": "Healthy"
                },
                "1": {
                  "color": "orange",
                  "index": 1,
                  "text": "Warning 🔥"
                },
                "10": {
                  "color": "orange",
                  "index": 10,
                  "text": "Warning 🔥🥵"
                },
                "11": {
                  "color": "red",
                  "index": 11,
                  "text": "Degraded 🔥🥵"
                },
                "12": {
                  "color": "red",
                  "index": 12,
                  "text": "Degraded 🥵"
                },
                "13": {
                  "color": "red",
                  "index": 13,
                  "text": "Degraded 🔥🥵"
                },
                "14": {
                  "color": "red",
                  "index": 14,
                  "text": "Degraded 🔥🥵"
                },
                "15": {
                  "color": "red",
                  "index": 15,
                  "text": "Degraded 🔥🥵"
                },
                "2": {
                  "color": "orange",
                  "index": 2,
                  "text": "Warning 🔥"
                },
                "3": {
                  "color": "red",
                  "index": 3,
                  "text": "Degraded 🔥"
                },
                "4": {
                  "color": "orange",
                  "index": 4,
                  "text": "Warning 🥵"
                },
                "5": {
                  "color": "orange",
                  "index": 5,
                  "text": "Warning 🔥🥵"
                },
                "6": {
                  "color": "orange",
                  "index": 6,
                  "text": "Warning 🔥🥵"
                },
                "7": {
                  "color": "red",
                  "index": 7,
                  "text": "Degraded 🔥🥵"
                },
                "8": {
                  "color": "orange",
                  "index": 8,
                  "text": "Warning 🥵"
                },
                "9": {
                  "color": "orange",
                  "index": 9,
                  "text": "Warning 🔥🥵"
                }
              },
              "type": "value"
            }
          ],
          "thresholds": {
            "mode": "absolute",
            "steps": [
              {
                "color": "black",
                "value": 0
              },
              {
                "color": "orange",
                "value": 1
              },
              {
                "color": "orange",
                "value": 2
              },
              {
                "color": "red",
                "value": 3
              },
              {
                "color": "orange",
                "value": 4
              },
              {
                "color": "orange",
                "value": 5
              },
              {
                "color": "orange",
                "value": 6
              },
              {
                "color": "red",
                "value": 7
              },
              {
                "color": "orange",
                "value": 8
              },
              {
                "color": "orange",
                "value": 9
              },
              {
                "color": "orange",
                "value": 10
              },
              {
                "color": "red",
                "value": 11
              },
              {
                "color": "red",
                "value": 12
              },
              {
                "color": "red",
                "value": 13
              },
              {
                "color": "red",
                "value": 14
              },
              {
                "color": "red",
                "value": 15
              }
            ]
          },
          "unit": "none"
        }
      },
      "gridPos": {
        "h": 1,
        "w": 6,
        "x": 6,
        "y": 3011
      },
      "id": 6,
      "options": {
        "colorMode": "background",
        "graphMode": "none",
        "justifyMode": "auto",
        "orientation": "vertical",
        "reduceOptions": {
          "calcs": [
            "lastNotNull"
          ],
          "fields": "",
          "values": false
        },
        "textMode": "auto"
      },
      "pluginVersion": "7",
      "targets": [
        {
          "expr": "sum (\n  label_replace(\n    vector(0) and on() (gitlab_service_errors:ratio_1h{env=\"$environment\",environment=\"$environment\",monitor=\"global\",stage=\"$stage\",type=\"$type\"}),\n    \"period\", \"na\", \"\", \"\"\n  )\n  or\n  label_replace(\n    vector(1) and on() (gitlab_service_errors:ratio_5m{env=\"$environment\",environment=\"$environment\",monitor=\"global\",stage=\"$stage\",type=\"$type\"} > on(tier, type) group_left() (14.4 * slo:max:events:gitlab_service_errors:ratio{component=\"\",monitor=\"global\",type=\"$type\"})),\n    \"period\", \"5m\", \"\", \"\"\n  )\n  or\n  label_replace(\n    vector(2) and on() (gitlab_service_errors:ratio_1h{env=\"$environment\",environment=\"$environment\",monitor=\"global\",stage=\"$stage\",type=\"$type\"} > on(tier, type) group_left() (14.4 * slo:max:events:gitlab_service_errors:ratio{component=\"\",monitor=\"global\",type=\"$type\"})),\n    \"period\", \"1h\", \"\", \"\"\n  )\n  or\n  label_replace(\n    vector(4) and on() (gitlab_service_errors:ratio_30m{env=\"$environment\",environment=\"$environment\",monitor=\"global\",stage=\"$stage\",type=\"$type\"} > on(tier, type) group_left() (6 * slo:max:events:gitlab_service_errors:ratio{component=\"\",monitor=\"global\",type=\"$type\"})),\n    \"period\", \"30m\", \"\", \"\"\n  )\n  or\n  label_replace(\n    vector(8) and on() (gitlab_service_errors:ratio_6h{env=\"$environment\",environment=\"$environment\",monitor=\"global\",stage=\"$stage\",type=\"$type\"} > on(tier, type) group_left() (6 * slo:max:events:gitlab_service_errors:ratio{component=\"\",monitor=\"global\",type=\"$type\"})),\n    \"period\", \"6h\", \"\", \"\"\n  )\n)\n",
          "format": "time_series",
          "instant": true,
          "interval": "1m",
          "intervalFactor": 1,
          "legendFormat": "$type Service | Errors",
          "refId": "A"
        }
      ],
      "title": "",
      "transparent": false,
      "type": "stat"
    },
    {
      "bars": false,
      "dashLength": 10,
      "dashes": false,
      "datasource": "$PROMETHEUS_DS",
      "decimals": 2,
      "description": "The operation rate is the sum total of all requests being handle for all components within this service. Note that a single user request can lead to requests to multiple components. Higher is busier.",
      "fill": 0,
      "fillGradient": 0,
      "gridPos": {
        "h": 10,
        "w": 6,
        "x": 12,
        "y": 3002
      },
      "id": 2633741645,
      "legend": {
        "alignAsTable": true,
        "avg": true,
        "current": true,
        "hideEmpty": true,
        "max": true,
        "min": true,
        "rightSide": false,
        "show": true,
        "total": false,
        "values": true
      },
      "lines": true,
      "linewidth": 2,
      "nullPointMode": "null",
      "percentage": false,
      "pointradius": 5,
      "points": false,
      "renderer": "flot",
      "seriesOverrides": [
        {
          "alias": "/.*shard (apdex|error ratio|RPS)$/",
          "color": "#E7D551"
        },
        {
          "alias": "$type RPS",
          "color": "#E7D551",
          "zindex": 3
        },
        {
          "alias": "last week",
          "color": "#dddddd80",
          "dashLength": 4,
          "dashes": true,
          "fill": 0,
          "legend": true,
          "lines": true,
          "linewidth": 1,
          "nullPointMode": "connected",
          "spaceLength": 2,
          "zindex": -3
        },
        {
          "alias": "upper normal",
          "color": "#73BF69",
          "dashLength": 8,
          "dashes": true,
          "fillBelowTo": "lower normal",
          "legend": false,
          "lines": false,
          "linewidth": 1,
          "nullPointMode": "connected",
          "spaceLength": 8,
          "zindex": -3
        },
        {
          "alias": "lower normal",
          "color": "#73BF69",
          "dashLength": 8,
          "dashes": true,
          "legend": false,
          "lines": false,
          "linewidth": 1,
          "nullPointMode": "connected",
          "spaceLength": 8,
          "zindex": -3
        }
      ],
      "spaceLength": 10,
      "stableId": "service-$type-ops-rate",
      "stack": false,
      "steppedLine": false,
      "targets": [
        {
          "expr": "avg_over_time(gitlab_service_ops:rate_5m{env=\"$environment\",environment=\"$environment\",monitor=\"global\",stage=\"$stage\",type=\"$type\"}[$__interval])\n",
          "format": "time_series",
          "interval": "1m",
          "intervalFactor": 1,
          "legendFormat": "$type RPS",
          "refId": "A"
        },
        {
          "expr": "gitlab_service_ops:rate_5m{env=\"$environment\",environment=\"$environment\",monitor=\"global\",stage=\"$stage\",type=\"$type\"} offset 1w\n",
          "format": "time_series",
          "interval": "1m",
          "intervalFactor": 1,
          "legendFormat": "last week",
          "refId": "B"
        },
        {
          "expr": "clamp_min(\n  avg by (type) (\n    gitlab_service_ops:rate:prediction{env=\"$environment\",environment=\"$environment\",monitor=\"global\",stage=\"$stage\",type=\"$type\"}\n    + (1) *\n    gitlab_service_ops:rate:stddev_over_time_1w{env=\"$environment\",environment=\"$environment\",monitor=\"global\",stage=\"$stage\",type=\"$type\"}\n  ),\n  0\n)\n",
          "format": "time_series",
          "interval": "1m",
          "intervalFactor": 1,
          "legendFormat": "upper normal",
          "refId": "C"
        },
        {
          "expr": "clamp_min(\n  avg by (type) (\n    gitlab_service_ops:rate:prediction{env=\"$environment\",environment=\"$environment\",monitor=\"global\",stage=\"$stage\",type=\"$type\"}\n    + (-1) *\n    gitlab_service_ops:rate:stddev_over_time_1w{env=\"$environment\",environment=\"$environment\",monitor=\"global\",stage=\"$stage\",type=\"$type\"}\n  ),\n  0\n)\n",
          "format": "time_series",
          "interval": "1m",
          "intervalFactor": 1,
          "legendFormat": "lower normal",
          "refId": "D"
        }
      ],
      "title": "$type Service RPS - Requests per Second",
      "tooltip": {
        "shared": true,
        "sort": 2,
        "value_type": "individual"
      },
      "type": "graph",
      "xaxis": {
        "mode": "time",
        "show": true
      },
      "yaxes": [
        {
          "format": "short",
          "label": "Operations per Second",
          "logBase": 1,
          "min": 0,
          "show": true
        },
        {
          "format": "short",
          "logBase": 1,
          "max": 1,
          "min": 0,
          "show": false
        }
      ]
    },
    {
      "bars": false,
      "dashLength": 10,
      "dashes": false,
      "datasource": "$PROMETHEUS_DS",
      "decimals": 2,
      "description": "Saturation is a measure of what ratio of a finite resource is currently being utilized. Lower is better.",
      "fill": 0,
      "fillGradient": 0,
      "gridPos": {
        "h": 10,
        "w": 6,
        "x": 18,
        "y": 3002
      },
      "id": 1217942947,
      "legend": {
        "alignAsTable": true,
        "avg": true,
        "current": true,
        "hideEmpty": true,
        "max": true,
        "min": true,
        "rightSide": false,
        "show": true,
        "total": false,
        "values": true
      },
      "lines": true,
      "linewidth": 2,
      "nullPointMode": "null",
      "percentage": false,
      "pointradius": 5,
      "points": false,
      "renderer": "flot",
      "spaceLength": 10,
      "stableId": "service-utilization",
      "stack": false,
      "steppedLine": false,
      "targets": [
        {
          "expr": "max(\n  max_over_time(\n    gitlab_component_saturation:ratio{env=\"$environment\",environment=\"$environment\",stage=\"$stage\",type=\"$type\"}[$__interval]\n  )\n) by (component)\n",
          "format": "time_series",
          "interval": "1m",
          "intervalFactor": 1,
          "legendFormat": "{{ component }} component",
          "refId": "A"
        }
      ],
      "title": "Saturation",
      "tooltip": {
        "shared": true,
        "sort": 2,
        "value_type": "individual"
      },
      "type": "graph",
      "xaxis": {
        "mode": "time",
        "show": true
      },
      "yaxes": [
        {
          "format": "percentunit",
          "label": "Saturation %",
          "logBase": 1,
          "max": 1,
          "show": true
        },
        {
          "format": "short",
          "logBase": 1,
          "max": 1,
          "min": 0,
          "show": false
        }
      ]
    },
    {
      "collapse": true,
      "collapsed": true,
      "gridPos": {
        "h": 1,
        "w": 24,
        "x": 0,
        "y": 5000
      },
      "id": 9,
      "panels": [
        {
          "aliasColors": {
          },
          "bars": false,
          "dashLength": 10,
          "dashes": false,
          "datasource": "$PROMETHEUS_DS",
          "decimals": 2,
          "description": "The amount of non-idle time consumed by nodes for this service",
          "fill": 0,
          "fillGradient": 0,
          "gridPos": {
            "h": 10,
            "w": 12,
            "x": 0,
            "y": 0
          },
          "id": 10,
          "legend": {
            "alignAsTable": false,
            "avg": false,
            "current": false,
            "hideEmpty": true,
            "max": false,
            "min": false,
            "rightSide": false,
            "show": false,
            "sideWidth": null,
            "total": false,
            "values": false
          },
          "lines": true,
          "linewidth": 1,
          "links": [

          ],
          "nullPointMode": "null",
          "percentage": false,
          "pointradius": 5,
          "points": false,
          "renderer": "flot",
          "repeat": null,
          "seriesOverrides": [

          ],
          "spaceLength": 10,
          "stack": false,
          "steppedLine": false,
          "targets": [
            {
              "expr": "avg(instance:node_cpu_utilization:ratio{environment=\"$environment\", stage=\"$stage\", type=\"$type\"}) by (fqdn)\n",
              "format": "time_series",
              "interval": "1m",
              "intervalFactor": 1,
              "legendFormat": "{{ fqdn }}",
              "refId": "A"
            }
          ],
          "thresholds": [

          ],
          "timeFrom": null,
          "timeShift": null,
          "title": "Node CPU",
          "tooltip": {
            "shared": true,
            "sort": 2,
            "value_type": "individual"
          },
          "type": "graph",
          "xaxis": {
            "buckets": null,
            "mode": "time",
            "name": null,
            "show": true,
            "values": [

            ]
          },
          "yaxes": [
            {
              "format": "percentunit",
              "label": "Average CPU Utilization",
              "logBase": 1,
              "max": null,
              "min": null,
              "show": true
            },
            {
              "format": "short",
              "label": null,
              "logBase": 1,
              "max": 1,
              "min": 0,
              "show": false
            }
          ]
        },
        {
          "aliasColors": {
          },
          "bars": false,
          "dashLength": 10,
          "dashes": false,
          "datasource": "$PROMETHEUS_DS",
          "decimals": 0,
          "description": "The maximum utilization of a single core on each node. Lower is better",
          "fill": 0,
          "fillGradient": 0,
          "gridPos": {
            "h": 10,
            "w": 12,
            "x": 12,
            "y": 0
          },
          "id": 11,
          "legend": {
            "alignAsTable": true,
            "avg": true,
            "current": true,
            "hideEmpty": true,
            "max": true,
            "min": true,
            "rightSide": false,
            "show": false,
            "sideWidth": null,
            "total": false,
            "values": true
          },
          "lines": true,
          "linewidth": 1,
          "links": [

          ],
          "nullPointMode": "null",
          "percentage": false,
          "pointradius": 5,
          "points": false,
          "renderer": "flot",
          "repeat": null,
          "seriesOverrides": [

          ],
          "spaceLength": 10,
          "stack": false,
          "steppedLine": false,
          "targets": [
            {
              "expr": "clamp_min(clamp_max(max(1 - rate(node_cpu_seconds_total{environment=\"$environment\", stage=\"$stage\", type=\"$type\", mode=\"idle\"}[$__interval])) by (fqdn)\n,1),0)\n",
              "format": "time_series",
              "interval": "1m",
              "intervalFactor": 1,
              "legendFormat": "{{ fqdn }}",
              "refId": "A"
            }
          ],
          "thresholds": null,
          "timeFrom": null,
          "timeShift": null,
          "title": "Node Maximum Single Core Utilization",
          "tooltip": {
            "shared": true,
            "sort": 2,
            "value_type": "individual"
          },
          "type": "graph",
          "xaxis": {
            "buckets": null,
            "mode": "time",
            "name": null,
            "show": true,
            "values": [

            ]
          },
          "yaxes": [
            {
              "format": "percentunit",
              "label": "Saturation",
              "logBase": 1,
              "max": 1,
              "min": 0,
              "show": true
            },
            {
              "format": "short",
              "label": null,
              "logBase": 1,
              "max": 1,
              "min": 0,
              "show": false
            }
          ]
        },
        {
          "aliasColors": {
          },
          "bars": false,
          "dashLength": 10,
          "dashes": false,
          "datasource": "$PROMETHEUS_DS",
          "decimals": 2,
          "description": "Network utilization for nodes for this service",
          "fill": 0,
          "fillGradient": 0,
          "gridPos": {
            "h": 10,
            "w": 12,
            "x": 0,
            "y": 10
          },
          "id": 12,
          "legend": {
            "alignAsTable": false,
            "avg": false,
            "current": false,
            "hideEmpty": true,
            "max": false,
            "min": false,
            "rightSide": false,
            "show": false,
            "sideWidth": null,
            "total": false,
            "values": false
          },
          "lines": true,
          "linewidth": 1,
          "links": [

          ],
          "nullPointMode": "null",
          "percentage": false,
          "pointradius": 5,
          "points": false,
          "renderer": "flot",
          "repeat": null,
          "seriesOverrides": [
            {
              "alias": "/receive .*/",
              "transform": "negative-Y"
            }
          ],
          "spaceLength": 10,
          "stack": false,
          "steppedLine": false,
          "targets": [
            {
              "expr": "sum(rate(node_network_transmit_bytes_total{environment=\"$environment\", stage=\"$stage\", type=\"$type\"}[$__interval])) by (fqdn)\n",
              "format": "time_series",
              "interval": "1m",
              "intervalFactor": 1,
              "legendFormat": "send {{ fqdn }}",
              "refId": "A"
            },
            {
              "expr": "sum(rate(node_network_receive_bytes_total{environment=\"$environment\", stage=\"$stage\", type=\"$type\"}[$__interval])) by (fqdn)\n",
              "format": "time_series",
              "interval": "1m",
              "intervalFactor": 1,
              "legendFormat": "receive {{ fqdn }}",
              "refId": "B"
            }
          ],
          "thresholds": [

          ],
          "timeFrom": null,
          "timeShift": null,
          "title": "Node Network Utilization",
          "tooltip": {
            "shared": true,
            "sort": 2,
            "value_type": "individual"
          },
          "type": "graph",
          "xaxis": {
            "buckets": null,
            "mode": "time",
            "name": null,
            "show": true,
            "values": [

            ]
          },
          "yaxes": [
            {
              "format": "Bps",
              "label": "Network utilization",
              "logBase": 1,
              "max": null,
              "min": null,
              "show": true
            },
            {
              "format": "short",
              "label": null,
              "logBase": 1,
              "max": 1,
              "min": 0,
              "show": false
            }
          ]
        },
        {
          "aliasColors": {
          },
          "bars": false,
          "dashLength": 10,
          "dashes": false,
          "datasource": "$PROMETHEUS_DS",
          "decimals": 0,
          "description": "Memory utilization. Lower is better.",
          "fill": 0,
          "fillGradient": 0,
          "gridPos": {
            "h": 10,
            "w": 12,
            "x": 12,
            "y": 10
          },
          "id": 13,
          "legend": {
            "alignAsTable": true,
            "avg": true,
            "current": true,
            "hideEmpty": true,
            "max": true,
            "min": true,
            "rightSide": false,
            "show": false,
            "sideWidth": null,
            "total": false,
            "values": true
          },
          "lines": true,
          "linewidth": 1,
          "links": [

          ],
          "nullPointMode": "null",
          "percentage": false,
          "pointradius": 5,
          "points": false,
          "renderer": "flot",
          "repeat": null,
          "seriesOverrides": [

          ],
          "spaceLength": 10,
          "stack": false,
          "steppedLine": false,
          "targets": [
            {
              "expr": "clamp_min(clamp_max(instance:node_memory_utilization:ratio{environment=\"$environment\", stage=\"$stage\", type=\"$type\"}\n,1),0)\n",
              "format": "time_series",
              "interval": "1m",
              "intervalFactor": 1,
              "legendFormat": "{{ fqdn }}",
              "refId": "A"
            }
          ],
          "thresholds": null,
          "timeFrom": null,
          "timeShift": null,
          "title": "Memory Utilization",
          "tooltip": {
            "shared": true,
            "sort": 2,
            "value_type": "individual"
          },
          "type": "graph",
          "xaxis": {
            "buckets": null,
            "mode": "time",
            "name": null,
            "show": true,
            "values": [

            ]
          },
          "yaxes": [
            {
              "format": "percentunit",
              "label": "Saturation",
              "logBase": 1,
              "max": 1,
              "min": 0,
              "show": true
            },
            {
              "format": "short",
              "label": null,
              "logBase": 1,
              "max": 1,
              "min": 0,
              "show": false
            }
          ]
        },
        {
          "aliasColors": {
          },
          "bars": false,
          "dashLength": 10,
          "dashes": false,
          "datasource": "$PROMETHEUS_DS",
          "decimals": 0,
          "description": "Disk Read IO operations per second. Lower is better.",
          "fill": 0,
          "fillGradient": 0,
          "gridPos": {
            "h": 10,
            "w": 12,
            "x": 0,
            "y": 20
          },
          "id": 14,
          "legend": {
            "alignAsTable": true,
            "avg": true,
            "current": true,
            "hideEmpty": true,
            "max": true,
            "min": true,
            "rightSide": false,
            "show": false,
            "sideWidth": null,
            "total": false,
            "values": true
          },
          "lines": true,
          "linewidth": 1,
          "links": [

          ],
          "nullPointMode": "null",
          "percentage": false,
          "pointradius": 5,
          "points": false,
          "renderer": "flot",
          "repeat": null,
          "seriesOverrides": [

          ],
          "spaceLength": 10,
          "stack": false,
          "steppedLine": false,
          "targets": [
            {
              "expr": "max(\n  rate(node_disk_reads_completed_total{environment=\"$environment\", stage=\"$stage\", type=\"$type\"}[$__interval])\n) by (fqdn)\n",
              "format": "time_series",
              "interval": "1m",
              "intervalFactor": 1,
              "legendFormat": "{{ fqdn }}",
              "refId": "A"
            }
          ],
          "thresholds": [

          ],
          "timeFrom": null,
          "timeShift": null,
          "title": "Disk Read IOPs",
          "tooltip": {
            "shared": true,
            "sort": 2,
            "value_type": "individual"
          },
          "type": "graph",
          "xaxis": {
            "buckets": null,
            "mode": "time",
            "name": null,
            "show": true,
            "values": [

            ]
          },
          "yaxes": [
            {
              "format": "ops",
              "label": "Operations/s",
              "logBase": 1,
              "max": null,
              "min": 0,
              "show": true
            },
            {
              "format": "short",
              "label": null,
              "logBase": 1,
              "max": 1,
              "min": 0,
              "show": false
            }
          ]
        },
        {
          "aliasColors": {
          },
          "bars": false,
          "dashLength": 10,
          "dashes": false,
          "datasource": "$PROMETHEUS_DS",
          "decimals": 0,
          "description": "Disk Write IO operations per second. Lower is better.",
          "fill": 0,
          "fillGradient": 0,
          "gridPos": {
            "h": 10,
            "w": 12,
            "x": 12,
            "y": 20
          },
          "id": 15,
          "legend": {
            "alignAsTable": true,
            "avg": true,
            "current": true,
            "hideEmpty": true,
            "max": true,
            "min": true,
            "rightSide": false,
            "show": false,
            "sideWidth": null,
            "total": false,
            "values": true
          },
          "lines": true,
          "linewidth": 1,
          "links": [

          ],
          "nullPointMode": "null",
          "percentage": false,
          "pointradius": 5,
          "points": false,
          "renderer": "flot",
          "repeat": null,
          "seriesOverrides": [

          ],
          "spaceLength": 10,
          "stack": false,
          "steppedLine": false,
          "targets": [
            {
              "expr": "max(\n  rate(node_disk_writes_completed_total{environment=\"$environment\", stage=\"$stage\", type=\"$type\"}[$__interval])\n) by (fqdn)\n",
              "format": "time_series",
              "interval": "1m",
              "intervalFactor": 1,
              "legendFormat": "{{ fqdn }}",
              "refId": "A"
            }
          ],
          "thresholds": [

          ],
          "timeFrom": null,
          "timeShift": null,
          "title": "Disk Write IOPs",
          "tooltip": {
            "shared": true,
            "sort": 2,
            "value_type": "individual"
          },
          "type": "graph",
          "xaxis": {
            "buckets": null,
            "mode": "time",
            "name": null,
            "show": true,
            "values": [

            ]
          },
          "yaxes": [
            {
              "format": "ops",
              "label": "Operations/s",
              "logBase": 1,
              "max": null,
              "min": 0,
              "show": true
            },
            {
              "format": "short",
              "label": null,
              "logBase": 1,
              "max": 1,
              "min": 0,
              "show": false
            }
          ]
        },
        {
          "aliasColors": {
          },
          "bars": false,
          "dashLength": 10,
          "dashes": false,
          "datasource": "$PROMETHEUS_DS",
          "decimals": 0,
          "description": "Disk Read throughput datarate. Lower is better.",
          "fill": 0,
          "fillGradient": 0,
          "gridPos": {
            "h": 10,
            "w": 12,
            "x": 0,
            "y": 30
          },
          "id": 16,
          "legend": {
            "alignAsTable": true,
            "avg": true,
            "current": true,
            "hideEmpty": true,
            "max": true,
            "min": true,
            "rightSide": false,
            "show": false,
            "sideWidth": null,
            "total": false,
            "values": true
          },
          "lines": true,
          "linewidth": 1,
          "links": [

          ],
          "nullPointMode": "null",
          "percentage": false,
          "pointradius": 5,
          "points": false,
          "renderer": "flot",
          "repeat": null,
          "seriesOverrides": [

          ],
          "spaceLength": 10,
          "stack": false,
          "steppedLine": false,
          "targets": [
            {
              "expr": "max(\n  rate(node_disk_read_bytes_total{environment=\"$environment\", stage=\"$stage\", type=\"$type\"}[$__interval])\n) by (fqdn)\n",
              "format": "time_series",
              "interval": "1m",
              "intervalFactor": 1,
              "legendFormat": "{{ fqdn }}",
              "refId": "A"
            }
          ],
          "thresholds": [

          ],
          "timeFrom": null,
          "timeShift": null,
          "title": "Disk Read Throughput",
          "tooltip": {
            "shared": true,
            "sort": 2,
            "value_type": "individual"
          },
          "type": "graph",
          "xaxis": {
            "buckets": null,
            "mode": "time",
            "name": null,
            "show": true,
            "values": [

            ]
          },
          "yaxes": [
            {
              "format": "Bps",
              "label": "Bytes/s",
              "logBase": 1,
              "max": null,
              "min": 0,
              "show": true
            },
            {
              "format": "short",
              "label": null,
              "logBase": 1,
              "max": 1,
              "min": 0,
              "show": false
            }
          ]
        },
        {
          "aliasColors": {
          },
          "bars": false,
          "dashLength": 10,
          "dashes": false,
          "datasource": "$PROMETHEUS_DS",
          "decimals": 0,
          "description": "Disk Write throughput datarate. Lower is better.",
          "fill": 0,
          "fillGradient": 0,
          "gridPos": {
            "h": 10,
            "w": 12,
            "x": 12,
            "y": 30
          },
          "id": 17,
          "legend": {
            "alignAsTable": true,
            "avg": true,
            "current": true,
            "hideEmpty": true,
            "max": true,
            "min": true,
            "rightSide": false,
            "show": false,
            "sideWidth": null,
            "total": false,
            "values": true
          },
          "lines": true,
          "linewidth": 1,
          "links": [

          ],
          "nullPointMode": "null",
          "percentage": false,
          "pointradius": 5,
          "points": false,
          "renderer": "flot",
          "repeat": null,
          "seriesOverrides": [

          ],
          "spaceLength": 10,
          "stack": false,
          "steppedLine": false,
          "targets": [
            {
              "expr": "max(\n  rate(node_disk_written_bytes_total{environment=\"$environment\", stage=\"$stage\", type=\"$type\"}[$__interval])\n) by (fqdn)\n",
              "format": "time_series",
              "interval": "1m",
              "intervalFactor": 1,
              "legendFormat": "{{ fqdn }}",
              "refId": "A"
            }
          ],
          "thresholds": [

          ],
          "timeFrom": null,
          "timeShift": null,
          "title": "Disk Write Throughput",
          "tooltip": {
            "shared": true,
            "sort": 2,
            "value_type": "individual"
          },
          "type": "graph",
          "xaxis": {
            "buckets": null,
            "mode": "time",
            "name": null,
            "show": true,
            "values": [

            ]
          },
          "yaxes": [
            {
              "format": "Bps",
              "label": "Bytes/s",
              "logBase": 1,
              "max": null,
              "min": 0,
              "show": true
            },
            {
              "format": "short",
              "label": null,
              "logBase": 1,
              "max": 1,
              "min": 0,
              "show": false
            }
          ]
        },
        {
          "aliasColors": {
          },
          "bars": false,
          "dashLength": 10,
          "dashes": false,
          "datasource": "$PROMETHEUS_DS",
          "decimals": 0,
          "description": "Total time spent in read operations across all disks on the node. Lower is better.",
          "fill": 0,
          "fillGradient": 0,
          "gridPos": {
            "h": 10,
            "w": 12,
            "x": 0,
            "y": 40
          },
          "id": 18,
          "legend": {
            "alignAsTable": true,
            "avg": true,
            "current": true,
            "hideEmpty": true,
            "max": true,
            "min": true,
            "rightSide": false,
            "show": false,
            "sideWidth": null,
            "total": false,
            "values": true
          },
          "lines": true,
          "linewidth": 1,
          "links": [

          ],
          "nullPointMode": "null",
          "percentage": false,
          "pointradius": 5,
          "points": false,
          "renderer": "flot",
          "repeat": null,
          "seriesOverrides": [

          ],
          "spaceLength": 10,
          "stack": false,
          "steppedLine": false,
          "targets": [
            {
              "expr": "sum(\n  rate(node_disk_read_time_seconds_total{environment=\"$environment\", stage=\"$stage\", type=\"$type\"}[$__interval])\n) by (fqdn)\n",
              "format": "time_series",
              "interval": "30s",
              "intervalFactor": 1,
              "legendFormat": "{{ fqdn }}",
              "refId": "A"
            }
          ],
          "thresholds": [

          ],
          "timeFrom": null,
          "timeShift": null,
          "title": "Disk Read Total Time",
          "tooltip": {
            "shared": true,
            "sort": 2,
            "value_type": "individual"
          },
          "type": "graph",
          "xaxis": {
            "buckets": null,
            "mode": "time",
            "name": null,
            "show": true,
            "values": [

            ]
          },
          "yaxes": [
            {
              "format": "s",
              "label": "Total Time/s",
              "logBase": 1,
              "max": null,
              "min": 0,
              "show": true
            },
            {
              "format": "short",
              "label": null,
              "logBase": 1,
              "max": 1,
              "min": 0,
              "show": false
            }
          ]
        },
        {
          "aliasColors": {
          },
          "bars": false,
          "dashLength": 10,
          "dashes": false,
          "datasource": "$PROMETHEUS_DS",
          "decimals": 0,
          "description": "Total time spent in write operations across all disks on the node. Lower is better.",
          "fill": 0,
          "fillGradient": 0,
          "gridPos": {
            "h": 10,
            "w": 12,
            "x": 12,
            "y": 40
          },
          "id": 19,
          "legend": {
            "alignAsTable": true,
            "avg": true,
            "current": true,
            "hideEmpty": true,
            "max": true,
            "min": true,
            "rightSide": false,
            "show": false,
            "sideWidth": null,
            "total": false,
            "values": true
          },
          "lines": true,
          "linewidth": 1,
          "links": [

          ],
          "nullPointMode": "null",
          "percentage": false,
          "pointradius": 5,
          "points": false,
          "renderer": "flot",
          "repeat": null,
          "seriesOverrides": [

          ],
          "spaceLength": 10,
          "stack": false,
          "steppedLine": false,
          "targets": [
            {
              "expr": "sum(\n  rate(node_disk_write_time_seconds_total{environment=\"$environment\", stage=\"$stage\", type=\"$type\"}[$__interval])\n) by (fqdn)\n",
              "format": "time_series",
              "interval": "30s",
              "intervalFactor": 1,
              "legendFormat": "{{ fqdn }}",
              "refId": "A"
            }
          ],
          "thresholds": [

          ],
          "timeFrom": null,
          "timeShift": null,
          "title": "Disk Write Total Time",
          "tooltip": {
            "shared": true,
            "sort": 2,
            "value_type": "individual"
          },
          "type": "graph",
          "xaxis": {
            "buckets": null,
            "mode": "time",
            "name": null,
            "show": true,
            "values": [

            ]
          },
          "yaxes": [
            {
              "format": "s",
              "label": "Total Time/s",
              "logBase": 1,
              "max": null,
              "min": 0,
              "show": true
            },
            {
              "format": "short",
              "label": null,
              "logBase": 1,
              "max": 1,
              "min": 0,
              "show": false
            }
          ]
        },
        {
          "aliasColors": {
          },
          "bars": false,
          "dashLength": 10,
          "dashes": false,
          "datasource": "$PROMETHEUS_DS",
          "decimals": 0,
          "description": "CPU scheduling waiting on the run queue, as a percentage of time. Aggregated to worst CPU per node. Lower is better.",
          "fill": 0,
          "fillGradient": 0,
          "gridPos": {
            "h": 10,
            "w": 12,
            "x": 0,
            "y": 50
          },
          "id": 20,
          "legend": {
            "alignAsTable": true,
            "avg": true,
            "current": true,
            "hideEmpty": true,
            "max": true,
            "min": true,
            "rightSide": false,
            "show": false,
            "sideWidth": null,
            "total": false,
            "values": true
          },
          "lines": true,
          "linewidth": 1,
          "links": [

          ],
          "nullPointMode": "null",
          "percentage": false,
          "pointradius": 5,
          "points": false,
          "renderer": "flot",
          "repeat": null,
          "seriesOverrides": [

          ],
          "spaceLength": 10,
          "stack": false,
          "steppedLine": false,
          "targets": [
            {
              "expr": "max by (fqdn) (\n  rate(node_schedstat_waiting_seconds_total{environment=\"$environment\", stage=\"$stage\", type=\"$type\"}[5m])\n)\n",
              "format": "time_series",
              "interval": "1m",
              "intervalFactor": 1,
              "legendFormat": "{{ fqdn }}",
              "refId": "A"
            }
          ],
          "thresholds": [
            {
              "colorMode": "custom",
              "fill": true,
              "fillColor": "rgba(242, 73, 92, 0.5)",
              "line": false,
              "op": "gt",
              "value": 1,
              "yaxis": "left"
            },
            {
              "colorMode": "custom",
              "fill": true,
              "fillColor": "rgba(242, 73, 92, 0.25)",
              "line": false,
              "op": "gt",
              "value": 0.75,
              "yaxis": "left"
            }
          ],
          "timeFrom": null,
          "timeShift": null,
          "title": "CPU Scheduling Waiting",
          "tooltip": {
            "shared": true,
            "sort": 2,
            "value_type": "individual"
          },
          "type": "graph",
          "xaxis": {
            "buckets": null,
            "mode": "time",
            "name": null,
            "show": true,
            "values": [

            ]
          },
          "yaxes": [
            {
              "format": "percentunit",
              "label": "Total Time/s",
              "logBase": 1,
              "max": null,
              "min": 0,
              "show": true
            },
            {
              "format": "short",
              "label": null,
              "logBase": 1,
              "max": 1,
              "min": 0,
              "show": false
            }
          ]
        },
        {
          "aliasColors": {
          },
          "bars": false,
          "dashLength": 10,
          "dashes": false,
          "datasource": "$PROMETHEUS_DS",
          "decimals": 2,
          "description": "Loadavg (1 minute) per core, below 1 is better.",
          "fill": 0,
          "fillGradient": 0,
          "gridPos": {
            "h": 10,
            "w": 12,
            "x": 12,
            "y": 50
          },
          "id": 21,
          "legend": {
            "alignAsTable": true,
            "avg": true,
            "current": true,
            "hideEmpty": true,
            "max": true,
            "min": true,
            "rightSide": false,
            "show": false,
            "sideWidth": null,
            "total": false,
            "values": true
          },
          "lines": true,
          "linewidth": 1,
          "links": [

          ],
          "nullPointMode": "null",
          "percentage": false,
          "pointradius": 5,
          "points": false,
          "renderer": "flot",
          "repeat": null,
          "seriesOverrides": [

          ],
          "spaceLength": 10,
          "stack": false,
          "steppedLine": false,
          "targets": [
            {
              "expr": "avg by (environment, type, stage, fqdn) (node_load1{environment=\"$environment\", stage=\"$stage\", type=\"$type\"})\n/\ncount by (environment, type, stage, fqdn) (node_cpu_seconds_total{mode=\"idle\", environment=\"$environment\", stage=\"$stage\", type=\"$type\"})\n",
              "format": "time_series",
              "interval": "1m",
              "intervalFactor": 1,
              "legendFormat": "{{ fqdn }}",
              "refId": "A"
            }
          ],
          "thresholds": [
            {
              "colorMode": "custom",
              "fill": true,
              "fillColor": "rgba(242, 73, 92, 0.5)",
              "line": false,
              "op": "gt",
              "value": 1,
              "yaxis": "left"
            },
            {
              "colorMode": "custom",
              "fill": true,
              "fillColor": "rgba(242, 73, 92, 0.25)",
              "line": false,
              "op": "gt",
              "value": 0.8,
              "yaxis": "left"
            }
          ],
          "timeFrom": null,
          "timeShift": null,
          "title": "loadavg1 per core",
          "tooltip": {
            "shared": true,
            "sort": 2,
            "value_type": "individual"
          },
          "type": "graph",
          "xaxis": {
            "buckets": null,
            "mode": "time",
            "name": null,
            "show": true,
            "values": [

            ]
          },
          "yaxes": [
            {
              "format": "short",
              "label": "loadavg1",
              "logBase": 1,
              "max": null,
              "min": 0,
              "show": true
            },
            {
              "format": "short",
              "label": null,
              "logBase": 1,
              "max": 1,
              "min": 0,
              "show": false
            }
          ]
        },
        {
          "aliasColors": {
          },
          "bars": false,
          "dashLength": 10,
          "dashes": false,
          "datasource": "$PROMETHEUS_DS",
          "decimals": 2,
          "description": "Loadavg (5 minute) per core, below 1 is better.",
          "fill": 0,
          "fillGradient": 0,
          "gridPos": {
            "h": 10,
            "w": 12,
            "x": 0,
            "y": 60
          },
          "id": 22,
          "legend": {
            "alignAsTable": true,
            "avg": true,
            "current": true,
            "hideEmpty": true,
            "max": true,
            "min": true,
            "rightSide": false,
            "show": false,
            "sideWidth": null,
            "total": false,
            "values": true
          },
          "lines": true,
          "linewidth": 1,
          "links": [

          ],
          "nullPointMode": "null",
          "percentage": false,
          "pointradius": 5,
          "points": false,
          "renderer": "flot",
          "repeat": null,
          "seriesOverrides": [

          ],
          "spaceLength": 10,
          "stack": false,
          "steppedLine": false,
          "targets": [
            {
              "expr": "avg by (environment, type, stage, fqdn) (node_load5{environment=\"$environment\", stage=\"$stage\", type=\"$type\"})\n/\ncount by (environment, type, stage, fqdn) (node_cpu_seconds_total{mode=\"idle\", environment=\"$environment\", stage=\"$stage\", type=\"$type\"})\n",
              "format": "time_series",
              "interval": "1m",
              "intervalFactor": 1,
              "legendFormat": "{{ fqdn }}",
              "refId": "A"
            }
          ],
          "thresholds": [
            {
              "colorMode": "custom",
              "fill": true,
              "fillColor": "rgba(242, 73, 92, 0.5)",
              "line": false,
              "op": "gt",
              "value": 1,
              "yaxis": "left"
            },
            {
              "colorMode": "custom",
              "fill": true,
              "fillColor": "rgba(242, 73, 92, 0.25)",
              "line": false,
              "op": "gt",
              "value": 0.8,
              "yaxis": "left"
            }
          ],
          "timeFrom": null,
          "timeShift": null,
          "title": "loadavg5 per core",
          "tooltip": {
            "shared": true,
            "sort": 2,
            "value_type": "individual"
          },
          "type": "graph",
          "xaxis": {
            "buckets": null,
            "mode": "time",
            "name": null,
            "show": true,
            "values": [

            ]
          },
          "yaxes": [
            {
              "format": "short",
              "label": "loadavg5",
              "logBase": 1,
              "max": null,
              "min": 0,
              "show": true
            },
            {
              "format": "short",
              "label": null,
              "logBase": 1,
              "max": 1,
              "min": 0,
              "show": false
            }
          ]
        },
        {
          "aliasColors": {
          },
          "bars": false,
          "dashLength": 10,
          "dashes": false,
          "datasource": "$PROMETHEUS_DS",
          "decimals": 2,
          "description": "Loadavg (15 minute) per core, below 1 is better.",
          "fill": 0,
          "fillGradient": 0,
          "gridPos": {
            "h": 10,
            "w": 12,
            "x": 12,
            "y": 60
          },
          "id": 23,
          "legend": {
            "alignAsTable": true,
            "avg": true,
            "current": true,
            "hideEmpty": true,
            "max": true,
            "min": true,
            "rightSide": false,
            "show": false,
            "sideWidth": null,
            "total": false,
            "values": true
          },
          "lines": true,
          "linewidth": 1,
          "links": [

          ],
          "nullPointMode": "null",
          "percentage": false,
          "pointradius": 5,
          "points": false,
          "renderer": "flot",
          "repeat": null,
          "seriesOverrides": [

          ],
          "spaceLength": 10,
          "stack": false,
          "steppedLine": false,
          "targets": [
            {
              "expr": "avg by (environment, type, stage, fqdn) (node_load15{environment=\"$environment\", stage=\"$stage\", type=\"$type\"})\n/\ncount by (environment, type, stage, fqdn) (node_cpu_seconds_total{mode=\"idle\", environment=\"$environment\", stage=\"$stage\", type=\"$type\"})\n",
              "format": "time_series",
              "interval": "1m",
              "intervalFactor": 1,
              "legendFormat": "{{ fqdn }}",
              "refId": "A"
            }
          ],
          "thresholds": [
            {
              "colorMode": "custom",
              "fill": true,
              "fillColor": "rgba(242, 73, 92, 0.5)",
              "line": false,
              "op": "gt",
              "value": 1,
              "yaxis": "left"
            },
            {
              "colorMode": "custom",
              "fill": true,
              "fillColor": "rgba(242, 73, 92, 0.25)",
              "line": false,
              "op": "gt",
              "value": 0.8,
              "yaxis": "left"
            }
          ],
          "timeFrom": null,
          "timeShift": null,
          "title": "loadavg15 per core",
          "tooltip": {
            "shared": true,
            "sort": 2,
            "value_type": "individual"
          },
          "type": "graph",
          "xaxis": {
            "buckets": null,
            "mode": "time",
            "name": null,
            "show": true,
            "values": [

            ]
          },
          "yaxes": [
            {
              "format": "short",
              "label": "loadavg15",
              "logBase": 1,
              "max": null,
              "min": 0,
              "show": true
            },
            {
              "format": "short",
              "label": null,
              "logBase": 1,
              "max": 1,
              "min": 0,
              "show": false
            }
          ]
        }
      ],
      "repeat": null,
      "repeatIteration": null,
      "repeatRowId": null,
      "showTitle": true,
      "title": "🖥️ Node Metrics",
      "titleSize": "h6",
      "type": "row"
    },
    {
      "content": "Made with ❤️ and [Grafonnet](https://github.com/grafana/grafonnet-lib). [Contribute to this dashboard on GitLab.com](https://gitlab.com/gitlab-com/runbooks/blob/master/dashboards)\n",
      "datasource": null,
      "gridPos": {
        "h": 2,
        "w": 24,
        "x": 0,
        "y": 110000
      },
      "id": 24,
      "mode": "markdown",
      "title": "Source",
      "type": "text"
    }
  ],
  "refresh": "",
  "rows": [

  ],
  "schemaVersion": 16,
  "style": "light",
  "tags": [
    "managed",
    "general",
    "general"
  ],
  "templating": {
    "list": [
      {
        "current": {
          "text": "Global",
          "value": "Global"
        },
        "hide": 0,
        "label": null,
        "name": "PROMETHEUS_DS",
        "options": [

        ],
        "query": "prometheus",
        "refresh": 1,
        "regex": "",
        "type": "datasource"
      },
      {
        "allValue": null,
        "current": {
          "text": "gprd",
          "value": "gprd"
        },
        "datasource": "$PROMETHEUS_DS",
        "hide": 0,
        "includeAll": false,
        "label": null,
        "multi": false,
        "name": "environment",
        "options": [

        ],
        "query": "label_values(gitlab_service_ops:rate_1h, environment)",
        "refresh": 1,
        "regex": "",
        "sort": 1,
        "tagValuesQuery": "",
        "tags": [

        ],
        "tagsQuery": "",
        "type": "query",
        "useTags": false
      },
      {
        "allValue": null,
        "current": {
          "text": "web",
          "value": "web"
        },
        "datasource": "$PROMETHEUS_DS",
        "hide": 0,
        "includeAll": false,
        "label": null,
        "multi": false,
        "name": "type",
        "options": [

        ],
        "query": "label_values(gitlab_service_ops:rate_1h{environment=\"$environment\"}, type)",
        "refresh": 1,
        "regex": "",
        "sort": 1,
        "tagValuesQuery": "",
        "tags": [

        ],
        "tagsQuery": "",
        "type": "query",
        "useTags": false
      },
      {
        "allValue": null,
        "current": {
          "text": "main",
          "value": "main"
        },
        "hide": 0,
        "includeAll": false,
        "label": "",
        "multi": false,
        "name": "stage",
        "options": [
          {
            "text": "main",
            "value": "main"
          },
          {
            "text": "cny",
            "value": "cny"
          },
          {
            "text": "",
            "value": ""
          }
        ],
        "query": "main,cny,",
        "refresh": 0,
        "type": "custom"
      }
    ]
  },
  "time": {
    "from": "now-6h/m",
    "to": "now/m"
  },
  "timepicker": {
    "refresh_intervals": [
      "1m",
      "5m",
      "10m",
      "15m",
      "30m"
    ],
    "time_options": [
      "5m",
      "15m",
      "1h",
      "6h",
      "12h",
      "24h",
      "2d",
      "7d",
      "30d"
    ]
  },
  "timezone": "utc",
  "title": "general: Service Platform Metrics",
  "uid": "general-service",
  "version": 5570
}