{
  "__inputs": [

  ],
  "__requires": [

  ],
  "annotations": {
    "list": [
      {
        "builtIn": 1,
        "datasource": "-- Grafana --",
        "enable": true,
        "hide": false,
        "iconColor": "#96D98D",
        "name": "deploy",
        "showIn": 0,
        "tags": [
          "deploy",
          "$environment"
        ],
        "type": "tags"
      },
      {
        "builtIn": 1,
        "datasource": "-- Grafana --",
        "enable": false,
        "hide": false,
        "iconColor": "#FFEE52",
        "name": "canary-deploy",
        "showIn": 0,
        "tags": [
          "deploy",
          "${environment}-cny"
        ],
        "type": "tags"
      },
      {
        "builtIn": 1,
        "datasource": "-- Grafana --",
        "enable": false,
        "hide": false,
        "iconColor": "#CA95E5",
        "name": "feature-flags",
        "showIn": 0,
        "tags": [
          "feature-flag",
          "${environment}"
        ],
        "type": "tags"
      }
    ]
  },
  "description": "Uploaded by https://gitlab.com/gitlab-com/runbooks/-/jobs/6792874828 at Tue May  7 02:43:12 UTC 2024",
  "editable": false,
  "gnetId": null,
  "graphTooltip": 1,
  "hideControls": false,
  "id": null,
  "links": [
    {
      "asDropdown": true,
      "icon": "external link",
      "includeVars": false,
      "keepTime": true,
      "tags": "",
      "targetBlank": false,
      "title": "Platform Triage",
      "type": "link",
      "url": "https://dashboards.gitlab.net/d/general-triage/platform-triage?orgId=1"
    },
    {
      "asDropdown": true,
      "icon": "external link",
      "includeVars": true,
      "keepTime": true,
      "tags": [
        "managed",
        "service overview"
      ],
      "targetBlank": false,
      "title": "Service Overview Dashboards",
      "type": "dashboards",
      "url": ""
    },
    {
      "asDropdown": true,
      "icon": "dashboard",
      "includeVars": true,
      "keepTime": true,
      "tags": "type:gitlab-static",
      "targetBlank": false,
      "title": "gitlab-static Detail",
      "type": "dashboards",
      "url": ""
    },
    {
      "asDropdown": true,
      "icon": "external link",
      "includeVars": true,
      "keepTime": true,
      "tags": [
        "managed",
        "type:gitlab-static",
        "kube detail"
      ],
      "targetBlank": false,
      "title": "☸️ gitlab-static Kubernetes Detail",
      "type": "dashboards",
      "url": ""
    }
  ],
  "panels": [
    {
      "collapse": false,
      "collapsed": false,
      "gridPos": {
        "h": 1,
        "w": 24,
        "x": 0,
        "y": 0
      },
      "id": 2,
      "panels": [

      ],
      "repeat": null,
      "repeatIteration": null,
      "repeatRowId": null,
      "showTitle": true,
      "title": "🌡️ Aggregated Service Level Indicators (𝙎𝙇𝙄𝙨)",
      "titleSize": "h6",
      "type": "row"
    },
    {
      "bars": false,
      "dashLength": 10,
      "dashes": false,
      "datasource": "$PROMETHEUS_DS",
      "decimals": 2,
      "description": "Error rates are a measure of unhandled service exceptions per second. Client errors are excluded when possible. Lower is better",
      "fill": 0,
      "fillGradient": 0,
      "gridPos": {
        "h": 7,
        "w": 12,
        "x": 0,
        "y": 1
      },
      "id": 4256059212,
      "legend": {
        "alignAsTable": true,
        "avg": true,
        "current": true,
        "hideEmpty": true,
        "max": true,
        "min": true,
        "rightSide": false,
        "show": false,
        "total": false,
        "values": true
      },
      "lines": true,
      "linewidth": 2,
      "nullPointMode": "null",
      "options": {
        "dataLinks": [
          {
            "targetBlank": true,
            "title": "gitlab-static Service Error-Rate SLO Analysis",
            "url": "/d/alerts-service_slo_error?${__url_time_range}&${__all_variables}&var-type=gitlab-static"
          }
        ]
      },
      "percentage": false,
      "pointradius": 5,
      "points": false,
      "renderer": "flot",
      "seriesOverrides": [
        {
          "alias": "/6h Degradation SLO \\(5% of monthly error budget\\).*/",
          "color": "#FF4500",
          "dashLength": 4,
          "dashes": true,
          "legend": true,
          "lines": true,
          "linewidth": 2,
          "nullPointMode": "connected",
          "spaceLength": 10,
          "zindex": -2
        },
        {
          "alias": "/1h Outage SLO \\(2% of monthly error budget\\).*/",
          "color": "#F2495C",
          "dashLength": 4,
          "dashes": true,
          "legend": true,
          "lines": true,
          "linewidth": 4,
          "nullPointMode": "connected",
          "spaceLength": 4,
          "zindex": -2
        },
        {
          "alias": "/.*shard (apdex|error ratio|RPS)$/",
          "color": "#E7D551"
        },
        {
          "alias": "gitlab-static error ratio",
          "color": "#E7D551",
          "fillBelowTo": "gitlab-static error ratio avg",
          "zindex": 3
        },
        {
          "alias": "gitlab-static error ratio avg",
          "color": "#5794F2",
          "dashLength": 1,
          "fillGradient": 10,
          "linewidth": 1,
          "spaceLength": 1,
          "zindex": -3
        },
        {
          "alias": "last week",
          "color": "#dddddd80",
          "dashLength": 4,
          "dashes": true,
          "fill": 0,
          "legend": true,
          "lines": true,
          "linewidth": 1,
          "nullPointMode": "connected",
          "spaceLength": 2,
          "zindex": -3
        }
      ],
      "spaceLength": 10,
      "stableId": "service-gitlab-static-error-rate",
      "stack": false,
      "steppedLine": false,
      "targets": [
        {
          "expr": "clamp_max(\n  max_over_time(gitlab_service_errors:ratio_5m{env=\"ops\",environment=\"ops\",monitor=\"global\",type=\"gitlab-static\"}[$__interval])\n,\n  1\n)\n",
          "format": "time_series",
          "interval": "1m",
          "intervalFactor": 1,
          "legendFormat": "gitlab-static error ratio",
          "refId": "A"
        },
        {
          "expr": "(6 * avg(slo:max:events:gitlab_service_errors:ratio{component=\"\",monitor=\"global\",type=\"gitlab-static\"})\n)\n",
          "format": "time_series",
          "interval": "5m",
          "intervalFactor": 1,
          "legendFormat": "6h Degradation SLO (5% of monthly error budget)",
          "refId": "B"
        },
        {
          "expr": "(14.4 * avg(slo:max:events:gitlab_service_errors:ratio{component=\"\",monitor=\"global\",type=\"gitlab-static\"})\n)\n",
          "format": "time_series",
          "interval": "5m",
          "intervalFactor": 1,
          "legendFormat": "1h Outage SLO (2% of monthly error budget)",
          "refId": "C"
        },
        {
          "expr": "clamp_max(\n  avg_over_time(gitlab_service_errors:ratio_5m{env=\"ops\",environment=\"ops\",monitor=\"global\",type=\"gitlab-static\"}[$__interval])\n,\n  1\n)\n",
          "format": "time_series",
          "interval": "1m",
          "intervalFactor": 1,
          "legendFormat": "gitlab-static error ratio avg",
          "refId": "D"
        },
        {
          "expr": "clamp_max(\n  gitlab_service_errors:ratio_5m{env=\"ops\",environment=\"ops\",monitor=\"global\",type=\"gitlab-static\"} offset 1w\n,\n  scalar(max((14.4 * avg(slo:max:events:gitlab_service_errors:ratio{component=\"\",monitor=\"global\",type=\"gitlab-static\"})\n)\n))\n)\n",
          "format": "time_series",
          "interval": "1m",
          "intervalFactor": 1,
          "legendFormat": "last week",
          "refId": "E"
        }
      ],
      "title": "gitlab-static Service Error Ratio",
      "tooltip": {
        "shared": true,
        "sort": 2,
        "value_type": "individual"
      },
      "type": "graph",
      "xaxis": {
        "mode": "time",
        "show": true
      },
      "yaxes": [
        {
          "format": "percentunit",
          "label": "",
          "logBase": 1,
          "min": 0,
          "show": true
        },
        {
          "format": "short",
          "logBase": 1,
          "max": 1,
          "min": 0,
          "show": false
        }
      ]
    },
    {
      "fieldConfig": {
        "defaults": {
          "displayName": "Status",
          "mappings": [
            {
              "id": 0,
              "options": {
                "0": {
                  "color": "black",
                  "index": 0,
                  "text": "Healthy"
                },
                "1": {
                  "color": "orange",
                  "index": 1,
                  "text": "Warning 🔥"
                },
                "10": {
                  "color": "orange",
                  "index": 10,
                  "text": "Warning 🔥🥵"
                },
                "11": {
                  "color": "red",
                  "index": 11,
                  "text": "Degraded 🔥🥵"
                },
                "12": {
                  "color": "red",
                  "index": 12,
                  "text": "Degraded 🥵"
                },
                "13": {
                  "color": "red",
                  "index": 13,
                  "text": "Degraded 🔥🥵"
                },
                "14": {
                  "color": "red",
                  "index": 14,
                  "text": "Degraded 🔥🥵"
                },
                "15": {
                  "color": "red",
                  "index": 15,
                  "text": "Degraded 🔥🥵"
                },
                "2": {
                  "color": "orange",
                  "index": 2,
                  "text": "Warning 🔥"
                },
                "3": {
                  "color": "red",
                  "index": 3,
                  "text": "Degraded 🔥"
                },
                "4": {
                  "color": "orange",
                  "index": 4,
                  "text": "Warning 🥵"
                },
                "5": {
                  "color": "orange",
                  "index": 5,
                  "text": "Warning 🔥🥵"
                },
                "6": {
                  "color": "orange",
                  "index": 6,
                  "text": "Warning 🔥🥵"
                },
                "7": {
                  "color": "red",
                  "index": 7,
                  "text": "Degraded 🔥🥵"
                },
                "8": {
                  "color": "orange",
                  "index": 8,
                  "text": "Warning 🥵"
                },
                "9": {
                  "color": "orange",
                  "index": 9,
                  "text": "Warning 🔥🥵"
                }
              },
              "type": "value"
            }
          ],
          "thresholds": {
            "mode": "absolute",
            "steps": [
              {
                "color": "black",
                "value": 0
              },
              {
                "color": "orange",
                "value": 1
              },
              {
                "color": "orange",
                "value": 2
              },
              {
                "color": "red",
                "value": 3
              },
              {
                "color": "orange",
                "value": 4
              },
              {
                "color": "orange",
                "value": 5
              },
              {
                "color": "orange",
                "value": 6
              },
              {
                "color": "red",
                "value": 7
              },
              {
                "color": "orange",
                "value": 8
              },
              {
                "color": "orange",
                "value": 9
              },
              {
                "color": "orange",
                "value": 10
              },
              {
                "color": "red",
                "value": 11
              },
              {
                "color": "red",
                "value": 12
              },
              {
                "color": "red",
                "value": 13
              },
              {
                "color": "red",
                "value": 14
              },
              {
                "color": "red",
                "value": 15
              }
            ]
          },
          "unit": "none"
        }
      },
      "gridPos": {
        "h": 1,
        "w": 12,
        "x": 0,
        "y": 8
      },
      "id": 4,
      "options": {
        "colorMode": "background",
        "graphMode": "none",
        "justifyMode": "auto",
        "orientation": "vertical",
        "reduceOptions": {
          "calcs": [
            "lastNotNull"
          ],
          "fields": "",
          "values": false
        },
        "textMode": "auto"
      },
      "pluginVersion": "7",
      "targets": [
        {
          "expr": "sum (\n  label_replace(\n    vector(0) and on() (gitlab_service_errors:ratio_1h{env=\"ops\",environment=\"ops\",monitor=\"global\",type=\"gitlab-static\"}),\n    \"period\", \"na\", \"\", \"\"\n  )\n  or\n  label_replace(\n    vector(1) and on() (gitlab_service_errors:ratio_5m{env=\"ops\",environment=\"ops\",monitor=\"global\",type=\"gitlab-static\"} > on(tier, type) group_left() (14.4 * slo:max:events:gitlab_service_errors:ratio{component=\"\",monitor=\"global\",type=\"gitlab-static\"})),\n    \"period\", \"5m\", \"\", \"\"\n  )\n  or\n  label_replace(\n    vector(2) and on() (gitlab_service_errors:ratio_1h{env=\"ops\",environment=\"ops\",monitor=\"global\",type=\"gitlab-static\"} > on(tier, type) group_left() (14.4 * slo:max:events:gitlab_service_errors:ratio{component=\"\",monitor=\"global\",type=\"gitlab-static\"})),\n    \"period\", \"1h\", \"\", \"\"\n  )\n  or\n  label_replace(\n    vector(4) and on() (gitlab_service_errors:ratio_30m{env=\"ops\",environment=\"ops\",monitor=\"global\",type=\"gitlab-static\"} > on(tier, type) group_left() (6 * slo:max:events:gitlab_service_errors:ratio{component=\"\",monitor=\"global\",type=\"gitlab-static\"})),\n    \"period\", \"30m\", \"\", \"\"\n  )\n  or\n  label_replace(\n    vector(8) and on() (gitlab_service_errors:ratio_6h{env=\"ops\",environment=\"ops\",monitor=\"global\",type=\"gitlab-static\"} > on(tier, type) group_left() (6 * slo:max:events:gitlab_service_errors:ratio{component=\"\",monitor=\"global\",type=\"gitlab-static\"})),\n    \"period\", \"6h\", \"\", \"\"\n  )\n)\n",
          "format": "time_series",
          "instant": true,
          "interval": "1m",
          "intervalFactor": 1,
          "legendFormat": "gitlab-static Service | Errors",
          "refId": "A"
        }
      ],
      "title": "",
      "transparent": false,
      "type": "stat"
    },
    {
      "bars": false,
      "dashLength": 10,
      "dashes": false,
      "datasource": "$PROMETHEUS_DS",
      "decimals": 2,
      "description": "The operation rate is the sum total of all requests being handle for all components within this service. Note that a single user request can lead to requests to multiple components. Higher is busier.",
      "fill": 0,
      "fillGradient": 0,
      "gridPos": {
        "h": 8,
        "w": 12,
        "x": 12,
        "y": 1
      },
      "id": 39377670,
      "legend": {
        "alignAsTable": true,
        "avg": true,
        "current": true,
        "hideEmpty": true,
        "max": true,
        "min": true,
        "rightSide": false,
        "show": false,
        "total": false,
        "values": true
      },
      "lines": true,
      "linewidth": 2,
      "nullPointMode": "null",
      "percentage": false,
      "pointradius": 5,
      "points": false,
      "renderer": "flot",
      "seriesOverrides": [
        {
          "alias": "/.*shard (apdex|error ratio|RPS)$/",
          "color": "#E7D551"
        },
        {
          "alias": "gitlab-static RPS",
          "color": "#E7D551",
          "zindex": 3
        },
        {
          "alias": "last week",
          "color": "#dddddd80",
          "dashLength": 4,
          "dashes": true,
          "fill": 0,
          "legend": true,
          "lines": true,
          "linewidth": 1,
          "nullPointMode": "connected",
          "spaceLength": 2,
          "zindex": -3
        },
        {
          "alias": "upper normal",
          "color": "#73BF69",
          "dashLength": 8,
          "dashes": true,
          "fillBelowTo": "lower normal",
          "legend": false,
          "lines": false,
          "linewidth": 1,
          "nullPointMode": "connected",
          "spaceLength": 8,
          "zindex": -3
        },
        {
          "alias": "lower normal",
          "color": "#73BF69",
          "dashLength": 8,
          "dashes": true,
          "legend": false,
          "lines": false,
          "linewidth": 1,
          "nullPointMode": "connected",
          "spaceLength": 8,
          "zindex": -3
        }
      ],
      "spaceLength": 10,
      "stableId": "service-gitlab-static-ops-rate",
      "stack": false,
      "steppedLine": false,
      "targets": [
        {
          "expr": "avg_over_time(gitlab_service_ops:rate_5m{env=\"ops\",environment=\"ops\",monitor=\"global\",type=\"gitlab-static\"}[$__interval])\n",
          "format": "time_series",
          "interval": "1m",
          "intervalFactor": 1,
          "legendFormat": "gitlab-static RPS",
          "refId": "A"
        },
        {
          "expr": "gitlab_service_ops:rate_5m{env=\"ops\",environment=\"ops\",monitor=\"global\",type=\"gitlab-static\"} offset 1w\n",
          "format": "time_series",
          "interval": "1m",
          "intervalFactor": 1,
          "legendFormat": "last week",
          "refId": "B"
        },
        {
          "expr": "clamp_min(\n  avg by (type) (\n    gitlab_service_ops:rate:prediction{env=\"ops\",environment=\"ops\",monitor=\"global\",type=\"gitlab-static\"}\n    + (1) *\n    gitlab_service_ops:rate:stddev_over_time_1w{env=\"ops\",environment=\"ops\",monitor=\"global\",type=\"gitlab-static\"}\n  ),\n  0\n)\n",
          "format": "time_series",
          "interval": "1m",
          "intervalFactor": 1,
          "legendFormat": "upper normal",
          "refId": "C"
        },
        {
          "expr": "clamp_min(\n  avg by (type) (\n    gitlab_service_ops:rate:prediction{env=\"ops\",environment=\"ops\",monitor=\"global\",type=\"gitlab-static\"}\n    + (-1) *\n    gitlab_service_ops:rate:stddev_over_time_1w{env=\"ops\",environment=\"ops\",monitor=\"global\",type=\"gitlab-static\"}\n  ),\n  0\n)\n",
          "format": "time_series",
          "interval": "1m",
          "intervalFactor": 1,
          "legendFormat": "lower normal",
          "refId": "D"
        }
      ],
      "title": "gitlab-static Service RPS - Requests per Second",
      "tooltip": {
        "shared": true,
        "sort": 2,
        "value_type": "individual"
      },
      "type": "graph",
      "xaxis": {
        "mode": "time",
        "show": true
      },
      "yaxes": [
        {
          "format": "short",
          "label": "",
          "logBase": 1,
          "min": 0,
          "show": true
        },
        {
          "format": "short",
          "logBase": 1,
          "max": 1,
          "min": 0,
          "show": false
        }
      ]
    },
    {
      "collapse": false,
      "collapsed": false,
      "gridPos": {
        "h": 1,
        "w": 24,
        "x": 0,
        "y": 20
      },
      "id": 6,
      "panels": [

      ],
      "repeat": null,
      "repeatIteration": null,
      "repeatRowId": null,
      "showTitle": true,
      "title": "🔬 Service Level Indicators",
      "titleSize": "h6",
      "type": "row"
    },
    {
      "bars": false,
      "dashLength": 10,
      "dashes": false,
      "datasource": "$PROMETHEUS_DS",
      "decimals": 2,
      "description": "Error rates are a measure of unhandled service exceptions per second. Client errors are excluded when possible. Lower is better",
      "fill": 0,
      "fillGradient": 0,
      "gridPos": {
        "h": 7,
        "w": 8,
        "x": 0,
        "y": 21
      },
      "id": 1065590614,
      "legend": {
        "alignAsTable": true,
        "avg": true,
        "current": true,
        "hideEmpty": true,
        "max": true,
        "min": true,
        "rightSide": false,
        "show": true,
        "total": false,
        "values": true
      },
      "lines": true,
      "linewidth": 2,
      "nullPointMode": "null",
      "options": {
        "dataLinks": [
          {
            "targetBlank": true,
            "title": "gitlab_static_net_zone SLI Error-Rate SLO Analysis",
            "url": "/d/alerts-component_slo_error?${__url_time_range}&${__all_variables}&var-component=gitlab_static_net_zone&var-type=gitlab-static"
          }
        ]
      },
      "percentage": false,
      "pointradius": 5,
      "points": false,
      "renderer": "flot",
      "seriesOverrides": [
        {
          "alias": "/6h Degradation SLO \\(5% of monthly error budget\\).*/",
          "color": "#FF4500",
          "dashLength": 4,
          "dashes": true,
          "legend": true,
          "lines": true,
          "linewidth": 2,
          "nullPointMode": "connected",
          "spaceLength": 10,
          "zindex": -2
        },
        {
          "alias": "/1h Outage SLO \\(2% of monthly error budget\\).*/",
          "color": "#F2495C",
          "dashLength": 4,
          "dashes": true,
          "legend": true,
          "lines": true,
          "linewidth": 4,
          "nullPointMode": "connected",
          "spaceLength": 4,
          "zindex": -2
        },
        {
          "alias": "/.*shard (apdex|error ratio|RPS)$/",
          "color": "#E7D551"
        },
        {
          "alias": "gitlab_static_net_zone error ratio",
          "color": "#E7D551",
          "fillBelowTo": "gitlab_static_net_zone error ratio avg",
          "zindex": 3
        },
        {
          "alias": "gitlab_static_net_zone error ratio avg",
          "color": "#5794F2",
          "dashLength": 1,
          "fillGradient": 10,
          "linewidth": 1,
          "spaceLength": 1,
          "zindex": -3
        },
        {
          "alias": "last week",
          "color": "#dddddd80",
          "dashLength": 4,
          "dashes": true,
          "fill": 0,
          "legend": true,
          "lines": true,
          "linewidth": 1,
          "nullPointMode": "connected",
          "spaceLength": 2,
          "zindex": -3
        }
      ],
      "spaceLength": 10,
      "stableId": "sli-gitlab_static_net_zone-error-rate",
      "stack": false,
      "steppedLine": false,
      "targets": [
        {
          "expr": "clamp_max(\n  max_over_time(gitlab_component_errors:ratio_5m{component=\"gitlab_static_net_zone\",env=\"ops\",environment=\"ops\",monitor=\"global\",type=\"gitlab-static\"}[$__interval])\n,\n  1\n)\n",
          "format": "time_series",
          "interval": "1m",
          "intervalFactor": 1,
          "legendFormat": "gitlab_static_net_zone error ratio",
          "refId": "A"
        },
        {
          "expr": "(6 * avg(slo:max:events:gitlab_service_errors:ratio{component=\"gitlab_static_net_zone\",monitor=\"global\",type=\"gitlab-static\"})\n)\n",
          "format": "time_series",
          "interval": "5m",
          "intervalFactor": 1,
          "legendFormat": "6h Degradation SLO (5% of monthly error budget)",
          "refId": "B"
        },
        {
          "expr": "(14.4 * avg(slo:max:events:gitlab_service_errors:ratio{component=\"gitlab_static_net_zone\",monitor=\"global\",type=\"gitlab-static\"})\n)\n",
          "format": "time_series",
          "interval": "5m",
          "intervalFactor": 1,
          "legendFormat": "1h Outage SLO (2% of monthly error budget)",
          "refId": "C"
        },
        {
          "expr": "clamp_max(\n  avg_over_time(gitlab_component_errors:ratio_5m{component=\"gitlab_static_net_zone\",env=\"ops\",environment=\"ops\",monitor=\"global\",type=\"gitlab-static\"}[$__interval])\n,\n  1\n)\n",
          "format": "time_series",
          "interval": "1m",
          "intervalFactor": 1,
          "legendFormat": "gitlab_static_net_zone error ratio avg",
          "refId": "D"
        },
        {
          "expr": "clamp_max(\n  gitlab_component_errors:ratio_5m{component=\"gitlab_static_net_zone\",env=\"ops\",environment=\"ops\",monitor=\"global\",type=\"gitlab-static\"} offset 1w\n,\n  scalar(max((14.4 * avg(slo:max:events:gitlab_service_errors:ratio{component=\"gitlab_static_net_zone\",monitor=\"global\",type=\"gitlab-static\"})\n)\n))\n)\n",
          "format": "time_series",
          "interval": "1m",
          "intervalFactor": 1,
          "legendFormat": "last week",
          "refId": "E"
        }
      ],
      "title": "gitlab_static_net_zone SLI Error Ratio",
      "tooltip": {
        "shared": true,
        "sort": 2,
        "value_type": "individual"
      },
      "type": "graph",
      "xaxis": {
        "mode": "time",
        "show": true
      },
      "yaxes": [
        {
          "format": "percentunit",
          "label": "Error %",
          "logBase": 1,
          "min": 0,
          "show": true
        },
        {
          "format": "short",
          "logBase": 1,
          "max": 1,
          "min": 0,
          "show": false
        }
      ]
    },
    {
      "fieldConfig": {
        "defaults": {
          "displayName": "Status",
          "mappings": [
            {
              "id": 0,
              "options": {
                "0": {
                  "color": "black",
                  "index": 0,
                  "text": "Healthy"
                },
                "1": {
                  "color": "orange",
                  "index": 1,
                  "text": "Warning 🔥"
                },
                "10": {
                  "color": "orange",
                  "index": 10,
                  "text": "Warning 🔥🥵"
                },
                "11": {
                  "color": "red",
                  "index": 11,
                  "text": "Degraded 🔥🥵"
                },
                "12": {
                  "color": "red",
                  "index": 12,
                  "text": "Degraded 🥵"
                },
                "13": {
                  "color": "red",
                  "index": 13,
                  "text": "Degraded 🔥🥵"
                },
                "14": {
                  "color": "red",
                  "index": 14,
                  "text": "Degraded 🔥🥵"
                },
                "15": {
                  "color": "red",
                  "index": 15,
                  "text": "Degraded 🔥🥵"
                },
                "2": {
                  "color": "orange",
                  "index": 2,
                  "text": "Warning 🔥"
                },
                "3": {
                  "color": "red",
                  "index": 3,
                  "text": "Degraded 🔥"
                },
                "4": {
                  "color": "orange",
                  "index": 4,
                  "text": "Warning 🥵"
                },
                "5": {
                  "color": "orange",
                  "index": 5,
                  "text": "Warning 🔥🥵"
                },
                "6": {
                  "color": "orange",
                  "index": 6,
                  "text": "Warning 🔥🥵"
                },
                "7": {
                  "color": "red",
                  "index": 7,
                  "text": "Degraded 🔥🥵"
                },
                "8": {
                  "color": "orange",
                  "index": 8,
                  "text": "Warning 🥵"
                },
                "9": {
                  "color": "orange",
                  "index": 9,
                  "text": "Warning 🔥🥵"
                }
              },
              "type": "value"
            }
          ],
          "thresholds": {
            "mode": "absolute",
            "steps": [
              {
                "color": "black",
                "value": 0
              },
              {
                "color": "orange",
                "value": 1
              },
              {
                "color": "orange",
                "value": 2
              },
              {
                "color": "red",
                "value": 3
              },
              {
                "color": "orange",
                "value": 4
              },
              {
                "color": "orange",
                "value": 5
              },
              {
                "color": "orange",
                "value": 6
              },
              {
                "color": "red",
                "value": 7
              },
              {
                "color": "orange",
                "value": 8
              },
              {
                "color": "orange",
                "value": 9
              },
              {
                "color": "orange",
                "value": 10
              },
              {
                "color": "red",
                "value": 11
              },
              {
                "color": "red",
                "value": 12
              },
              {
                "color": "red",
                "value": 13
              },
              {
                "color": "red",
                "value": 14
              },
              {
                "color": "red",
                "value": 15
              }
            ]
          },
          "unit": "none"
        }
      },
      "gridPos": {
        "h": 1,
        "w": 8,
        "x": 0,
        "y": 28
      },
      "id": 8,
      "options": {
        "colorMode": "background",
        "graphMode": "none",
        "justifyMode": "auto",
        "orientation": "vertical",
        "reduceOptions": {
          "calcs": [
            "lastNotNull"
          ],
          "fields": "",
          "values": false
        },
        "textMode": "auto"
      },
      "pluginVersion": "7",
      "targets": [
        {
          "expr": "sum (\n  label_replace(\n    vector(0) and on() (gitlab_component_errors:ratio_1h{component=\"gitlab_static_net_zone\",env=\"ops\",environment=\"ops\",monitor=\"global\",type=\"gitlab-static\"}),\n    \"period\", \"na\", \"\", \"\"\n  )\n  or\n  label_replace(\n    vector(1) and on() (gitlab_component_errors:ratio_5m{component=\"gitlab_static_net_zone\",env=\"ops\",environment=\"ops\",monitor=\"global\",type=\"gitlab-static\"} > on(tier, type) group_left() (14.4 * slo:max:events:gitlab_service_errors:ratio{component=\"gitlab_static_net_zone\",monitor=\"global\",type=\"gitlab-static\"})),\n    \"period\", \"5m\", \"\", \"\"\n  )\n  or\n  label_replace(\n    vector(2) and on() (gitlab_component_errors:ratio_1h{component=\"gitlab_static_net_zone\",env=\"ops\",environment=\"ops\",monitor=\"global\",type=\"gitlab-static\"} > on(tier, type) group_left() (14.4 * slo:max:events:gitlab_service_errors:ratio{component=\"gitlab_static_net_zone\",monitor=\"global\",type=\"gitlab-static\"})),\n    \"period\", \"1h\", \"\", \"\"\n  )\n  or\n  label_replace(\n    vector(4) and on() (gitlab_component_errors:ratio_30m{component=\"gitlab_static_net_zone\",env=\"ops\",environment=\"ops\",monitor=\"global\",type=\"gitlab-static\"} > on(tier, type) group_left() (6 * slo:max:events:gitlab_service_errors:ratio{component=\"gitlab_static_net_zone\",monitor=\"global\",type=\"gitlab-static\"})),\n    \"period\", \"30m\", \"\", \"\"\n  )\n  or\n  label_replace(\n    vector(8) and on() (gitlab_component_errors:ratio_6h{component=\"gitlab_static_net_zone\",env=\"ops\",environment=\"ops\",monitor=\"global\",type=\"gitlab-static\"} > on(tier, type) group_left() (6 * slo:max:events:gitlab_service_errors:ratio{component=\"gitlab_static_net_zone\",monitor=\"global\",type=\"gitlab-static\"})),\n    \"period\", \"6h\", \"\", \"\"\n  )\n)\n",
          "format": "time_series",
          "instant": true,
          "interval": "1m",
          "intervalFactor": 1,
          "legendFormat": "gitlab_static_net_zone SLI | Errors",
          "refId": "A"
        }
      ],
      "title": "",
      "transparent": false,
      "type": "stat"
    },
    {
      "bars": false,
      "dashLength": 10,
      "dashes": false,
      "datasource": "$PROMETHEUS_DS",
      "decimals": 2,
      "description": "The operation rate is the sum total of all requests being handle for all components within this service. Note that a single user request can lead to requests to multiple components. Higher is busier.",
      "fill": 0,
      "fillGradient": 0,
      "gridPos": {
        "h": 8,
        "w": 8,
        "x": 8,
        "y": 21
      },
      "id": 2690912036,
      "legend": {
        "alignAsTable": true,
        "avg": true,
        "current": true,
        "hideEmpty": true,
        "max": true,
        "min": true,
        "rightSide": false,
        "show": true,
        "total": false,
        "values": true
      },
      "lines": true,
      "linewidth": 2,
      "nullPointMode": "null",
      "percentage": false,
      "pointradius": 5,
      "points": false,
      "renderer": "flot",
      "seriesOverrides": [
        {
          "alias": "/.*shard (apdex|error ratio|RPS)$/",
          "color": "#E7D551"
        },
        {
          "alias": "gitlab_static_net_zone RPS",
          "color": "#E7D551",
          "zindex": 3
        },
        {
          "alias": "last week",
          "color": "#dddddd80",
          "dashLength": 4,
          "dashes": true,
          "fill": 0,
          "legend": true,
          "lines": true,
          "linewidth": 1,
          "nullPointMode": "connected",
          "spaceLength": 2,
          "zindex": -3
        }
      ],
      "spaceLength": 10,
      "stableId": "sli-gitlab_static_net_zone-ops-rate",
      "stack": false,
      "steppedLine": false,
      "targets": [
        {
          "expr": "avg_over_time(gitlab_component_ops:rate_5m{component=\"gitlab_static_net_zone\",env=\"ops\",environment=\"ops\",monitor=\"global\",type=\"gitlab-static\"}[$__interval])\n",
          "format": "time_series",
          "interval": "1m",
          "intervalFactor": 1,
          "legendFormat": "gitlab_static_net_zone RPS",
          "refId": "A"
        },
        {
          "expr": "gitlab_component_ops:rate_5m{component=\"gitlab_static_net_zone\",env=\"ops\",environment=\"ops\",monitor=\"global\",type=\"gitlab-static\"} offset 1w\n",
          "format": "time_series",
          "interval": "1m",
          "intervalFactor": 1,
          "legendFormat": "last week",
          "refId": "B"
        }
      ],
      "title": "gitlab_static_net_zone SLI RPS - Requests per Second",
      "tooltip": {
        "shared": true,
        "sort": 2,
        "value_type": "individual"
      },
      "type": "graph",
      "xaxis": {
        "mode": "time",
        "show": true
      },
      "yaxes": [
        {
          "format": "short",
          "label": "Operations per Second",
          "logBase": 1,
          "min": 0,
          "show": true
        },
        {
          "format": "short",
          "logBase": 1,
          "max": 1,
          "min": 0,
          "show": false
        }
      ]
    },
    {
      "content": "### Description\n\nAggregation of all public traffic for gitlab-static.net.\n\nErrors on this SLI *may* indicate that the WAF has detected\nmalicious traffic and is blocking it or upstream errors\nprocessing the request.\n\n",
      "gridPos": {
        "h": 8,
        "w": 8,
        "x": 16,
        "y": 21
      },
      "id": 10,
      "mode": "markdown",
      "title": "Details",
      "type": "text"
    },
    {
      "bars": false,
      "dashLength": 10,
      "dashes": false,
      "datasource": "$PROMETHEUS_DS",
      "decimals": 2,
      "description": "Error rates are a measure of unhandled service exceptions per second. Client errors are excluded when possible. Lower is better",
      "fill": 0,
      "fillGradient": 0,
      "gridPos": {
        "h": 7,
        "w": 8,
        "x": 0,
        "y": 31
      },
      "id": 815958009,
      "legend": {
        "alignAsTable": true,
        "avg": true,
        "current": true,
        "hideEmpty": true,
        "max": true,
        "min": true,
        "rightSide": false,
        "show": true,
        "total": false,
        "values": true
      },
      "lines": true,
      "linewidth": 2,
      "nullPointMode": "null",
      "options": {
        "dataLinks": [
          {
            "targetBlank": true,
            "title": "web_ide_worker SLI Error-Rate SLO Analysis",
            "url": "/d/alerts-component_slo_error?${__url_time_range}&${__all_variables}&var-component=web_ide_worker&var-type=gitlab-static"
          }
        ]
      },
      "percentage": false,
      "pointradius": 5,
      "points": false,
      "renderer": "flot",
      "seriesOverrides": [
        {
          "alias": "/6h Degradation SLO \\(5% of monthly error budget\\).*/",
          "color": "#FF4500",
          "dashLength": 4,
          "dashes": true,
          "legend": true,
          "lines": true,
          "linewidth": 2,
          "nullPointMode": "connected",
          "spaceLength": 10,
          "zindex": -2
        },
        {
          "alias": "/1h Outage SLO \\(2% of monthly error budget\\).*/",
          "color": "#F2495C",
          "dashLength": 4,
          "dashes": true,
          "legend": true,
          "lines": true,
          "linewidth": 4,
          "nullPointMode": "connected",
          "spaceLength": 4,
          "zindex": -2
        },
        {
          "alias": "/.*shard (apdex|error ratio|RPS)$/",
          "color": "#E7D551"
        },
        {
          "alias": "web_ide_worker error ratio",
          "color": "#E7D551",
          "fillBelowTo": "web_ide_worker error ratio avg",
          "zindex": 3
        },
        {
          "alias": "web_ide_worker error ratio avg",
          "color": "#5794F2",
          "dashLength": 1,
          "fillGradient": 10,
          "linewidth": 1,
          "spaceLength": 1,
          "zindex": -3
        },
        {
          "alias": "last week",
          "color": "#dddddd80",
          "dashLength": 4,
          "dashes": true,
          "fill": 0,
          "legend": true,
          "lines": true,
          "linewidth": 1,
          "nullPointMode": "connected",
          "spaceLength": 2,
          "zindex": -3
        }
      ],
      "spaceLength": 10,
      "stableId": "sli-web_ide_worker-error-rate",
      "stack": false,
      "steppedLine": false,
      "targets": [
        {
          "expr": "clamp_max(\n  max_over_time(gitlab_component_errors:ratio_5m{component=\"web_ide_worker\",env=\"ops\",environment=\"ops\",monitor=\"global\",type=\"gitlab-static\"}[$__interval])\n,\n  1\n)\n",
          "format": "time_series",
          "interval": "1m",
          "intervalFactor": 1,
          "legendFormat": "web_ide_worker error ratio",
          "refId": "A"
        },
        {
          "expr": "(6 * avg(slo:max:events:gitlab_service_errors:ratio{component=\"web_ide_worker\",monitor=\"global\",type=\"gitlab-static\"})\n)\n",
          "format": "time_series",
          "interval": "5m",
          "intervalFactor": 1,
          "legendFormat": "6h Degradation SLO (5% of monthly error budget)",
          "refId": "B"
        },
        {
          "expr": "(14.4 * avg(slo:max:events:gitlab_service_errors:ratio{component=\"web_ide_worker\",monitor=\"global\",type=\"gitlab-static\"})\n)\n",
          "format": "time_series",
          "interval": "5m",
          "intervalFactor": 1,
          "legendFormat": "1h Outage SLO (2% of monthly error budget)",
          "refId": "C"
        },
        {
          "expr": "clamp_max(\n  avg_over_time(gitlab_component_errors:ratio_5m{component=\"web_ide_worker\",env=\"ops\",environment=\"ops\",monitor=\"global\",type=\"gitlab-static\"}[$__interval])\n,\n  1\n)\n",
          "format": "time_series",
          "interval": "1m",
          "intervalFactor": 1,
          "legendFormat": "web_ide_worker error ratio avg",
          "refId": "D"
        },
        {
          "expr": "clamp_max(\n  gitlab_component_errors:ratio_5m{component=\"web_ide_worker\",env=\"ops\",environment=\"ops\",monitor=\"global\",type=\"gitlab-static\"} offset 1w\n,\n  scalar(max((14.4 * avg(slo:max:events:gitlab_service_errors:ratio{component=\"web_ide_worker\",monitor=\"global\",type=\"gitlab-static\"})\n)\n))\n)\n",
          "format": "time_series",
          "interval": "1m",
          "intervalFactor": 1,
          "legendFormat": "last week",
          "refId": "E"
        }
      ],
      "title": "web_ide_worker SLI Error Ratio",
      "tooltip": {
        "shared": true,
        "sort": 2,
        "value_type": "individual"
      },
      "type": "graph",
      "xaxis": {
        "mode": "time",
        "show": true
      },
      "yaxes": [
        {
          "format": "percentunit",
          "label": "Error %",
          "logBase": 1,
          "min": 0,
          "show": true
        },
        {
          "format": "short",
          "logBase": 1,
          "max": 1,
          "min": 0,
          "show": false
        }
      ]
    },
    {
      "fieldConfig": {
        "defaults": {
          "displayName": "Status",
          "mappings": [
            {
              "id": 0,
              "options": {
                "0": {
                  "color": "black",
                  "index": 0,
                  "text": "Healthy"
                },
                "1": {
                  "color": "orange",
                  "index": 1,
                  "text": "Warning 🔥"
                },
                "10": {
                  "color": "orange",
                  "index": 10,
                  "text": "Warning 🔥🥵"
                },
                "11": {
                  "color": "red",
                  "index": 11,
                  "text": "Degraded 🔥🥵"
                },
                "12": {
                  "color": "red",
                  "index": 12,
                  "text": "Degraded 🥵"
                },
                "13": {
                  "color": "red",
                  "index": 13,
                  "text": "Degraded 🔥🥵"
                },
                "14": {
                  "color": "red",
                  "index": 14,
                  "text": "Degraded 🔥🥵"
                },
                "15": {
                  "color": "red",
                  "index": 15,
                  "text": "Degraded 🔥🥵"
                },
                "2": {
                  "color": "orange",
                  "index": 2,
                  "text": "Warning 🔥"
                },
                "3": {
                  "color": "red",
                  "index": 3,
                  "text": "Degraded 🔥"
                },
                "4": {
                  "color": "orange",
                  "index": 4,
                  "text": "Warning 🥵"
                },
                "5": {
                  "color": "orange",
                  "index": 5,
                  "text": "Warning 🔥🥵"
                },
                "6": {
                  "color": "orange",
                  "index": 6,
                  "text": "Warning 🔥🥵"
                },
                "7": {
                  "color": "red",
                  "index": 7,
                  "text": "Degraded 🔥🥵"
                },
                "8": {
                  "color": "orange",
                  "index": 8,
                  "text": "Warning 🥵"
                },
                "9": {
                  "color": "orange",
                  "index": 9,
                  "text": "Warning 🔥🥵"
                }
              },
              "type": "value"
            }
          ],
          "thresholds": {
            "mode": "absolute",
            "steps": [
              {
                "color": "black",
                "value": 0
              },
              {
                "color": "orange",
                "value": 1
              },
              {
                "color": "orange",
                "value": 2
              },
              {
                "color": "red",
                "value": 3
              },
              {
                "color": "orange",
                "value": 4
              },
              {
                "color": "orange",
                "value": 5
              },
              {
                "color": "orange",
                "value": 6
              },
              {
                "color": "red",
                "value": 7
              },
              {
                "color": "orange",
                "value": 8
              },
              {
                "color": "orange",
                "value": 9
              },
              {
                "color": "orange",
                "value": 10
              },
              {
                "color": "red",
                "value": 11
              },
              {
                "color": "red",
                "value": 12
              },
              {
                "color": "red",
                "value": 13
              },
              {
                "color": "red",
                "value": 14
              },
              {
                "color": "red",
                "value": 15
              }
            ]
          },
          "unit": "none"
        }
      },
      "gridPos": {
        "h": 1,
        "w": 8,
        "x": 0,
        "y": 38
      },
      "id": 12,
      "options": {
        "colorMode": "background",
        "graphMode": "none",
        "justifyMode": "auto",
        "orientation": "vertical",
        "reduceOptions": {
          "calcs": [
            "lastNotNull"
          ],
          "fields": "",
          "values": false
        },
        "textMode": "auto"
      },
      "pluginVersion": "7",
      "targets": [
        {
          "expr": "sum (\n  label_replace(\n    vector(0) and on() (gitlab_component_errors:ratio_1h{component=\"web_ide_worker\",env=\"ops\",environment=\"ops\",monitor=\"global\",type=\"gitlab-static\"}),\n    \"period\", \"na\", \"\", \"\"\n  )\n  or\n  label_replace(\n    vector(1) and on() (gitlab_component_errors:ratio_5m{component=\"web_ide_worker\",env=\"ops\",environment=\"ops\",monitor=\"global\",type=\"gitlab-static\"} > on(tier, type) group_left() (14.4 * slo:max:events:gitlab_service_errors:ratio{component=\"web_ide_worker\",monitor=\"global\",type=\"gitlab-static\"})),\n    \"period\", \"5m\", \"\", \"\"\n  )\n  or\n  label_replace(\n    vector(2) and on() (gitlab_component_errors:ratio_1h{component=\"web_ide_worker\",env=\"ops\",environment=\"ops\",monitor=\"global\",type=\"gitlab-static\"} > on(tier, type) group_left() (14.4 * slo:max:events:gitlab_service_errors:ratio{component=\"web_ide_worker\",monitor=\"global\",type=\"gitlab-static\"})),\n    \"period\", \"1h\", \"\", \"\"\n  )\n  or\n  label_replace(\n    vector(4) and on() (gitlab_component_errors:ratio_30m{component=\"web_ide_worker\",env=\"ops\",environment=\"ops\",monitor=\"global\",type=\"gitlab-static\"} > on(tier, type) group_left() (6 * slo:max:events:gitlab_service_errors:ratio{component=\"web_ide_worker\",monitor=\"global\",type=\"gitlab-static\"})),\n    \"period\", \"30m\", \"\", \"\"\n  )\n  or\n  label_replace(\n    vector(8) and on() (gitlab_component_errors:ratio_6h{component=\"web_ide_worker\",env=\"ops\",environment=\"ops\",monitor=\"global\",type=\"gitlab-static\"} > on(tier, type) group_left() (6 * slo:max:events:gitlab_service_errors:ratio{component=\"web_ide_worker\",monitor=\"global\",type=\"gitlab-static\"})),\n    \"period\", \"6h\", \"\", \"\"\n  )\n)\n",
          "format": "time_series",
          "instant": true,
          "interval": "1m",
          "intervalFactor": 1,
          "legendFormat": "web_ide_worker SLI | Errors",
          "refId": "A"
        }
      ],
      "title": "",
      "transparent": false,
      "type": "stat"
    },
    {
      "bars": false,
      "dashLength": 10,
      "dashes": false,
      "datasource": "$PROMETHEUS_DS",
      "decimals": 2,
      "description": "The operation rate is the sum total of all requests being handle for all components within this service. Note that a single user request can lead to requests to multiple components. Higher is busier.",
      "fill": 0,
      "fillGradient": 0,
      "gridPos": {
        "h": 8,
        "w": 8,
        "x": 8,
        "y": 31
      },
      "id": 2805533989,
      "legend": {
        "alignAsTable": true,
        "avg": true,
        "current": true,
        "hideEmpty": true,
        "max": true,
        "min": true,
        "rightSide": false,
        "show": true,
        "total": false,
        "values": true
      },
      "lines": true,
      "linewidth": 2,
      "nullPointMode": "null",
      "percentage": false,
      "pointradius": 5,
      "points": false,
      "renderer": "flot",
      "seriesOverrides": [
        {
          "alias": "/.*shard (apdex|error ratio|RPS)$/",
          "color": "#E7D551"
        },
        {
          "alias": "web_ide_worker RPS",
          "color": "#E7D551",
          "zindex": 3
        },
        {
          "alias": "last week",
          "color": "#dddddd80",
          "dashLength": 4,
          "dashes": true,
          "fill": 0,
          "legend": true,
          "lines": true,
          "linewidth": 1,
          "nullPointMode": "connected",
          "spaceLength": 2,
          "zindex": -3
        }
      ],
      "spaceLength": 10,
      "stableId": "sli-web_ide_worker-ops-rate",
      "stack": false,
      "steppedLine": false,
      "targets": [
        {
          "expr": "avg_over_time(gitlab_component_ops:rate_5m{component=\"web_ide_worker\",env=\"ops\",environment=\"ops\",monitor=\"global\",type=\"gitlab-static\"}[$__interval])\n",
          "format": "time_series",
          "interval": "1m",
          "intervalFactor": 1,
          "legendFormat": "web_ide_worker RPS",
          "refId": "A"
        },
        {
          "expr": "gitlab_component_ops:rate_5m{component=\"web_ide_worker\",env=\"ops\",environment=\"ops\",monitor=\"global\",type=\"gitlab-static\"} offset 1w\n",
          "format": "time_series",
          "interval": "1m",
          "intervalFactor": 1,
          "legendFormat": "last week",
          "refId": "B"
        }
      ],
      "title": "web_ide_worker SLI RPS - Requests per Second",
      "tooltip": {
        "shared": true,
        "sort": 2,
        "value_type": "individual"
      },
      "type": "graph",
      "xaxis": {
        "mode": "time",
        "show": true
      },
      "yaxes": [
        {
          "format": "short",
          "label": "Operations per Second",
          "logBase": 1,
          "min": 0,
          "show": true
        },
        {
          "format": "short",
          "logBase": 1,
          "max": 1,
          "min": 0,
          "show": false
        }
      ]
    },
    {
      "content": "### Description\n\nCloudflare Worker used by our VS Code-based Web IDE to pull assets from *.cdn.web-ide.gitlab-static.net.\n\n",
      "gridPos": {
        "h": 8,
        "w": 8,
        "x": 16,
        "y": 31
      },
      "id": 14,
      "mode": "markdown",
      "title": "Details",
      "type": "text"
    },
    {
      "collapse": true,
      "collapsed": true,
      "gridPos": {
        "h": 10,
        "w": 24,
        "x": 0,
        "y": 200
      },
      "id": 15,
      "panels": [
        {
          "bars": false,
          "dashLength": 10,
          "dashes": false,
          "datasource": "$PROMETHEUS_DS",
          "decimals": 2,
          "description": "",
          "fill": 0,
          "fillGradient": 0,
          "gridPos": {
            "h": 10,
            "w": 12,
            "x": 0,
            "y": 0
          },
          "id": 16,
          "legend": {
            "alignAsTable": true,
            "avg": true,
            "current": true,
            "hideEmpty": true,
            "max": true,
            "min": true,
            "rightSide": false,
            "show": true,
            "total": false,
            "values": true
          },
          "lines": true,
          "linewidth": 2,
          "nullPointMode": "null",
          "percentage": false,
          "pointradius": 5,
          "points": false,
          "renderer": "flot",
          "spaceLength": 10,
          "stack": false,
          "steppedLine": false,
          "targets": [
            {
              "expr": "sum by () (\n  rate(cloudflare_zone_requests_status{env=\"ops\",environment=\"ops\",status=~\"5..\",zone=\"gitlab-static.net\"}[$__interval])\n)\n > 0",
              "format": "time_series",
              "interval": "1m",
              "intervalFactor": 1,
              "legendFormat": "overall",
              "refId": "A"
            }
          ],
          "title": "gitlab_static_net_zone Errors - Overall",
          "tooltip": {
            "shared": true,
            "sort": 2,
            "value_type": "individual"
          },
          "type": "graph",
          "xaxis": {
            "mode": "time",
            "show": true
          },
          "yaxes": [
            {
              "format": "short",
              "label": "Errors",
              "logBase": 1,
              "min": 0,
              "show": true
            },
            {
              "format": "short",
              "logBase": 1,
              "max": 1,
              "min": 0,
              "show": false
            }
          ]
        },
        {
          "bars": false,
          "dashLength": 10,
          "dashes": false,
          "datasource": "$PROMETHEUS_DS",
          "decimals": 0,
          "description": "",
          "fill": 0,
          "fillGradient": 0,
          "gridPos": {
            "h": 10,
            "w": 12,
            "x": 12,
            "y": 0
          },
          "id": 17,
          "legend": {
            "alignAsTable": true,
            "avg": true,
            "current": true,
            "hideEmpty": true,
            "max": true,
            "min": true,
            "rightSide": false,
            "show": true,
            "total": false,
            "values": true
          },
          "lines": true,
          "linewidth": 2,
          "nullPointMode": "null",
          "percentage": false,
          "pointradius": 5,
          "points": false,
          "renderer": "flot",
          "spaceLength": 10,
          "stack": false,
          "steppedLine": false,
          "targets": [
            {
              "expr": "sum by () (\n  rate(cloudflare_zone_requests_total{env=\"ops\",environment=\"ops\",zone=\"gitlab-static.net\"}[$__interval])\n)\n > 0",
              "format": "time_series",
              "interval": "1m",
              "intervalFactor": 1,
              "legendFormat": "overall",
              "refId": "A"
            }
          ],
          "title": "gitlab_static_net_zone RPS - Overall",
          "tooltip": {
            "shared": true,
            "sort": 2,
            "value_type": "individual"
          },
          "type": "graph",
          "xaxis": {
            "mode": "time",
            "show": true
          },
          "yaxes": [
            {
              "format": "short",
              "label": "Requests per Second",
              "logBase": 1,
              "min": 0,
              "show": true
            },
            {
              "format": "short",
              "logBase": 1,
              "max": 1,
              "min": 0,
              "show": false
            }
          ]
        }
      ],
      "repeat": null,
      "repeatIteration": null,
      "repeatRowId": null,
      "showTitle": true,
      "title": "🔬 SLI Detail: gitlab_static_net_zone",
      "titleSize": "h6",
      "type": "row"
    },
    {
      "collapse": true,
      "collapsed": true,
      "gridPos": {
        "h": 10,
        "w": 24,
        "x": 0,
        "y": 210
      },
      "id": 18,
      "panels": [
        {
          "bars": false,
          "dashLength": 10,
          "dashes": false,
          "datasource": "$PROMETHEUS_DS",
          "decimals": 2,
          "description": "",
          "fill": 0,
          "fillGradient": 0,
          "gridPos": {
            "h": 10,
            "w": 12,
            "x": 0,
            "y": 0
          },
          "id": 19,
          "legend": {
            "alignAsTable": true,
            "avg": true,
            "current": true,
            "hideEmpty": true,
            "max": true,
            "min": true,
            "rightSide": false,
            "show": true,
            "total": false,
            "values": true
          },
          "lines": true,
          "linewidth": 2,
          "nullPointMode": "null",
          "percentage": false,
          "pointradius": 5,
          "points": false,
          "renderer": "flot",
          "spaceLength": 10,
          "stack": false,
          "steppedLine": false,
          "targets": [
            {
              "expr": "sum by () (\n  rate(cloudflare_worker_errors_count{env=\"ops\",environment=\"ops\",script_name=\"gitlab-web-ide-vscode-production\"}[$__interval])\n)\n > 0",
              "format": "time_series",
              "interval": "1m",
              "intervalFactor": 1,
              "legendFormat": "overall",
              "refId": "A"
            }
          ],
          "title": "web_ide_worker Errors - Overall",
          "tooltip": {
            "shared": true,
            "sort": 2,
            "value_type": "individual"
          },
          "type": "graph",
          "xaxis": {
            "mode": "time",
            "show": true
          },
          "yaxes": [
            {
              "format": "short",
              "label": "Errors",
              "logBase": 1,
              "min": 0,
              "show": true
            },
            {
              "format": "short",
              "logBase": 1,
              "max": 1,
              "min": 0,
              "show": false
            }
          ]
        },
        {
          "bars": false,
          "dashLength": 10,
          "dashes": false,
          "datasource": "$PROMETHEUS_DS",
          "decimals": 0,
          "description": "",
          "fill": 0,
          "fillGradient": 0,
          "gridPos": {
            "h": 10,
            "w": 12,
            "x": 12,
            "y": 0
          },
          "id": 20,
          "legend": {
            "alignAsTable": true,
            "avg": true,
            "current": true,
            "hideEmpty": true,
            "max": true,
            "min": true,
            "rightSide": false,
            "show": true,
            "total": false,
            "values": true
          },
          "lines": true,
          "linewidth": 2,
          "nullPointMode": "null",
          "percentage": false,
          "pointradius": 5,
          "points": false,
          "renderer": "flot",
          "spaceLength": 10,
          "stack": false,
          "steppedLine": false,
          "targets": [
            {
              "expr": "sum by () (\n  rate(cloudflare_worker_requests_count{env=\"ops\",environment=\"ops\",script_name=\"gitlab-web-ide-vscode-production\"}[$__interval])\n)\n > 0",
              "format": "time_series",
              "interval": "1m",
              "intervalFactor": 1,
              "legendFormat": "overall",
              "refId": "A"
            }
          ],
          "title": "web_ide_worker RPS - Overall",
          "tooltip": {
            "shared": true,
            "sort": 2,
            "value_type": "individual"
          },
          "type": "graph",
          "xaxis": {
            "mode": "time",
            "show": true
          },
          "yaxes": [
            {
              "format": "short",
              "label": "Requests per Second",
              "logBase": 1,
              "min": 0,
              "show": true
            },
            {
              "format": "short",
              "logBase": 1,
              "max": 1,
              "min": 0,
              "show": false
            }
          ]
        }
      ],
      "repeat": null,
      "repeatIteration": null,
      "repeatRowId": null,
      "showTitle": true,
      "title": "🔬 SLI Detail: web_ide_worker",
      "titleSize": "h6",
      "type": "row"
    },
    {
      "collapse": true,
      "collapsed": true,
      "gridPos": {
        "x": 0,
        "y": 100010
      },
      "id": 21,
      "panels": [
        {
          "colors": [
            "rgba(50, 172, 45, 0.97)",
            "rgba(237, 129, 40, 0.89)",
            "rgba(245, 54, 54, 0.9)"
          ],
          "composites": [

          ],
          "datasource": "$PROMETHEUS_DS",
          "decimals": 3,
          "format": "percentunit",
          "graphId": "diagram_errors",
          "gridPos": {
            "h": 10,
            "w": 24,
            "x": 0,
            "y": 0
          },
          "id": 22,
          "init": {
            "arrowMarkerAbsolute": true,
            "cloneCssStyles": true,
            "flowchart": {
              "htmlLabels": true,
              "useMaxWidth": true
            },
            "gantt": {
              "barGap": 4,
              "barHeight": 20,
              "fontFamily": "\"Open-Sans\", \"sans-serif\"",
              "fontSize": 11,
              "gridLineStartPadding": 35,
              "leftPadding": 75,
              "numberSectionStyles": 3,
              "titleTopMargin": 25,
              "topPadding": 50
            },
            "logLevel": 3,
            "sequenceDiagram": {
              "actorMargin": 50,
              "bottomMarginAdj": 1,
              "boxMargin": 10,
              "boxTextMargin": 5,
              "diagramMarginX": 50,
              "diagramMarginY": 10,
              "height": 65,
              "messageMargin": 35,
              "mirrorActors": true,
              "noteMargin": 10,
              "useMaxWidth": true,
              "width": 150
            },
            "startOnLoad": false
          },
          "interval": "",
          "legend": {
            "avg": true,
            "current": true,
            "gradient": {
              "enabled": true,
              "show": true
            },
            "max": true,
            "min": true,
            "show": false,
            "total": true
          },
          "mappingType": 1,
          "mappingTypes": [

          ],
          "maxDataPoints": 100,
          "maxWidth": false,
          "mermaidServiceUrl": "",
          "metricCharacterReplacements": [

          ],
          "moddedSeriesVal": 0,
          "mode": "content",
          "nullPointMode": "connected",
          "options": {
            "content": "graph TD\n  subgraph inf\n  gitlab-static\nend\n\n\n  \n"
          },
          "seriesOverrides": [

          ],
          "style": "",
          "targets": [
            {
              "expr": "clamp_max(\n  max_over_time(gitlab_service_errors:ratio_5m{environment=\"$environment\",monitor=\"global\",stage=\"$stage\"}[$__range])\n,\n  1\n)\n",
              "format": "time_series",
              "instant": true,
              "interval": "1m",
              "intervalFactor": 1,
              "legendFormat": "{{ type }}"
            }
          ],
          "thresholds": "0,0.001",
          "title": "System Diagram (Keyed by Error Rates)",
          "type": "jdbranham-diagram-panel",
          "valueMaps": [

          ],
          "valueName": "current",
          "valueOptions": [
            "avg",
            "min",
            "max",
            "total",
            "current"
          ]
        },
        {
          "colors": [
            "rgba(245, 54, 54, 0.9)",
            "#FF9830",
            "#73BF69"
          ],
          "composites": [

          ],
          "datasource": "$PROMETHEUS_DS",
          "decimals": 3,
          "format": "percentunit",
          "graphId": "diagram_apdex",
          "gridPos": {
            "h": 10,
            "w": 24,
            "x": 0,
            "y": 10
          },
          "id": 23,
          "init": {
            "arrowMarkerAbsolute": true,
            "cloneCssStyles": true,
            "flowchart": {
              "htmlLabels": true,
              "useMaxWidth": true
            },
            "gantt": {
              "barGap": 4,
              "barHeight": 20,
              "fontFamily": "\"Open-Sans\", \"sans-serif\"",
              "fontSize": 11,
              "gridLineStartPadding": 35,
              "leftPadding": 75,
              "numberSectionStyles": 3,
              "titleTopMargin": 25,
              "topPadding": 50
            },
            "logLevel": 3,
            "sequenceDiagram": {
              "actorMargin": 50,
              "bottomMarginAdj": 1,
              "boxMargin": 10,
              "boxTextMargin": 5,
              "diagramMarginX": 50,
              "diagramMarginY": 10,
              "height": 65,
              "messageMargin": 35,
              "mirrorActors": true,
              "noteMargin": 10,
              "useMaxWidth": true,
              "width": 150
            },
            "startOnLoad": false
          },
          "interval": "",
          "legend": {
            "avg": true,
            "current": true,
            "gradient": {
              "enabled": true,
              "show": true
            },
            "max": true,
            "min": true,
            "show": false,
            "total": true
          },
          "mappingType": 1,
          "mappingTypes": [

          ],
          "maxDataPoints": 100,
          "maxWidth": false,
          "mermaidServiceUrl": "",
          "metricCharacterReplacements": [

          ],
          "moddedSeriesVal": 0,
          "mode": "content",
          "nullPointMode": "connected",
          "options": {
            "content": "graph TD\n  subgraph inf\n  gitlab-static\nend\n\n\n  \n"
          },
          "seriesOverrides": [

          ],
          "style": "",
          "targets": [
            {
              "expr": "min_over_time(gitlab_service_apdex:ratio_5m{environment=\"$environment\",monitor=\"global\",stage=\"$stage\"}[$__range])\n",
              "format": "time_series",
              "instant": true,
              "interval": "1m",
              "intervalFactor": 1,
              "legendFormat": "{{ type }}"
            }
          ],
          "thresholds": "0.99,0.995,0.999",
          "title": "System Diagram (Keyed by Apdex/Latency Scores)",
          "type": "jdbranham-diagram-panel",
          "valueMaps": [

          ],
          "valueName": "current",
          "valueOptions": [
            "avg",
            "min",
            "max",
            "total",
            "current"
          ]
        },
        {
          "colors": [

          ],
          "composites": [

          ],
          "datasource": "$PROMETHEUS_DS",
          "decimals": 3,
          "format": "percentunit",
          "graphId": "diagram_maturity",
          "gridPos": {
            "h": 10,
            "w": 24,
            "x": 0,
            "y": 20
          },
          "id": 24,
          "init": {
            "arrowMarkerAbsolute": true,
            "cloneCssStyles": true,
            "flowchart": {
              "htmlLabels": true,
              "useMaxWidth": true
            },
            "gantt": {
              "barGap": 4,
              "barHeight": 20,
              "fontFamily": "\"Open-Sans\", \"sans-serif\"",
              "fontSize": 11,
              "gridLineStartPadding": 35,
              "leftPadding": 75,
              "numberSectionStyles": 3,
              "titleTopMargin": 25,
              "topPadding": 50
            },
            "logLevel": 3,
            "sequenceDiagram": {
              "actorMargin": 50,
              "bottomMarginAdj": 1,
              "boxMargin": 10,
              "boxTextMargin": 5,
              "diagramMarginX": 50,
              "diagramMarginY": 10,
              "height": 65,
              "messageMargin": 35,
              "mirrorActors": true,
              "noteMargin": 10,
              "useMaxWidth": true,
              "width": 150
            },
            "startOnLoad": false
          },
          "interval": "",
          "legend": {
            "avg": true,
            "current": true,
            "gradient": {
              "enabled": true,
              "show": true
            },
            "max": true,
            "min": true,
            "show": false,
            "total": true
          },
          "mappingType": 1,
          "mappingTypes": [

          ],
          "maxDataPoints": 100,
          "maxWidth": false,
          "mermaidServiceUrl": "",
          "metricCharacterReplacements": [

          ],
          "moddedSeriesVal": 0,
          "mode": "content",
          "nullPointMode": "connected",
          "options": {
            "content": "graph TD\n  subgraph inf\n  gitlab-static[\"gitlab-static (Level 1)\"]\nend\n\n\n  \n"
          },
          "seriesOverrides": [

          ],
          "style": "",
          "targets": [

          ],
          "thresholds": "",
          "title": "System Diagram (Keyed by Maturity Model)",
          "type": "jdbranham-diagram-panel",
          "valueMaps": [

          ],
          "valueName": "current",
          "valueOptions": [
            "avg",
            "min",
            "max",
            "total",
            "current"
          ]
        }
      ],
      "repeat": null,
      "repeatIteration": null,
      "repeatRowId": null,
      "showTitle": true,
      "title": "🗺️ System Diagrams",
      "titleSize": "h6",
      "type": "row"
    },
    {
      "content": "Made with ❤️ and [Grafonnet](https://github.com/grafana/grafonnet-lib). [Contribute to this dashboard on GitLab.com](https://gitlab.com/gitlab-com/runbooks/blob/master/dashboards)\n",
      "datasource": null,
      "gridPos": {
        "h": 2,
        "w": 24,
        "x": 0,
        "y": 110000
      },
      "id": 25,
      "mode": "markdown",
      "title": "Source",
      "type": "text"
    }
  ],
  "refresh": "",
  "rows": [

  ],
  "schemaVersion": 16,
  "style": "light",
  "tags": [
    "managed",
    "gitlab-static",
    "gitlab",
    "type:gitlab-static",
    "gitlab-static",
    "service overview"
  ],
  "templating": {
    "list": [
      {
        "current": {
          "text": "Global",
          "value": "Global"
        },
        "hide": 0,
        "label": null,
        "name": "PROMETHEUS_DS",
        "options": [

        ],
        "query": "prometheus",
        "refresh": 1,
        "regex": "",
        "type": "datasource"
      },
      {
        "allValue": null,
        "current": {
          "text": "gprd",
          "value": "gprd"
        },
        "datasource": "$PROMETHEUS_DS",
        "hide": 0,
        "includeAll": false,
        "label": null,
        "multi": false,
        "name": "environment",
        "options": [

        ],
        "query": "label_values(gitlab_service_ops:rate_1h, environment)",
        "refresh": 1,
        "regex": "",
        "sort": 1,
        "tagValuesQuery": "",
        "tags": [

        ],
        "tagsQuery": "",
        "type": "query",
        "useTags": false
      }
    ]
  },
  "time": {
    "from": "now-6h/m",
    "to": "now/m"
  },
  "timepicker": {
    "refresh_intervals": [
      "1m",
      "5m",
      "10m",
      "15m",
      "30m"
    ],
    "time_options": [
      "5m",
      "15m",
      "1h",
      "6h",
      "12h",
      "24h",
      "2d",
      "7d",
      "30d"
    ]
  },
  "timezone": "utc",
  "title": "gitlab-static: Overview",
  "uid": "gitlab-static-main",
  "version": 1020
}