{
  "annotations": {
    "list": [
      {
        "builtIn": 1,
        "datasource": {
          "type": "datasource",
          "uid": "grafana"
        },
        "enable": true,
        "hide": true,
        "iconColor": "rgba(0, 211, 255, 1)",
        "name": "Annotations & Alerts",
        "target": {
          "limit": 100,
          "matchAny": false,
          "tags": [

          ],
          "type": "dashboard"
        },
        "type": "dashboard"
      }
    ]
  },
  "editable": true,
  "fiscalYearStartMonth": 0,
  "graphTooltip": 1,
  "id": null,
  "links": [

  ],
  "liveNow": false,
  "panels": [
    {
      "collapsed": false,
      "datasource": {
        "type": "prometheus",
        "uid": "PA258B30F88C30650"
      },
      "gridPos": {
        "h": 1,
        "w": 24,
        "x": 0,
        "y": 0
      },
      "id": 18,
      "panels": [

      ],
      "targets": [
        {
          "datasource": {
            "type": "prometheus",
            "uid": "PA258B30F88C30650"
          },
          "refId": "A"
        }
      ],
      "title": "Fluentd",
      "type": "row"
    },
    {
      "datasource": {
        "type": "prometheus",
        "uid": "PA258B30F88C30650"
      },
      "fieldConfig": {
        "defaults": {
          "color": {
            "mode": "palette-classic"
          },
          "custom": {
            "axisCenteredZero": false,
            "axisColorMode": "text",
            "axisLabel": "",
            "axisPlacement": "auto",
            "barAlignment": 0,
            "drawStyle": "line",
            "fillOpacity": 10,
            "gradientMode": "hue",
            "hideFrom": {
              "legend": false,
              "tooltip": false,
              "viz": false
            },
            "lineInterpolation": "linear",
            "lineStyle": {
              "fill": "solid"
            },
            "lineWidth": 1,
            "pointSize": 5,
            "scaleDistribution": {
              "type": "linear"
            },
            "showPoints": "never",
            "spanNulls": true,
            "stacking": {
              "group": "A",
              "mode": "none"
            },
            "thresholdsStyle": {
              "mode": "off"
            }
          },
          "links": [

          ],
          "mappings": [

          ],
          "thresholds": {
            "mode": "absolute",
            "steps": [
              {
                "color": "green",
                "value": null
              }
            ]
          },
          "unit": "cps"
        },
        "overrides": [

        ]
      },
      "gridPos": {
        "h": 9,
        "w": 8,
        "x": 0,
        "y": 1
      },
      "id": 20,
      "links": [

      ],
      "options": {
        "legend": {
          "calcs": [

          ],
          "displayMode": "list",
          "placement": "bottom",
          "showLegend": true
        },
        "tooltip": {
          "mode": "multi",
          "sort": "desc"
        }
      },
      "pluginVersion": "8.4.1",
      "targets": [
        {
          "datasource": {
            "type": "prometheus",
            "uid": "PA258B30F88C30650"
          },
          "exemplar": true,
          "expr": "sum(rate(fluentd_output_status_num_records_total{env=\"$environment\"}[$__rate_interval])) by (type)",
          "format": "time_series",
          "interval": "60s",
          "intervalFactor": 1,
          "legendFormat": "{{ type }}",
          "refId": "A"
        }
      ],
      "title": "Fluentd Output Records by type",
      "type": "timeseries"
    },
    {
      "datasource": {
        "type": "prometheus",
        "uid": "PA258B30F88C30650"
      },
      "fieldConfig": {
        "defaults": {
          "color": {
            "mode": "palette-classic"
          },
          "custom": {
            "axisCenteredZero": false,
            "axisColorMode": "text",
            "axisLabel": "",
            "axisPlacement": "auto",
            "barAlignment": 0,
            "drawStyle": "line",
            "fillOpacity": 10,
            "gradientMode": "hue",
            "hideFrom": {
              "legend": false,
              "tooltip": false,
              "viz": false
            },
            "lineInterpolation": "linear",
            "lineWidth": 1,
            "pointSize": 5,
            "scaleDistribution": {
              "type": "linear"
            },
            "showPoints": "never",
            "spanNulls": true,
            "stacking": {
              "group": "A",
              "mode": "none"
            },
            "thresholdsStyle": {
              "mode": "off"
            }
          },
          "links": [

          ],
          "mappings": [

          ],
          "thresholds": {
            "mode": "absolute",
            "steps": [
              {
                "color": "green",
                "value": null
              }
            ]
          },
          "unit": "cps"
        },
        "overrides": [

        ]
      },
      "gridPos": {
        "h": 9,
        "w": 8,
        "x": 8,
        "y": 1
      },
      "id": 19,
      "links": [

      ],
      "options": {
        "legend": {
          "calcs": [

          ],
          "displayMode": "list",
          "placement": "bottom",
          "showLegend": true
        },
        "tooltip": {
          "mode": "multi",
          "sort": "desc"
        }
      },
      "pluginVersion": "8.4.1",
      "targets": [
        {
          "datasource": {
            "type": "prometheus",
            "uid": "PA258B30F88C30650"
          },
          "expr": "sum(rate(fluentd_output_status_num_records_total{env=\"$environment\"}[$__rate_interval])) by (tag)",
          "format": "time_series",
          "interval": "1m",
          "intervalFactor": 1,
          "legendFormat": "{{ tag }}",
          "refId": "A"
        }
      ],
      "title": "Fluentd Output Records by tag",
      "type": "timeseries"
    },
    {
      "datasource": {
        "type": "prometheus",
        "uid": "PA258B30F88C30650"
      },
      "fieldConfig": {
        "defaults": {
          "color": {
            "mode": "palette-classic"
          },
          "custom": {
            "axisCenteredZero": false,
            "axisColorMode": "text",
            "axisLabel": "",
            "axisPlacement": "auto",
            "barAlignment": 0,
            "drawStyle": "line",
            "fillOpacity": 10,
            "gradientMode": "hue",
            "hideFrom": {
              "legend": false,
              "tooltip": false,
              "viz": false
            },
            "lineInterpolation": "linear",
            "lineWidth": 1,
            "pointSize": 5,
            "scaleDistribution": {
              "type": "linear"
            },
            "showPoints": "never",
            "spanNulls": true,
            "stacking": {
              "group": "A",
              "mode": "none"
            },
            "thresholdsStyle": {
              "mode": "off"
            }
          },
          "links": [

          ],
          "mappings": [

          ],
          "thresholds": {
            "mode": "absolute",
            "steps": [
              {
                "color": "green",
                "value": null
              }
            ]
          },
          "unit": "cps"
        },
        "overrides": [

        ]
      },
      "gridPos": {
        "h": 9,
        "w": 8,
        "x": 16,
        "y": 1
      },
      "id": 21,
      "links": [

      ],
      "options": {
        "legend": {
          "calcs": [

          ],
          "displayMode": "list",
          "placement": "bottom",
          "showLegend": true
        },
        "tooltip": {
          "mode": "multi",
          "sort": "desc"
        }
      },
      "pluginVersion": "8.4.1",
      "targets": [
        {
          "datasource": {
            "type": "prometheus",
            "uid": "PA258B30F88C30650"
          },
          "expr": "sum(rate(fluentd_output_status_num_records_total{env=\"$environment\"}[$__rate_interval])) by (type,tag)",
          "format": "time_series",
          "interval": "1m",
          "intervalFactor": 1,
          "legendFormat": "{{ type }}:{{ tag }}",
          "refId": "A"
        }
      ],
      "title": "Fluentd Output Records by type and tag",
      "type": "timeseries"
    },
    {
      "collapsed": false,
      "datasource": {
        "type": "prometheus",
        "uid": "PA258B30F88C30650"
      },
      "gridPos": {
        "h": 1,
        "w": 24,
        "x": 0,
        "y": 10
      },
      "id": 11,
      "panels": [

      ],
      "targets": [
        {
          "datasource": {
            "type": "prometheus",
            "uid": "PA258B30F88C30650"
          },
          "refId": "A"
        }
      ],
      "title": "StackDriver",
      "type": "row"
    },
    {
      "datasource": {
        "type": "prometheus",
        "uid": "PA258B30F88C30650"
      },
      "fieldConfig": {
        "defaults": {
          "color": {
            "mode": "palette-classic"
          },
          "custom": {
            "axisCenteredZero": false,
            "axisColorMode": "text",
            "axisLabel": "",
            "axisPlacement": "auto",
            "barAlignment": 0,
            "drawStyle": "line",
            "fillOpacity": 10,
            "gradientMode": "hue",
            "hideFrom": {
              "legend": false,
              "tooltip": false,
              "viz": false
            },
            "lineInterpolation": "linear",
            "lineWidth": 1,
            "pointSize": 5,
            "scaleDistribution": {
              "type": "linear"
            },
            "showPoints": "never",
            "spanNulls": true,
            "stacking": {
              "group": "A",
              "mode": "none"
            },
            "thresholdsStyle": {
              "mode": "off"
            }
          },
          "links": [

          ],
          "mappings": [

          ],
          "thresholds": {
            "mode": "absolute",
            "steps": [
              {
                "color": "green",
                "value": null
              }
            ]
          },
          "unit": "binBps"
        },
        "overrides": [

        ]
      },
      "gridPos": {
        "h": 9,
        "w": 8,
        "x": 0,
        "y": 11
      },
      "id": 13,
      "links": [

      ],
      "options": {
        "legend": {
          "calcs": [

          ],
          "displayMode": "list",
          "placement": "bottom",
          "showLegend": true
        },
        "tooltip": {
          "mode": "multi",
          "sort": "desc"
        }
      },
      "pluginVersion": "8.4.1",
      "targets": [
        {
          "datasource": {
            "type": "prometheus",
            "uid": "PA258B30F88C30650"
          },
          "expr": "avg_over_time(stackdriver_global_logging_googleapis_com_billing_bytes_ingested{env=\"$environment\"}[$__rate_interval]) / 60",
          "format": "time_series",
          "interval": "60s",
          "intervalFactor": 1,
          "legendFormat": "{{ resource_type }}",
          "refId": "A"
        }
      ],
      "title": "StackDriver Global Ingested Bytes/s",
      "type": "timeseries"
    },
    {
      "datasource": {
        "type": "prometheus",
        "uid": "PA258B30F88C30650"
      },
      "fieldConfig": {
        "defaults": {
          "color": {
            "mode": "palette-classic"
          },
          "custom": {
            "axisCenteredZero": false,
            "axisColorMode": "text",
            "axisLabel": "",
            "axisPlacement": "auto",
            "barAlignment": 0,
            "drawStyle": "line",
            "fillOpacity": 10,
            "gradientMode": "hue",
            "hideFrom": {
              "legend": false,
              "tooltip": false,
              "viz": false
            },
            "lineInterpolation": "linear",
            "lineWidth": 1,
            "pointSize": 5,
            "scaleDistribution": {
              "type": "linear"
            },
            "showPoints": "never",
            "spanNulls": true,
            "stacking": {
              "group": "A",
              "mode": "none"
            },
            "thresholdsStyle": {
              "mode": "off"
            }
          },
          "links": [

          ],
          "mappings": [

          ],
          "thresholds": {
            "mode": "absolute",
            "steps": [
              {
                "color": "green",
                "value": null
              }
            ]
          },
          "unit": "cps"
        },
        "overrides": [

        ]
      },
      "gridPos": {
        "h": 9,
        "w": 8,
        "x": 8,
        "y": 11
      },
      "id": 22,
      "links": [

      ],
      "options": {
        "legend": {
          "calcs": [

          ],
          "displayMode": "list",
          "placement": "bottom",
          "showLegend": true
        },
        "tooltip": {
          "mode": "multi",
          "sort": "desc"
        }
      },
      "pluginVersion": "8.4.1",
      "targets": [
        {
          "datasource": {
            "type": "prometheus",
            "uid": "PA258B30F88C30650"
          },
          "exemplar": true,
          "expr": "sum(rate(stackdriver_gce_instance_logging_googleapis_com_log_entry_count{env=\"$environment\"}[$__rate_interval])) by (log)",
          "format": "time_series",
          "interval": "60s",
          "intervalFactor": 1,
          "legendFormat": "{{ log }}",
          "refId": "A"
        }
      ],
      "title": "StackDriver Log Entry Count",
      "type": "timeseries"
    },
    {
      "datasource": {
        "type": "prometheus",
        "uid": "PA258B30F88C30650"
      },
      "fieldConfig": {
        "defaults": {
          "color": {
            "mode": "palette-classic"
          },
          "custom": {
            "axisCenteredZero": false,
            "axisColorMode": "text",
            "axisLabel": "",
            "axisPlacement": "auto",
            "barAlignment": 0,
            "drawStyle": "line",
            "fillOpacity": 10,
            "gradientMode": "hue",
            "hideFrom": {
              "legend": false,
              "tooltip": false,
              "viz": false
            },
            "lineInterpolation": "linear",
            "lineWidth": 1,
            "pointSize": 5,
            "scaleDistribution": {
              "type": "linear"
            },
            "showPoints": "never",
            "spanNulls": true,
            "stacking": {
              "group": "A",
              "mode": "none"
            },
            "thresholdsStyle": {
              "mode": "off"
            }
          },
          "links": [

          ],
          "mappings": [

          ],
          "thresholds": {
            "mode": "absolute",
            "steps": [
              {
                "color": "green",
                "value": null
              }
            ]
          },
          "unit": "cps"
        },
        "overrides": [

        ]
      },
      "gridPos": {
        "h": 9,
        "w": 8,
        "x": 16,
        "y": 11
      },
      "id": 14,
      "links": [

      ],
      "options": {
        "legend": {
          "calcs": [

          ],
          "displayMode": "list",
          "placement": "bottom",
          "showLegend": true
        },
        "tooltip": {
          "mode": "multi",
          "sort": "desc"
        }
      },
      "pluginVersion": "8.4.1",
      "targets": [
        {
          "datasource": {
            "type": "prometheus",
            "uid": "PA258B30F88C30650"
          },
          "expr": "sum(rate(stackdriver_gce_instance_logging_googleapis_com_dropped_log_entry_count{env=\"$environment\"}[$__rate_interval])) by (log)",
          "format": "time_series",
          "interval": "60s",
          "intervalFactor": 1,
          "legendFormat": "{{ log }}",
          "refId": "A"
        }
      ],
      "title": "StackDriver Dropped Log Entry Count",
      "type": "timeseries"
    },
    {
      "datasource": {
        "type": "prometheus",
        "uid": "PA258B30F88C30650"
      },
      "description": "Using the mtail metric, this  tracks the number of dropped messages by the fluentd stackdriver plugin",
      "fieldConfig": {
        "defaults": {
          "color": {
            "mode": "palette-classic"
          },
          "custom": {
            "axisCenteredZero": false,
            "axisColorMode": "text",
            "axisLabel": "",
            "axisPlacement": "auto",
            "barAlignment": 0,
            "drawStyle": "line",
            "fillOpacity": 10,
            "gradientMode": "hue",
            "hideFrom": {
              "legend": false,
              "tooltip": false,
              "viz": false
            },
            "lineInterpolation": "linear",
            "lineWidth": 1,
            "pointSize": 5,
            "scaleDistribution": {
              "type": "linear"
            },
            "showPoints": "never",
            "spanNulls": true,
            "stacking": {
              "group": "A",
              "mode": "none"
            },
            "thresholdsStyle": {
              "mode": "off"
            }
          },
          "links": [

          ],
          "mappings": [

          ],
          "thresholds": {
            "mode": "absolute",
            "steps": [
              {
                "color": "green",
                "value": null
              }
            ]
          },
          "unit": "cps"
        },
        "overrides": [

        ]
      },
      "gridPos": {
        "h": 9,
        "w": 8,
        "x": 0,
        "y": 20
      },
      "id": 25,
      "links": [

      ],
      "options": {
        "legend": {
          "calcs": [

          ],
          "displayMode": "list",
          "placement": "bottom",
          "showLegend": true
        },
        "tooltip": {
          "mode": "multi",
          "sort": "desc"
        }
      },
      "pluginVersion": "8.4.1",
      "targets": [
        {
          "datasource": {
            "type": "prometheus",
            "uid": "PA258B30F88C30650"
          },
          "expr": "sum(rate(td_agent_dropped_log_messages_total{env=\"$environment\"}[$__rate_interval]) * 60 != 0) by (type)",
          "format": "time_series",
          "interval": "60s",
          "intervalFactor": 1,
          "legendFormat": "{{type}}",
          "refId": "A"
        }
      ],
      "title": "Fluentd SD plugin dropped messages per minute",
      "type": "timeseries"
    },
    {
      "datasource": {
        "type": "prometheus",
        "uid": "PA258B30F88C30650"
      },
      "description": "Using the mtail metric, this  tracks the number of dropped messages by the fluentd stackdriver plugin",
      "fieldConfig": {
        "defaults": {
          "color": {
            "mode": "palette-classic"
          },
          "custom": {
            "axisCenteredZero": false,
            "axisColorMode": "text",
            "axisLabel": "",
            "axisPlacement": "auto",
            "barAlignment": 0,
            "drawStyle": "line",
            "fillOpacity": 10,
            "gradientMode": "hue",
            "hideFrom": {
              "legend": false,
              "tooltip": false,
              "viz": false
            },
            "lineInterpolation": "linear",
            "lineWidth": 1,
            "pointSize": 5,
            "scaleDistribution": {
              "type": "linear"
            },
            "showPoints": "never",
            "spanNulls": true,
            "stacking": {
              "group": "A",
              "mode": "none"
            },
            "thresholdsStyle": {
              "mode": "off"
            }
          },
          "links": [

          ],
          "mappings": [

          ],
          "thresholds": {
            "mode": "absolute",
            "steps": [
              {
                "color": "green",
                "value": null
              }
            ]
          },
          "unit": "cps"
        },
        "overrides": [

        ]
      },
      "gridPos": {
        "h": 9,
        "w": 8,
        "x": 8,
        "y": 20
      },
      "id": 26,
      "links": [

      ],
      "options": {
        "legend": {
          "calcs": [

          ],
          "displayMode": "list",
          "placement": "bottom",
          "showLegend": true
        },
        "tooltip": {
          "mode": "multi",
          "sort": "desc"
        }
      },
      "pluginVersion": "8.4.1",
      "targets": [
        {
          "datasource": {
            "type": "prometheus",
            "uid": "PA258B30F88C30650"
          },
          "expr": "sum(rate(td_agent_dropped_log_messages_total{env=\"$environment\"}[$__rate_interval]) * 60 != 0) by (instance)",
          "format": "time_series",
          "interval": "60s",
          "intervalFactor": 1,
          "legendFormat": "{{instance}}",
          "refId": "A"
        }
      ],
      "title": "Fluentd SD plugin dropped messages per minute",
      "type": "timeseries"
    },
    {
      "collapsed": false,
      "datasource": {
        "type": "prometheus",
        "uid": "PA258B30F88C30650"
      },
      "gridPos": {
        "h": 1,
        "w": 24,
        "x": 0,
        "y": 29
      },
      "id": 9,
      "panels": [

      ],
      "targets": [
        {
          "datasource": {
            "type": "prometheus",
            "uid": "PA258B30F88C30650"
          },
          "refId": "A"
        }
      ],
      "title": "PubSub",
      "type": "row"
    },
    {
      "datasource": {
        "type": "prometheus",
        "uid": "PA258B30F88C30650"
      },
      "fieldConfig": {
        "defaults": {
          "color": {
            "mode": "palette-classic"
          },
          "custom": {
            "axisCenteredZero": false,
            "axisColorMode": "text",
            "axisLabel": "",
            "axisPlacement": "auto",
            "barAlignment": 0,
            "drawStyle": "line",
            "fillOpacity": 10,
            "gradientMode": "hue",
            "hideFrom": {
              "legend": false,
              "tooltip": false,
              "viz": false
            },
            "lineInterpolation": "linear",
            "lineWidth": 1,
            "pointSize": 5,
            "scaleDistribution": {
              "type": "linear"
            },
            "showPoints": "never",
            "spanNulls": true,
            "stacking": {
              "group": "A",
              "mode": "none"
            },
            "thresholdsStyle": {
              "mode": "off"
            }
          },
          "links": [

          ],
          "mappings": [

          ],
          "thresholds": {
            "mode": "absolute",
            "steps": [
              {
                "color": "green",
                "value": null
              }
            ]
          },
          "unit": "binBps"
        },
        "overrides": [

        ]
      },
      "gridPos": {
        "h": 9,
        "w": 8,
        "x": 0,
        "y": 30
      },
      "id": 23,
      "links": [

      ],
      "options": {
        "legend": {
          "calcs": [

          ],
          "displayMode": "list",
          "placement": "bottom",
          "showLegend": true
        },
        "tooltip": {
          "mode": "multi",
          "sort": "desc"
        }
      },
      "pluginVersion": "8.4.1",
      "targets": [
        {
          "datasource": {
            "type": "prometheus",
            "uid": "PA258B30F88C30650"
          },
          "expr": "stackdriver_pubsub_topic_pubsub_googleapis_com_topic_byte_cost{env=\"$environment\"} / 60",
          "format": "time_series",
          "interval": "",
          "intervalFactor": 1,
          "legendFormat": "{{topic_id}}",
          "refId": "A"
        }
      ],
      "title": "PubSub Topics Bandwidth",
      "type": "timeseries"
    },
    {
      "datasource": {
        "type": "prometheus",
        "uid": "PA258B30F88C30650"
      },
      "fieldConfig": {
        "defaults": {
          "color": {
            "mode": "palette-classic"
          },
          "custom": {
            "axisCenteredZero": false,
            "axisColorMode": "text",
            "axisLabel": "",
            "axisPlacement": "auto",
            "barAlignment": 0,
            "drawStyle": "line",
            "fillOpacity": 10,
            "gradientMode": "hue",
            "hideFrom": {
              "legend": false,
              "tooltip": false,
              "viz": false
            },
            "lineInterpolation": "linear",
            "lineWidth": 1,
            "pointSize": 5,
            "scaleDistribution": {
              "type": "linear"
            },
            "showPoints": "never",
            "spanNulls": true,
            "stacking": {
              "group": "A",
              "mode": "none"
            },
            "thresholdsStyle": {
              "mode": "off"
            }
          },
          "links": [

          ],
          "mappings": [

          ],
          "thresholds": {
            "mode": "absolute",
            "steps": [
              {
                "color": "green",
                "value": null
              }
            ]
          },
          "unit": "binBps"
        },
        "overrides": [

        ]
      },
      "gridPos": {
        "h": 9,
        "w": 8,
        "x": 8,
        "y": 30
      },
      "id": 24,
      "links": [

      ],
      "options": {
        "legend": {
          "calcs": [

          ],
          "displayMode": "list",
          "placement": "bottom",
          "showLegend": true
        },
        "tooltip": {
          "mode": "multi",
          "sort": "desc"
        }
      },
      "pluginVersion": "8.4.1",
      "targets": [
        {
          "datasource": {
            "type": "prometheus",
            "uid": "PA258B30F88C30650"
          },
          "expr": "sum(stackdriver_pubsub_subscription_pubsub_googleapis_com_subscription_byte_cost{env=\"$environment\"} / 60) by (subscription_id)",
          "format": "time_series",
          "intervalFactor": 1,
          "legendFormat": "{{subscription_id}}",
          "refId": "A"
        }
      ],
      "title": "PubSub Subscriptions Bandwidth",
      "type": "timeseries"
    },
    {
      "datasource": {
        "type": "prometheus",
        "uid": "PA258B30F88C30650"
      },
      "fieldConfig": {
        "defaults": {
          "color": {
            "mode": "palette-classic"
          },
          "custom": {
            "axisCenteredZero": false,
            "axisColorMode": "text",
            "axisLabel": "",
            "axisPlacement": "auto",
            "barAlignment": 0,
            "drawStyle": "line",
            "fillOpacity": 10,
            "gradientMode": "hue",
            "hideFrom": {
              "legend": false,
              "tooltip": false,
              "viz": false
            },
            "lineInterpolation": "linear",
            "lineWidth": 1,
            "pointSize": 5,
            "scaleDistribution": {
              "type": "linear"
            },
            "showPoints": "never",
            "spanNulls": true,
            "stacking": {
              "group": "A",
              "mode": "none"
            },
            "thresholdsStyle": {
              "mode": "off"
            }
          },
          "links": [

          ],
          "mappings": [

          ],
          "thresholds": {
            "mode": "absolute",
            "steps": [
              {
                "color": "green",
                "value": null
              }
            ]
          },
          "unit": "ops"
        },
        "overrides": [

        ]
      },
      "gridPos": {
        "h": 9,
        "w": 8,
        "x": 16,
        "y": 30
      },
      "id": 7,
      "links": [

      ],
      "options": {
        "legend": {
          "calcs": [

          ],
          "displayMode": "list",
          "placement": "bottom",
          "showLegend": true
        },
        "tooltip": {
          "mode": "multi",
          "sort": "desc"
        }
      },
      "pluginVersion": "8.4.1",
      "targets": [
        {
          "datasource": {
            "type": "prometheus",
            "uid": "PA258B30F88C30650"
          },
          "expr": "stackdriver_pubsub_topic_pubsub_googleapis_com_topic_send_message_operation_count{env=\"$environment\"} / 60",
          "format": "time_series",
          "interval": "",
          "intervalFactor": 1,
          "legendFormat": "{{topic_id}} - {{env}}",
          "refId": "A"
        }
      ],
      "title": "PubSub Topic Message Send Rate",
      "type": "timeseries"
    },
    {
      "datasource": {
        "type": "prometheus",
        "uid": "PA258B30F88C30650"
      },
      "fieldConfig": {
        "defaults": {
          "color": {
            "mode": "palette-classic"
          },
          "custom": {
            "axisCenteredZero": false,
            "axisColorMode": "text",
            "axisLabel": "",
            "axisPlacement": "auto",
            "barAlignment": 0,
            "drawStyle": "line",
            "fillOpacity": 10,
            "gradientMode": "hue",
            "hideFrom": {
              "legend": false,
              "tooltip": false,
              "viz": false
            },
            "lineInterpolation": "linear",
            "lineWidth": 1,
            "pointSize": 5,
            "scaleDistribution": {
              "type": "linear"
            },
            "showPoints": "never",
            "spanNulls": true,
            "stacking": {
              "group": "A",
              "mode": "none"
            },
            "thresholdsStyle": {
              "mode": "off"
            }
          },
          "links": [

          ],
          "mappings": [

          ],
          "thresholds": {
            "mode": "absolute",
            "steps": [
              {
                "color": "green",
                "value": null
              }
            ]
          },
          "unit": "bytes"
        },
        "overrides": [

        ]
      },
      "gridPos": {
        "h": 9,
        "w": 8,
        "x": 0,
        "y": 39
      },
      "id": 6,
      "links": [

      ],
      "options": {
        "legend": {
          "calcs": [
            "last"
          ],
          "displayMode": "table",
          "placement": "bottom",
          "showLegend": true,
          "sortBy": "Last",
          "sortDesc": true
        },
        "tooltip": {
          "mode": "multi",
          "sort": "desc"
        }
      },
      "pluginVersion": "8.4.1",
      "targets": [
        {
          "datasource": {
            "type": "prometheus",
            "uid": "PA258B30F88C30650"
          },
          "expr": "sum(stackdriver_pubsub_subscription_pubsub_googleapis_com_subscription_backlog_bytes{env=\"$environment\"}) by (subscription_id)",
          "format": "time_series",
          "interval": "",
          "intervalFactor": 1,
          "legendFormat": "{{subscription_id}}",
          "refId": "A"
        }
      ],
      "title": "Backlog Bytes",
      "type": "timeseries"
    },
    {
      "datasource": {
        "type": "prometheus",
        "uid": "PA258B30F88C30650"
      },
      "description": "Rate of change of unacked messages. If this is flat and positive, it's likely that all new messages are being dropped.",
      "fieldConfig": {
        "defaults": {
          "color": {
            "mode": "palette-classic"
          },
          "custom": {
            "axisCenteredZero": false,
            "axisColorMode": "text",
            "axisLabel": "Messages / s",
            "axisPlacement": "auto",
            "barAlignment": 0,
            "drawStyle": "line",
            "fillOpacity": 10,
            "gradientMode": "hue",
            "hideFrom": {
              "legend": false,
              "tooltip": false,
              "viz": false
            },
            "lineInterpolation": "linear",
            "lineWidth": 1,
            "pointSize": 5,
            "scaleDistribution": {
              "type": "linear"
            },
            "showPoints": "never",
            "spanNulls": true,
            "stacking": {
              "group": "A",
              "mode": "none"
            },
            "thresholdsStyle": {
              "mode": "off"
            }
          },
          "links": [

          ],
          "mappings": [

          ],
          "thresholds": {
            "mode": "absolute",
            "steps": [
              {
                "color": "green",
                "value": null
              }
            ]
          },
          "unit": "cps"
        },
        "overrides": [

        ]
      },
      "gridPos": {
        "h": 9,
        "w": 8,
        "x": 8,
        "y": 39
      },
      "id": 16,
      "options": {
        "legend": {
          "calcs": [

          ],
          "displayMode": "list",
          "placement": "bottom",
          "showLegend": true
        },
        "tooltip": {
          "mode": "multi",
          "sort": "desc"
        }
      },
      "pluginVersion": "8.4.1",
      "targets": [
        {
          "datasource": {
            "type": "prometheus",
            "uid": "PA258B30F88C30650"
          },
          "expr": "sum by (topic_id) (deriv(stackdriver_pubsub_topic_pubsub_googleapis_com_topic_num_unacked_messages_by_region[5m]))",
          "legendFormat": "{{topic_id}}",
          "refId": "A"
        }
      ],
      "title": "Unacked message build-up rate",
      "type": "timeseries"
    },
    {
      "datasource": {
        "type": "prometheus",
        "uid": "PA258B30F88C30650"
      },
      "fieldConfig": {
        "defaults": {
          "color": {
            "mode": "palette-classic"
          },
          "custom": {
            "axisCenteredZero": false,
            "axisColorMode": "text",
            "axisLabel": "",
            "axisPlacement": "auto",
            "barAlignment": 0,
            "drawStyle": "line",
            "fillOpacity": 10,
            "gradientMode": "hue",
            "hideFrom": {
              "legend": false,
              "tooltip": false,
              "viz": false
            },
            "lineInterpolation": "linear",
            "lineWidth": 1,
            "pointSize": 5,
            "scaleDistribution": {
              "type": "linear"
            },
            "showPoints": "never",
            "spanNulls": true,
            "stacking": {
              "group": "A",
              "mode": "none"
            },
            "thresholdsStyle": {
              "mode": "off"
            }
          },
          "links": [

          ],
          "mappings": [

          ],
          "thresholds": {
            "mode": "absolute",
            "steps": [
              {
                "color": "green",
                "value": null
              }
            ]
          },
          "unit": "short"
        },
        "overrides": [

        ]
      },
      "gridPos": {
        "h": 9,
        "w": 8,
        "x": 16,
        "y": 39
      },
      "id": 2,
      "links": [

      ],
      "options": {
        "legend": {
          "calcs": [

          ],
          "displayMode": "list",
          "placement": "bottom",
          "showLegend": true
        },
        "tooltip": {
          "mode": "multi",
          "sort": "none"
        }
      },
      "pluginVersion": "8.4.1",
      "targets": [
        {
          "datasource": {
            "type": "prometheus",
            "uid": "PA258B30F88C30650"
          },
          "expr": "sum(stackdriver_pubsub_topic_pubsub_googleapis_com_topic_num_unacked_messages_by_region{env=\"$environment\"}) by (topic_id)",
          "format": "time_series",
          "interval": "",
          "intervalFactor": 1,
          "legendFormat": "{{topic_id}}",
          "refId": "A"
        }
      ],
      "title": "UnAcked Messages",
      "type": "timeseries"
    },
    {
      "datasource": {
        "type": "prometheus",
        "uid": "PA258B30F88C30650"
      },
      "fieldConfig": {
        "defaults": {
          "color": {
            "mode": "palette-classic"
          },
          "custom": {
            "axisCenteredZero": false,
            "axisColorMode": "text",
            "axisLabel": "",
            "axisPlacement": "auto",
            "barAlignment": 0,
            "drawStyle": "line",
            "fillOpacity": 10,
            "gradientMode": "hue",
            "hideFrom": {
              "legend": false,
              "tooltip": false,
              "viz": false
            },
            "lineInterpolation": "linear",
            "lineWidth": 1,
            "pointSize": 5,
            "scaleDistribution": {
              "type": "linear"
            },
            "showPoints": "never",
            "spanNulls": true,
            "stacking": {
              "group": "A",
              "mode": "none"
            },
            "thresholdsStyle": {
              "mode": "off"
            }
          },
          "links": [

          ],
          "mappings": [

          ],
          "thresholds": {
            "mode": "absolute",
            "steps": [
              {
                "color": "green",
                "value": null
              }
            ]
          },
          "unit": "s"
        },
        "overrides": [

        ]
      },
      "gridPos": {
        "h": 9,
        "w": 8,
        "x": 0,
        "y": 48
      },
      "id": 5,
      "links": [

      ],
      "options": {
        "legend": {
          "calcs": [

          ],
          "displayMode": "list",
          "placement": "bottom",
          "showLegend": true
        },
        "tooltip": {
          "mode": "multi",
          "sort": "desc"
        }
      },
      "pluginVersion": "8.4.1",
      "targets": [
        {
          "datasource": {
            "type": "prometheus",
            "uid": "PA258B30F88C30650"
          },
          "expr": "sum(stackdriver_pubsub_subscription_pubsub_googleapis_com_subscription_oldest_unacked_message_age{env=\"$environment\"}) by (subscription_id)",
          "format": "time_series",
          "interval": "",
          "intervalFactor": 1,
          "legendFormat": "{{subscription_id}}",
          "refId": "A"
        }
      ],
      "title": "Oldest  UnAcked Message",
      "type": "timeseries"
    }
  ],
  "refresh": "",
  "schemaVersion": 38,
  "style": "dark",
  "tags": [
    "unmanaged"
  ],
  "templating": {
    "list": [
      {
        "current": {
          "selected": true,
          "text": "gprd",
          "value": "gprd"
        },
        "hide": 0,
        "includeAll": false,
        "multi": false,
        "name": "environment",
        "options": [
          {
            "selected": true,
            "text": "gprd",
            "value": "gprd"
          },
          {
            "selected": false,
            "text": "gstg",
            "value": "gstg"
          },
          {
            "selected": false,
            "text": "ops",
            "value": "ops"
          },
          {
            "selected": false,
            "text": "dr",
            "value": "dr"
          },
          {
            "selected": false,
            "text": "pre",
            "value": "pre"
          }
        ],
        "query": "gprd,gstg,ops,dr,pre",
        "queryValue": "",
        "skipUrlSync": false,
        "type": "custom"
      }
    ]
  },
  "time": {
    "from": "now-3h",
    "to": "now"
  },
  "timepicker": {
    "refresh_intervals": [
      "5s",
      "10s",
      "30s",
      "1m",
      "5m",
      "15m",
      "30m",
      "1h",
      "2h",
      "1d"
    ],
    "time_options": [
      "5m",
      "15m",
      "1h",
      "6h",
      "12h",
      "24h",
      "2d",
      "7d",
      "30d"
    ]
  },
  "timezone": "utc",
  "title": "Logging",
  "uid": "USVj3qHmk",
  "version": 28,
  "weekStart": ""
}