{
  "__inputs": [

  ],
  "__requires": [

  ],
  "annotations": {
    "list": [
      {
        "builtIn": 1,
        "datasource": "-- Grafana --",
        "enable": true,
        "hide": false,
        "iconColor": "#96D98D",
        "name": "deploy",
        "showIn": 0,
        "tags": [
          "deploy",
          "$environment"
        ],
        "type": "tags"
      },
      {
        "builtIn": 1,
        "datasource": "-- Grafana --",
        "enable": false,
        "hide": false,
        "iconColor": "#FFEE52",
        "name": "canary-deploy",
        "showIn": 0,
        "tags": [
          "deploy",
          "${environment}-cny"
        ],
        "type": "tags"
      },
      {
        "builtIn": 1,
        "datasource": "-- Grafana --",
        "enable": false,
        "hide": false,
        "iconColor": "#CA95E5",
        "name": "feature-flags",
        "showIn": 0,
        "tags": [
          "feature-flag",
          "${environment}"
        ],
        "type": "tags"
      }
    ]
  },
  "description": "Uploaded by https://gitlab.com/gitlab-com/runbooks/-/jobs/6792874828 at Tue May  7 02:42:58 UTC 2024",
  "editable": false,
  "gnetId": null,
  "graphTooltip": 1,
  "hideControls": false,
  "id": null,
  "links": [
    {
      "asDropdown": true,
      "icon": "external link",
      "includeVars": false,
      "keepTime": true,
      "tags": "",
      "targetBlank": false,
      "title": "Platform Triage",
      "type": "link",
      "url": "https://dashboards.gitlab.net/d/general-triage/platform-triage?orgId=1"
    },
    {
      "asDropdown": true,
      "icon": "external link",
      "includeVars": true,
      "keepTime": true,
      "tags": [
        "managed",
        "service overview"
      ],
      "targetBlank": false,
      "title": "Service Overview Dashboards",
      "type": "dashboards",
      "url": ""
    },
    {
      "asDropdown": true,
      "icon": "dashboard",
      "includeVars": true,
      "keepTime": true,
      "tags": "type:nat",
      "targetBlank": false,
      "title": "nat Detail",
      "type": "dashboards",
      "url": ""
    },
    {
      "asDropdown": true,
      "icon": "external link",
      "includeVars": true,
      "keepTime": true,
      "tags": [
        "managed",
        "type:nat",
        "kube detail"
      ],
      "targetBlank": false,
      "title": "☸️ nat Kubernetes Detail",
      "type": "dashboards",
      "url": ""
    }
  ],
  "panels": [
    {
      "collapse": false,
      "collapsed": false,
      "gridPos": {
        "h": 1,
        "w": 24,
        "x": 0,
        "y": 0
      },
      "id": 2,
      "panels": [

      ],
      "repeat": null,
      "repeatIteration": null,
      "repeatRowId": null,
      "showTitle": true,
      "title": "🌡️ Aggregated Service Level Indicators (𝙎𝙇𝙄𝙨)",
      "titleSize": "h6",
      "type": "row"
    },
    {
      "bars": false,
      "dashLength": 10,
      "dashes": false,
      "datasource": "$PROMETHEUS_DS",
      "decimals": 2,
      "description": "Error rates are a measure of unhandled service exceptions per second. Client errors are excluded when possible. Lower is better",
      "fill": 0,
      "fillGradient": 0,
      "gridPos": {
        "h": 7,
        "w": 8,
        "x": 0,
        "y": 1
      },
      "id": 524081193,
      "legend": {
        "alignAsTable": true,
        "avg": true,
        "current": true,
        "hideEmpty": true,
        "max": true,
        "min": true,
        "rightSide": false,
        "show": false,
        "total": false,
        "values": true
      },
      "lines": true,
      "linewidth": 2,
      "nullPointMode": "null",
      "options": {
        "dataLinks": [
          {
            "targetBlank": true,
            "title": "nat Service Error-Rate SLO Analysis",
            "url": "/d/alerts-service_slo_error?${__url_time_range}&${__all_variables}&var-type=nat"
          }
        ]
      },
      "percentage": false,
      "pointradius": 5,
      "points": false,
      "renderer": "flot",
      "seriesOverrides": [
        {
          "alias": "/6h Degradation SLO \\(5% of monthly error budget\\).*/",
          "color": "#FF4500",
          "dashLength": 4,
          "dashes": true,
          "legend": true,
          "lines": true,
          "linewidth": 2,
          "nullPointMode": "connected",
          "spaceLength": 10,
          "zindex": -2
        },
        {
          "alias": "/1h Outage SLO \\(2% of monthly error budget\\).*/",
          "color": "#F2495C",
          "dashLength": 4,
          "dashes": true,
          "legend": true,
          "lines": true,
          "linewidth": 4,
          "nullPointMode": "connected",
          "spaceLength": 4,
          "zindex": -2
        },
        {
          "alias": "/.*shard (apdex|error ratio|RPS)$/",
          "color": "#E7D551"
        },
        {
          "alias": "nat error ratio",
          "color": "#E7D551",
          "fillBelowTo": "nat error ratio avg",
          "zindex": 3
        },
        {
          "alias": "nat error ratio avg",
          "color": "#5794F2",
          "dashLength": 1,
          "fillGradient": 10,
          "linewidth": 1,
          "spaceLength": 1,
          "zindex": -3
        },
        {
          "alias": "last week",
          "color": "#dddddd80",
          "dashLength": 4,
          "dashes": true,
          "fill": 0,
          "legend": true,
          "lines": true,
          "linewidth": 1,
          "nullPointMode": "connected",
          "spaceLength": 2,
          "zindex": -3
        }
      ],
      "spaceLength": 10,
      "stableId": "service-nat-error-rate",
      "stack": false,
      "steppedLine": false,
      "targets": [
        {
          "expr": "clamp_max(\n  max_over_time(gitlab_service_errors:ratio_5m{env=\"$environment\",environment=\"$environment\",monitor=\"global\",type=\"nat\"}[$__interval])\n,\n  1\n)\n",
          "format": "time_series",
          "interval": "1m",
          "intervalFactor": 1,
          "legendFormat": "nat error ratio",
          "refId": "A"
        },
        {
          "expr": "(6 * avg(slo:max:events:gitlab_service_errors:ratio{component=\"\",monitor=\"global\",type=\"nat\"})\n)\n",
          "format": "time_series",
          "interval": "5m",
          "intervalFactor": 1,
          "legendFormat": "6h Degradation SLO (5% of monthly error budget)",
          "refId": "B"
        },
        {
          "expr": "(14.4 * avg(slo:max:events:gitlab_service_errors:ratio{component=\"\",monitor=\"global\",type=\"nat\"})\n)\n",
          "format": "time_series",
          "interval": "5m",
          "intervalFactor": 1,
          "legendFormat": "1h Outage SLO (2% of monthly error budget)",
          "refId": "C"
        },
        {
          "expr": "clamp_max(\n  avg_over_time(gitlab_service_errors:ratio_5m{env=\"$environment\",environment=\"$environment\",monitor=\"global\",type=\"nat\"}[$__interval])\n,\n  1\n)\n",
          "format": "time_series",
          "interval": "1m",
          "intervalFactor": 1,
          "legendFormat": "nat error ratio avg",
          "refId": "D"
        },
        {
          "expr": "clamp_max(\n  gitlab_service_errors:ratio_5m{env=\"$environment\",environment=\"$environment\",monitor=\"global\",type=\"nat\"} offset 1w\n,\n  scalar(max((14.4 * avg(slo:max:events:gitlab_service_errors:ratio{component=\"\",monitor=\"global\",type=\"nat\"})\n)\n))\n)\n",
          "format": "time_series",
          "interval": "1m",
          "intervalFactor": 1,
          "legendFormat": "last week",
          "refId": "E"
        }
      ],
      "title": "nat Service Error Ratio",
      "tooltip": {
        "shared": true,
        "sort": 2,
        "value_type": "individual"
      },
      "type": "graph",
      "xaxis": {
        "mode": "time",
        "show": true
      },
      "yaxes": [
        {
          "format": "percentunit",
          "label": "",
          "logBase": 1,
          "min": 0,
          "show": true
        },
        {
          "format": "short",
          "logBase": 1,
          "max": 1,
          "min": 0,
          "show": false
        }
      ]
    },
    {
      "fieldConfig": {
        "defaults": {
          "displayName": "Status",
          "mappings": [
            {
              "id": 0,
              "options": {
                "0": {
                  "color": "black",
                  "index": 0,
                  "text": "Healthy"
                },
                "1": {
                  "color": "orange",
                  "index": 1,
                  "text": "Warning 🔥"
                },
                "10": {
                  "color": "orange",
                  "index": 10,
                  "text": "Warning 🔥🥵"
                },
                "11": {
                  "color": "red",
                  "index": 11,
                  "text": "Degraded 🔥🥵"
                },
                "12": {
                  "color": "red",
                  "index": 12,
                  "text": "Degraded 🥵"
                },
                "13": {
                  "color": "red",
                  "index": 13,
                  "text": "Degraded 🔥🥵"
                },
                "14": {
                  "color": "red",
                  "index": 14,
                  "text": "Degraded 🔥🥵"
                },
                "15": {
                  "color": "red",
                  "index": 15,
                  "text": "Degraded 🔥🥵"
                },
                "2": {
                  "color": "orange",
                  "index": 2,
                  "text": "Warning 🔥"
                },
                "3": {
                  "color": "red",
                  "index": 3,
                  "text": "Degraded 🔥"
                },
                "4": {
                  "color": "orange",
                  "index": 4,
                  "text": "Warning 🥵"
                },
                "5": {
                  "color": "orange",
                  "index": 5,
                  "text": "Warning 🔥🥵"
                },
                "6": {
                  "color": "orange",
                  "index": 6,
                  "text": "Warning 🔥🥵"
                },
                "7": {
                  "color": "red",
                  "index": 7,
                  "text": "Degraded 🔥🥵"
                },
                "8": {
                  "color": "orange",
                  "index": 8,
                  "text": "Warning 🥵"
                },
                "9": {
                  "color": "orange",
                  "index": 9,
                  "text": "Warning 🔥🥵"
                }
              },
              "type": "value"
            }
          ],
          "thresholds": {
            "mode": "absolute",
            "steps": [
              {
                "color": "black",
                "value": 0
              },
              {
                "color": "orange",
                "value": 1
              },
              {
                "color": "orange",
                "value": 2
              },
              {
                "color": "red",
                "value": 3
              },
              {
                "color": "orange",
                "value": 4
              },
              {
                "color": "orange",
                "value": 5
              },
              {
                "color": "orange",
                "value": 6
              },
              {
                "color": "red",
                "value": 7
              },
              {
                "color": "orange",
                "value": 8
              },
              {
                "color": "orange",
                "value": 9
              },
              {
                "color": "orange",
                "value": 10
              },
              {
                "color": "red",
                "value": 11
              },
              {
                "color": "red",
                "value": 12
              },
              {
                "color": "red",
                "value": 13
              },
              {
                "color": "red",
                "value": 14
              },
              {
                "color": "red",
                "value": 15
              }
            ]
          },
          "unit": "none"
        }
      },
      "gridPos": {
        "h": 1,
        "w": 8,
        "x": 0,
        "y": 8
      },
      "id": 4,
      "options": {
        "colorMode": "background",
        "graphMode": "none",
        "justifyMode": "auto",
        "orientation": "vertical",
        "reduceOptions": {
          "calcs": [
            "lastNotNull"
          ],
          "fields": "",
          "values": false
        },
        "textMode": "auto"
      },
      "pluginVersion": "7",
      "targets": [
        {
          "expr": "sum (\n  label_replace(\n    vector(0) and on() (gitlab_service_errors:ratio_1h{env=\"$environment\",environment=\"$environment\",monitor=\"global\",type=\"nat\"}),\n    \"period\", \"na\", \"\", \"\"\n  )\n  or\n  label_replace(\n    vector(1) and on() (gitlab_service_errors:ratio_5m{env=\"$environment\",environment=\"$environment\",monitor=\"global\",type=\"nat\"} > on(tier, type) group_left() (14.4 * slo:max:events:gitlab_service_errors:ratio{component=\"\",monitor=\"global\",type=\"nat\"})),\n    \"period\", \"5m\", \"\", \"\"\n  )\n  or\n  label_replace(\n    vector(2) and on() (gitlab_service_errors:ratio_1h{env=\"$environment\",environment=\"$environment\",monitor=\"global\",type=\"nat\"} > on(tier, type) group_left() (14.4 * slo:max:events:gitlab_service_errors:ratio{component=\"\",monitor=\"global\",type=\"nat\"})),\n    \"period\", \"1h\", \"\", \"\"\n  )\n  or\n  label_replace(\n    vector(4) and on() (gitlab_service_errors:ratio_30m{env=\"$environment\",environment=\"$environment\",monitor=\"global\",type=\"nat\"} > on(tier, type) group_left() (6 * slo:max:events:gitlab_service_errors:ratio{component=\"\",monitor=\"global\",type=\"nat\"})),\n    \"period\", \"30m\", \"\", \"\"\n  )\n  or\n  label_replace(\n    vector(8) and on() (gitlab_service_errors:ratio_6h{env=\"$environment\",environment=\"$environment\",monitor=\"global\",type=\"nat\"} > on(tier, type) group_left() (6 * slo:max:events:gitlab_service_errors:ratio{component=\"\",monitor=\"global\",type=\"nat\"})),\n    \"period\", \"6h\", \"\", \"\"\n  )\n)\n",
          "format": "time_series",
          "instant": true,
          "interval": "1m",
          "intervalFactor": 1,
          "legendFormat": "nat Service | Errors",
          "refId": "A"
        }
      ],
      "title": "",
      "transparent": false,
      "type": "stat"
    },
    {
      "bars": false,
      "dashLength": 10,
      "dashes": false,
      "datasource": "$PROMETHEUS_DS",
      "decimals": 2,
      "description": "The operation rate is the sum total of all requests being handle for all components within this service. Note that a single user request can lead to requests to multiple components. Higher is busier.",
      "fill": 0,
      "fillGradient": 0,
      "gridPos": {
        "h": 8,
        "w": 8,
        "x": 8,
        "y": 1
      },
      "id": 2896755346,
      "legend": {
        "alignAsTable": true,
        "avg": true,
        "current": true,
        "hideEmpty": true,
        "max": true,
        "min": true,
        "rightSide": false,
        "show": false,
        "total": false,
        "values": true
      },
      "lines": true,
      "linewidth": 2,
      "nullPointMode": "null",
      "percentage": false,
      "pointradius": 5,
      "points": false,
      "renderer": "flot",
      "seriesOverrides": [
        {
          "alias": "/.*shard (apdex|error ratio|RPS)$/",
          "color": "#E7D551"
        },
        {
          "alias": "nat RPS",
          "color": "#E7D551",
          "zindex": 3
        },
        {
          "alias": "last week",
          "color": "#dddddd80",
          "dashLength": 4,
          "dashes": true,
          "fill": 0,
          "legend": true,
          "lines": true,
          "linewidth": 1,
          "nullPointMode": "connected",
          "spaceLength": 2,
          "zindex": -3
        },
        {
          "alias": "upper normal",
          "color": "#73BF69",
          "dashLength": 8,
          "dashes": true,
          "fillBelowTo": "lower normal",
          "legend": false,
          "lines": false,
          "linewidth": 1,
          "nullPointMode": "connected",
          "spaceLength": 8,
          "zindex": -3
        },
        {
          "alias": "lower normal",
          "color": "#73BF69",
          "dashLength": 8,
          "dashes": true,
          "legend": false,
          "lines": false,
          "linewidth": 1,
          "nullPointMode": "connected",
          "spaceLength": 8,
          "zindex": -3
        }
      ],
      "spaceLength": 10,
      "stableId": "service-nat-ops-rate",
      "stack": false,
      "steppedLine": false,
      "targets": [
        {
          "expr": "avg_over_time(gitlab_service_ops:rate_5m{env=\"$environment\",environment=\"$environment\",monitor=\"global\",type=\"nat\"}[$__interval])\n",
          "format": "time_series",
          "interval": "1m",
          "intervalFactor": 1,
          "legendFormat": "nat RPS",
          "refId": "A"
        },
        {
          "expr": "gitlab_service_ops:rate_5m{env=\"$environment\",environment=\"$environment\",monitor=\"global\",type=\"nat\"} offset 1w\n",
          "format": "time_series",
          "interval": "1m",
          "intervalFactor": 1,
          "legendFormat": "last week",
          "refId": "B"
        },
        {
          "expr": "clamp_min(\n  avg by (type) (\n    gitlab_service_ops:rate:prediction{env=\"$environment\",environment=\"$environment\",monitor=\"global\",type=\"nat\"}\n    + (1) *\n    gitlab_service_ops:rate:stddev_over_time_1w{env=\"$environment\",environment=\"$environment\",monitor=\"global\",type=\"nat\"}\n  ),\n  0\n)\n",
          "format": "time_series",
          "interval": "1m",
          "intervalFactor": 1,
          "legendFormat": "upper normal",
          "refId": "C"
        },
        {
          "expr": "clamp_min(\n  avg by (type) (\n    gitlab_service_ops:rate:prediction{env=\"$environment\",environment=\"$environment\",monitor=\"global\",type=\"nat\"}\n    + (-1) *\n    gitlab_service_ops:rate:stddev_over_time_1w{env=\"$environment\",environment=\"$environment\",monitor=\"global\",type=\"nat\"}\n  ),\n  0\n)\n",
          "format": "time_series",
          "interval": "1m",
          "intervalFactor": 1,
          "legendFormat": "lower normal",
          "refId": "D"
        }
      ],
      "title": "nat Service RPS - Requests per Second",
      "tooltip": {
        "shared": true,
        "sort": 2,
        "value_type": "individual"
      },
      "type": "graph",
      "xaxis": {
        "mode": "time",
        "show": true
      },
      "yaxes": [
        {
          "format": "short",
          "label": "",
          "logBase": 1,
          "min": 0,
          "show": true
        },
        {
          "format": "short",
          "logBase": 1,
          "max": 1,
          "min": 0,
          "show": false
        }
      ]
    },
    {
      "bars": false,
      "dashLength": 10,
      "dashes": false,
      "datasource": "$PROMETHEUS_DS",
      "decimals": 2,
      "description": "Saturation is a measure of what ratio of a finite resource is currently being utilized. Lower is better.",
      "fill": 0,
      "fillGradient": 0,
      "gridPos": {
        "h": 8,
        "w": 8,
        "x": 16,
        "y": 1
      },
      "id": 1217942947,
      "legend": {
        "alignAsTable": true,
        "avg": true,
        "current": true,
        "hideEmpty": true,
        "max": true,
        "min": true,
        "rightSide": false,
        "show": false,
        "total": false,
        "values": true
      },
      "lines": true,
      "linewidth": 1,
      "links": [
        {
          "title": "nat Service | nat_gateway_port_allocation resource Dashboard",
          "url": "https://dashboards.gitlab.net/d/alerts-sat_nat_gw_port_allocation/?var-environment=gprd&var-type=nat&var-stage=main&var-component=nat_gateway_port_allocation"
        },
        {
          "title": "nat Service | nat_host_port_allocation resource Dashboard",
          "url": "https://dashboards.gitlab.net/d/alerts-sat_nat_host_port_allocation/?var-environment=gprd&var-type=nat&var-stage=main&var-component=nat_host_port_allocation"
        }
      ],
      "nullPointMode": "null",
      "percentage": false,
      "pointradius": 5,
      "points": false,
      "renderer": "flot",
      "spaceLength": 10,
      "stableId": "service-utilization",
      "stack": false,
      "steppedLine": false,
      "targets": [
        {
          "expr": "max(\n  max_over_time(\n    gitlab_component_saturation:ratio{env=\"$environment\",environment=\"$environment\",type=\"nat\"}[$__interval]\n  )\n) by (component)\n",
          "format": "time_series",
          "interval": "1m",
          "intervalFactor": 1,
          "legendFormat": "{{ component }} component",
          "refId": "A"
        }
      ],
      "title": "Saturation",
      "tooltip": {
        "shared": true,
        "sort": 2,
        "value_type": "individual"
      },
      "type": "graph",
      "xaxis": {
        "mode": "time",
        "show": true
      },
      "yaxes": [
        {
          "format": "percentunit",
          "label": "",
          "logBase": 1,
          "max": 1,
          "show": true
        },
        {
          "format": "short",
          "logBase": 1,
          "max": 1,
          "min": 0,
          "show": false
        }
      ]
    },
    {
      "collapse": false,
      "collapsed": false,
      "gridPos": {
        "h": 1,
        "w": 24,
        "x": 0,
        "y": 20
      },
      "id": 7,
      "panels": [

      ],
      "repeat": null,
      "repeatIteration": null,
      "repeatRowId": null,
      "showTitle": true,
      "title": "🔬 Service Level Indicators",
      "titleSize": "h6",
      "type": "row"
    },
    {
      "bars": false,
      "dashLength": 10,
      "dashes": false,
      "datasource": "$PROMETHEUS_DS",
      "decimals": 2,
      "description": "Error rates are a measure of unhandled service exceptions per second. Client errors are excluded when possible. Lower is better",
      "fill": 0,
      "fillGradient": 0,
      "gridPos": {
        "h": 7,
        "w": 8,
        "x": 0,
        "y": 21
      },
      "id": 357490157,
      "legend": {
        "alignAsTable": true,
        "avg": true,
        "current": true,
        "hideEmpty": true,
        "max": true,
        "min": true,
        "rightSide": false,
        "show": true,
        "total": false,
        "values": true
      },
      "lines": true,
      "linewidth": 2,
      "nullPointMode": "null",
      "options": {
        "dataLinks": [
          {
            "targetBlank": true,
            "title": "received_tcp_packets SLI Error-Rate SLO Analysis",
            "url": "/d/alerts-component_slo_error?${__url_time_range}&${__all_variables}&var-component=received_tcp_packets&var-type=nat"
          }
        ]
      },
      "percentage": false,
      "pointradius": 5,
      "points": false,
      "renderer": "flot",
      "seriesOverrides": [
        {
          "alias": "/6h Degradation SLO \\(5% of monthly error budget\\).*/",
          "color": "#FF4500",
          "dashLength": 4,
          "dashes": true,
          "legend": true,
          "lines": true,
          "linewidth": 2,
          "nullPointMode": "connected",
          "spaceLength": 10,
          "zindex": -2
        },
        {
          "alias": "/1h Outage SLO \\(2% of monthly error budget\\).*/",
          "color": "#F2495C",
          "dashLength": 4,
          "dashes": true,
          "legend": true,
          "lines": true,
          "linewidth": 4,
          "nullPointMode": "connected",
          "spaceLength": 4,
          "zindex": -2
        },
        {
          "alias": "/.*shard (apdex|error ratio|RPS)$/",
          "color": "#E7D551"
        },
        {
          "alias": "received_tcp_packets error ratio",
          "color": "#E7D551",
          "fillBelowTo": "received_tcp_packets error ratio avg",
          "zindex": 3
        },
        {
          "alias": "received_tcp_packets error ratio avg",
          "color": "#5794F2",
          "dashLength": 1,
          "fillGradient": 10,
          "linewidth": 1,
          "spaceLength": 1,
          "zindex": -3
        },
        {
          "alias": "last week",
          "color": "#dddddd80",
          "dashLength": 4,
          "dashes": true,
          "fill": 0,
          "legend": true,
          "lines": true,
          "linewidth": 1,
          "nullPointMode": "connected",
          "spaceLength": 2,
          "zindex": -3
        }
      ],
      "spaceLength": 10,
      "stableId": "sli-received_tcp_packets-error-rate",
      "stack": false,
      "steppedLine": false,
      "targets": [
        {
          "expr": "clamp_max(\n  max_over_time(gitlab_component_errors:ratio_5m{component=\"received_tcp_packets\",env=\"$environment\",environment=\"$environment\",monitor=\"global\",type=\"nat\"}[$__interval])\n,\n  1\n)\n",
          "format": "time_series",
          "interval": "1m",
          "intervalFactor": 1,
          "legendFormat": "received_tcp_packets error ratio",
          "refId": "A"
        },
        {
          "expr": "(6 * avg(slo:max:events:gitlab_service_errors:ratio{component=\"received_tcp_packets\",monitor=\"global\",type=\"nat\"})\n)\n",
          "format": "time_series",
          "interval": "5m",
          "intervalFactor": 1,
          "legendFormat": "6h Degradation SLO (5% of monthly error budget)",
          "refId": "B"
        },
        {
          "expr": "(14.4 * avg(slo:max:events:gitlab_service_errors:ratio{component=\"received_tcp_packets\",monitor=\"global\",type=\"nat\"})\n)\n",
          "format": "time_series",
          "interval": "5m",
          "intervalFactor": 1,
          "legendFormat": "1h Outage SLO (2% of monthly error budget)",
          "refId": "C"
        },
        {
          "expr": "clamp_max(\n  avg_over_time(gitlab_component_errors:ratio_5m{component=\"received_tcp_packets\",env=\"$environment\",environment=\"$environment\",monitor=\"global\",type=\"nat\"}[$__interval])\n,\n  1\n)\n",
          "format": "time_series",
          "interval": "1m",
          "intervalFactor": 1,
          "legendFormat": "received_tcp_packets error ratio avg",
          "refId": "D"
        },
        {
          "expr": "clamp_max(\n  gitlab_component_errors:ratio_5m{component=\"received_tcp_packets\",env=\"$environment\",environment=\"$environment\",monitor=\"global\",type=\"nat\"} offset 1w\n,\n  scalar(max((14.4 * avg(slo:max:events:gitlab_service_errors:ratio{component=\"received_tcp_packets\",monitor=\"global\",type=\"nat\"})\n)\n))\n)\n",
          "format": "time_series",
          "interval": "1m",
          "intervalFactor": 1,
          "legendFormat": "last week",
          "refId": "E"
        }
      ],
      "title": "received_tcp_packets SLI Error Ratio",
      "tooltip": {
        "shared": true,
        "sort": 2,
        "value_type": "individual"
      },
      "type": "graph",
      "xaxis": {
        "mode": "time",
        "show": true
      },
      "yaxes": [
        {
          "format": "percentunit",
          "label": "Error %",
          "logBase": 1,
          "min": 0,
          "show": true
        },
        {
          "format": "short",
          "logBase": 1,
          "max": 1,
          "min": 0,
          "show": false
        }
      ]
    },
    {
      "fieldConfig": {
        "defaults": {
          "displayName": "Status",
          "mappings": [
            {
              "id": 0,
              "options": {
                "0": {
                  "color": "black",
                  "index": 0,
                  "text": "Healthy"
                },
                "1": {
                  "color": "orange",
                  "index": 1,
                  "text": "Warning 🔥"
                },
                "10": {
                  "color": "orange",
                  "index": 10,
                  "text": "Warning 🔥🥵"
                },
                "11": {
                  "color": "red",
                  "index": 11,
                  "text": "Degraded 🔥🥵"
                },
                "12": {
                  "color": "red",
                  "index": 12,
                  "text": "Degraded 🥵"
                },
                "13": {
                  "color": "red",
                  "index": 13,
                  "text": "Degraded 🔥🥵"
                },
                "14": {
                  "color": "red",
                  "index": 14,
                  "text": "Degraded 🔥🥵"
                },
                "15": {
                  "color": "red",
                  "index": 15,
                  "text": "Degraded 🔥🥵"
                },
                "2": {
                  "color": "orange",
                  "index": 2,
                  "text": "Warning 🔥"
                },
                "3": {
                  "color": "red",
                  "index": 3,
                  "text": "Degraded 🔥"
                },
                "4": {
                  "color": "orange",
                  "index": 4,
                  "text": "Warning 🥵"
                },
                "5": {
                  "color": "orange",
                  "index": 5,
                  "text": "Warning 🔥🥵"
                },
                "6": {
                  "color": "orange",
                  "index": 6,
                  "text": "Warning 🔥🥵"
                },
                "7": {
                  "color": "red",
                  "index": 7,
                  "text": "Degraded 🔥🥵"
                },
                "8": {
                  "color": "orange",
                  "index": 8,
                  "text": "Warning 🥵"
                },
                "9": {
                  "color": "orange",
                  "index": 9,
                  "text": "Warning 🔥🥵"
                }
              },
              "type": "value"
            }
          ],
          "thresholds": {
            "mode": "absolute",
            "steps": [
              {
                "color": "black",
                "value": 0
              },
              {
                "color": "orange",
                "value": 1
              },
              {
                "color": "orange",
                "value": 2
              },
              {
                "color": "red",
                "value": 3
              },
              {
                "color": "orange",
                "value": 4
              },
              {
                "color": "orange",
                "value": 5
              },
              {
                "color": "orange",
                "value": 6
              },
              {
                "color": "red",
                "value": 7
              },
              {
                "color": "orange",
                "value": 8
              },
              {
                "color": "orange",
                "value": 9
              },
              {
                "color": "orange",
                "value": 10
              },
              {
                "color": "red",
                "value": 11
              },
              {
                "color": "red",
                "value": 12
              },
              {
                "color": "red",
                "value": 13
              },
              {
                "color": "red",
                "value": 14
              },
              {
                "color": "red",
                "value": 15
              }
            ]
          },
          "unit": "none"
        }
      },
      "gridPos": {
        "h": 1,
        "w": 8,
        "x": 0,
        "y": 28
      },
      "id": 9,
      "options": {
        "colorMode": "background",
        "graphMode": "none",
        "justifyMode": "auto",
        "orientation": "vertical",
        "reduceOptions": {
          "calcs": [
            "lastNotNull"
          ],
          "fields": "",
          "values": false
        },
        "textMode": "auto"
      },
      "pluginVersion": "7",
      "targets": [
        {
          "expr": "sum (\n  label_replace(\n    vector(0) and on() (gitlab_component_errors:ratio_1h{component=\"received_tcp_packets\",env=\"$environment\",environment=\"$environment\",monitor=\"global\",type=\"nat\"}),\n    \"period\", \"na\", \"\", \"\"\n  )\n  or\n  label_replace(\n    vector(1) and on() (gitlab_component_errors:ratio_5m{component=\"received_tcp_packets\",env=\"$environment\",environment=\"$environment\",monitor=\"global\",type=\"nat\"} > on(tier, type) group_left() (14.4 * slo:max:events:gitlab_service_errors:ratio{component=\"received_tcp_packets\",monitor=\"global\",type=\"nat\"})),\n    \"period\", \"5m\", \"\", \"\"\n  )\n  or\n  label_replace(\n    vector(2) and on() (gitlab_component_errors:ratio_1h{component=\"received_tcp_packets\",env=\"$environment\",environment=\"$environment\",monitor=\"global\",type=\"nat\"} > on(tier, type) group_left() (14.4 * slo:max:events:gitlab_service_errors:ratio{component=\"received_tcp_packets\",monitor=\"global\",type=\"nat\"})),\n    \"period\", \"1h\", \"\", \"\"\n  )\n  or\n  label_replace(\n    vector(4) and on() (gitlab_component_errors:ratio_30m{component=\"received_tcp_packets\",env=\"$environment\",environment=\"$environment\",monitor=\"global\",type=\"nat\"} > on(tier, type) group_left() (6 * slo:max:events:gitlab_service_errors:ratio{component=\"received_tcp_packets\",monitor=\"global\",type=\"nat\"})),\n    \"period\", \"30m\", \"\", \"\"\n  )\n  or\n  label_replace(\n    vector(8) and on() (gitlab_component_errors:ratio_6h{component=\"received_tcp_packets\",env=\"$environment\",environment=\"$environment\",monitor=\"global\",type=\"nat\"} > on(tier, type) group_left() (6 * slo:max:events:gitlab_service_errors:ratio{component=\"received_tcp_packets\",monitor=\"global\",type=\"nat\"})),\n    \"period\", \"6h\", \"\", \"\"\n  )\n)\n",
          "format": "time_series",
          "instant": true,
          "interval": "1m",
          "intervalFactor": 1,
          "legendFormat": "received_tcp_packets SLI | Errors",
          "refId": "A"
        }
      ],
      "title": "",
      "transparent": false,
      "type": "stat"
    },
    {
      "bars": false,
      "dashLength": 10,
      "dashes": false,
      "datasource": "$PROMETHEUS_DS",
      "decimals": 2,
      "description": "The operation rate is the sum total of all requests being handle for all components within this service. Note that a single user request can lead to requests to multiple components. Higher is busier.",
      "fill": 0,
      "fillGradient": 0,
      "gridPos": {
        "h": 8,
        "w": 8,
        "x": 8,
        "y": 21
      },
      "id": 2113730875,
      "legend": {
        "alignAsTable": true,
        "avg": true,
        "current": true,
        "hideEmpty": true,
        "max": true,
        "min": true,
        "rightSide": false,
        "show": true,
        "total": false,
        "values": true
      },
      "lines": true,
      "linewidth": 2,
      "nullPointMode": "null",
      "percentage": false,
      "pointradius": 5,
      "points": false,
      "renderer": "flot",
      "seriesOverrides": [
        {
          "alias": "/.*shard (apdex|error ratio|RPS)$/",
          "color": "#E7D551"
        },
        {
          "alias": "received_tcp_packets RPS",
          "color": "#E7D551",
          "zindex": 3
        },
        {
          "alias": "last week",
          "color": "#dddddd80",
          "dashLength": 4,
          "dashes": true,
          "fill": 0,
          "legend": true,
          "lines": true,
          "linewidth": 1,
          "nullPointMode": "connected",
          "spaceLength": 2,
          "zindex": -3
        }
      ],
      "spaceLength": 10,
      "stableId": "sli-received_tcp_packets-ops-rate",
      "stack": false,
      "steppedLine": false,
      "targets": [
        {
          "expr": "avg_over_time(gitlab_component_ops:rate_5m{component=\"received_tcp_packets\",env=\"$environment\",environment=\"$environment\",monitor=\"global\",type=\"nat\"}[$__interval])\n",
          "format": "time_series",
          "interval": "1m",
          "intervalFactor": 1,
          "legendFormat": "received_tcp_packets RPS",
          "refId": "A"
        },
        {
          "expr": "gitlab_component_ops:rate_5m{component=\"received_tcp_packets\",env=\"$environment\",environment=\"$environment\",monitor=\"global\",type=\"nat\"} offset 1w\n",
          "format": "time_series",
          "interval": "1m",
          "intervalFactor": 1,
          "legendFormat": "last week",
          "refId": "B"
        }
      ],
      "title": "received_tcp_packets SLI RPS - Requests per Second",
      "tooltip": {
        "shared": true,
        "sort": 2,
        "value_type": "individual"
      },
      "type": "graph",
      "xaxis": {
        "mode": "time",
        "show": true
      },
      "yaxes": [
        {
          "format": "short",
          "label": "Operations per Second",
          "logBase": 1,
          "min": 0,
          "show": true
        },
        {
          "format": "short",
          "logBase": 1,
          "max": 1,
          "min": 0,
          "show": false
        }
      ]
    },
    {
      "content": "### Description\n\nMonitors GCP Cloud NAT TCP packets received.\nRequest rate is measures in IP packets, received by the Cloud NAT.\nErrors are dropped packets.\n\nHigh error rates could lead to network issues, including application errors, container fetch failures, etc.\n\n\n\n### Observability Tools\n\n* [Cloud NAT Stackdriver Dropped Packet Logs](https://console.cloud.google.com/logs/query;query=%2DjsonPayload%2Eallocation%5Fstatus%3D%22OK%22%0Aresource%2Etype%3D%22nat%5Fgateway%22;timeRange=PT30M?project=gitlab-production)\n\n",
      "gridPos": {
        "h": 8,
        "w": 8,
        "x": 16,
        "y": 21
      },
      "id": 11,
      "mode": "markdown",
      "title": "Details",
      "type": "text"
    },
    {
      "bars": false,
      "dashLength": 10,
      "dashes": false,
      "datasource": "$PROMETHEUS_DS",
      "decimals": 2,
      "description": "Error rates are a measure of unhandled service exceptions per second. Client errors are excluded when possible. Lower is better",
      "fill": 0,
      "fillGradient": 0,
      "gridPos": {
        "h": 7,
        "w": 8,
        "x": 0,
        "y": 31
      },
      "id": 1567330342,
      "legend": {
        "alignAsTable": true,
        "avg": true,
        "current": true,
        "hideEmpty": true,
        "max": true,
        "min": true,
        "rightSide": false,
        "show": true,
        "total": false,
        "values": true
      },
      "lines": true,
      "linewidth": 2,
      "nullPointMode": "null",
      "options": {
        "dataLinks": [
          {
            "targetBlank": true,
            "title": "sent_tcp_packets SLI Error-Rate SLO Analysis",
            "url": "/d/alerts-component_slo_error?${__url_time_range}&${__all_variables}&var-component=sent_tcp_packets&var-type=nat"
          }
        ]
      },
      "percentage": false,
      "pointradius": 5,
      "points": false,
      "renderer": "flot",
      "seriesOverrides": [
        {
          "alias": "/6h Degradation SLO \\(5% of monthly error budget\\).*/",
          "color": "#FF4500",
          "dashLength": 4,
          "dashes": true,
          "legend": true,
          "lines": true,
          "linewidth": 2,
          "nullPointMode": "connected",
          "spaceLength": 10,
          "zindex": -2
        },
        {
          "alias": "/1h Outage SLO \\(2% of monthly error budget\\).*/",
          "color": "#F2495C",
          "dashLength": 4,
          "dashes": true,
          "legend": true,
          "lines": true,
          "linewidth": 4,
          "nullPointMode": "connected",
          "spaceLength": 4,
          "zindex": -2
        },
        {
          "alias": "/.*shard (apdex|error ratio|RPS)$/",
          "color": "#E7D551"
        },
        {
          "alias": "sent_tcp_packets error ratio",
          "color": "#E7D551",
          "fillBelowTo": "sent_tcp_packets error ratio avg",
          "zindex": 3
        },
        {
          "alias": "sent_tcp_packets error ratio avg",
          "color": "#5794F2",
          "dashLength": 1,
          "fillGradient": 10,
          "linewidth": 1,
          "spaceLength": 1,
          "zindex": -3
        },
        {
          "alias": "last week",
          "color": "#dddddd80",
          "dashLength": 4,
          "dashes": true,
          "fill": 0,
          "legend": true,
          "lines": true,
          "linewidth": 1,
          "nullPointMode": "connected",
          "spaceLength": 2,
          "zindex": -3
        }
      ],
      "spaceLength": 10,
      "stableId": "sli-sent_tcp_packets-error-rate",
      "stack": false,
      "steppedLine": false,
      "targets": [
        {
          "expr": "clamp_max(\n  max_over_time(gitlab_component_errors:ratio_5m{component=\"sent_tcp_packets\",env=\"$environment\",environment=\"$environment\",monitor=\"global\",type=\"nat\"}[$__interval])\n,\n  1\n)\n",
          "format": "time_series",
          "interval": "1m",
          "intervalFactor": 1,
          "legendFormat": "sent_tcp_packets error ratio",
          "refId": "A"
        },
        {
          "expr": "(6 * avg(slo:max:events:gitlab_service_errors:ratio{component=\"sent_tcp_packets\",monitor=\"global\",type=\"nat\"})\n)\n",
          "format": "time_series",
          "interval": "5m",
          "intervalFactor": 1,
          "legendFormat": "6h Degradation SLO (5% of monthly error budget)",
          "refId": "B"
        },
        {
          "expr": "(14.4 * avg(slo:max:events:gitlab_service_errors:ratio{component=\"sent_tcp_packets\",monitor=\"global\",type=\"nat\"})\n)\n",
          "format": "time_series",
          "interval": "5m",
          "intervalFactor": 1,
          "legendFormat": "1h Outage SLO (2% of monthly error budget)",
          "refId": "C"
        },
        {
          "expr": "clamp_max(\n  avg_over_time(gitlab_component_errors:ratio_5m{component=\"sent_tcp_packets\",env=\"$environment\",environment=\"$environment\",monitor=\"global\",type=\"nat\"}[$__interval])\n,\n  1\n)\n",
          "format": "time_series",
          "interval": "1m",
          "intervalFactor": 1,
          "legendFormat": "sent_tcp_packets error ratio avg",
          "refId": "D"
        },
        {
          "expr": "clamp_max(\n  gitlab_component_errors:ratio_5m{component=\"sent_tcp_packets\",env=\"$environment\",environment=\"$environment\",monitor=\"global\",type=\"nat\"} offset 1w\n,\n  scalar(max((14.4 * avg(slo:max:events:gitlab_service_errors:ratio{component=\"sent_tcp_packets\",monitor=\"global\",type=\"nat\"})\n)\n))\n)\n",
          "format": "time_series",
          "interval": "1m",
          "intervalFactor": 1,
          "legendFormat": "last week",
          "refId": "E"
        }
      ],
      "title": "sent_tcp_packets SLI Error Ratio",
      "tooltip": {
        "shared": true,
        "sort": 2,
        "value_type": "individual"
      },
      "type": "graph",
      "xaxis": {
        "mode": "time",
        "show": true
      },
      "yaxes": [
        {
          "format": "percentunit",
          "label": "Error %",
          "logBase": 1,
          "min": 0,
          "show": true
        },
        {
          "format": "short",
          "logBase": 1,
          "max": 1,
          "min": 0,
          "show": false
        }
      ]
    },
    {
      "fieldConfig": {
        "defaults": {
          "displayName": "Status",
          "mappings": [
            {
              "id": 0,
              "options": {
                "0": {
                  "color": "black",
                  "index": 0,
                  "text": "Healthy"
                },
                "1": {
                  "color": "orange",
                  "index": 1,
                  "text": "Warning 🔥"
                },
                "10": {
                  "color": "orange",
                  "index": 10,
                  "text": "Warning 🔥🥵"
                },
                "11": {
                  "color": "red",
                  "index": 11,
                  "text": "Degraded 🔥🥵"
                },
                "12": {
                  "color": "red",
                  "index": 12,
                  "text": "Degraded 🥵"
                },
                "13": {
                  "color": "red",
                  "index": 13,
                  "text": "Degraded 🔥🥵"
                },
                "14": {
                  "color": "red",
                  "index": 14,
                  "text": "Degraded 🔥🥵"
                },
                "15": {
                  "color": "red",
                  "index": 15,
                  "text": "Degraded 🔥🥵"
                },
                "2": {
                  "color": "orange",
                  "index": 2,
                  "text": "Warning 🔥"
                },
                "3": {
                  "color": "red",
                  "index": 3,
                  "text": "Degraded 🔥"
                },
                "4": {
                  "color": "orange",
                  "index": 4,
                  "text": "Warning 🥵"
                },
                "5": {
                  "color": "orange",
                  "index": 5,
                  "text": "Warning 🔥🥵"
                },
                "6": {
                  "color": "orange",
                  "index": 6,
                  "text": "Warning 🔥🥵"
                },
                "7": {
                  "color": "red",
                  "index": 7,
                  "text": "Degraded 🔥🥵"
                },
                "8": {
                  "color": "orange",
                  "index": 8,
                  "text": "Warning 🥵"
                },
                "9": {
                  "color": "orange",
                  "index": 9,
                  "text": "Warning 🔥🥵"
                }
              },
              "type": "value"
            }
          ],
          "thresholds": {
            "mode": "absolute",
            "steps": [
              {
                "color": "black",
                "value": 0
              },
              {
                "color": "orange",
                "value": 1
              },
              {
                "color": "orange",
                "value": 2
              },
              {
                "color": "red",
                "value": 3
              },
              {
                "color": "orange",
                "value": 4
              },
              {
                "color": "orange",
                "value": 5
              },
              {
                "color": "orange",
                "value": 6
              },
              {
                "color": "red",
                "value": 7
              },
              {
                "color": "orange",
                "value": 8
              },
              {
                "color": "orange",
                "value": 9
              },
              {
                "color": "orange",
                "value": 10
              },
              {
                "color": "red",
                "value": 11
              },
              {
                "color": "red",
                "value": 12
              },
              {
                "color": "red",
                "value": 13
              },
              {
                "color": "red",
                "value": 14
              },
              {
                "color": "red",
                "value": 15
              }
            ]
          },
          "unit": "none"
        }
      },
      "gridPos": {
        "h": 1,
        "w": 8,
        "x": 0,
        "y": 38
      },
      "id": 13,
      "options": {
        "colorMode": "background",
        "graphMode": "none",
        "justifyMode": "auto",
        "orientation": "vertical",
        "reduceOptions": {
          "calcs": [
            "lastNotNull"
          ],
          "fields": "",
          "values": false
        },
        "textMode": "auto"
      },
      "pluginVersion": "7",
      "targets": [
        {
          "expr": "sum (\n  label_replace(\n    vector(0) and on() (gitlab_component_errors:ratio_1h{component=\"sent_tcp_packets\",env=\"$environment\",environment=\"$environment\",monitor=\"global\",type=\"nat\"}),\n    \"period\", \"na\", \"\", \"\"\n  )\n  or\n  label_replace(\n    vector(1) and on() (gitlab_component_errors:ratio_5m{component=\"sent_tcp_packets\",env=\"$environment\",environment=\"$environment\",monitor=\"global\",type=\"nat\"} > on(tier, type) group_left() (14.4 * slo:max:events:gitlab_service_errors:ratio{component=\"sent_tcp_packets\",monitor=\"global\",type=\"nat\"})),\n    \"period\", \"5m\", \"\", \"\"\n  )\n  or\n  label_replace(\n    vector(2) and on() (gitlab_component_errors:ratio_1h{component=\"sent_tcp_packets\",env=\"$environment\",environment=\"$environment\",monitor=\"global\",type=\"nat\"} > on(tier, type) group_left() (14.4 * slo:max:events:gitlab_service_errors:ratio{component=\"sent_tcp_packets\",monitor=\"global\",type=\"nat\"})),\n    \"period\", \"1h\", \"\", \"\"\n  )\n  or\n  label_replace(\n    vector(4) and on() (gitlab_component_errors:ratio_30m{component=\"sent_tcp_packets\",env=\"$environment\",environment=\"$environment\",monitor=\"global\",type=\"nat\"} > on(tier, type) group_left() (6 * slo:max:events:gitlab_service_errors:ratio{component=\"sent_tcp_packets\",monitor=\"global\",type=\"nat\"})),\n    \"period\", \"30m\", \"\", \"\"\n  )\n  or\n  label_replace(\n    vector(8) and on() (gitlab_component_errors:ratio_6h{component=\"sent_tcp_packets\",env=\"$environment\",environment=\"$environment\",monitor=\"global\",type=\"nat\"} > on(tier, type) group_left() (6 * slo:max:events:gitlab_service_errors:ratio{component=\"sent_tcp_packets\",monitor=\"global\",type=\"nat\"})),\n    \"period\", \"6h\", \"\", \"\"\n  )\n)\n",
          "format": "time_series",
          "instant": true,
          "interval": "1m",
          "intervalFactor": 1,
          "legendFormat": "sent_tcp_packets SLI | Errors",
          "refId": "A"
        }
      ],
      "title": "",
      "transparent": false,
      "type": "stat"
    },
    {
      "bars": false,
      "dashLength": 10,
      "dashes": false,
      "datasource": "$PROMETHEUS_DS",
      "decimals": 2,
      "description": "The operation rate is the sum total of all requests being handle for all components within this service. Note that a single user request can lead to requests to multiple components. Higher is busier.",
      "fill": 0,
      "fillGradient": 0,
      "gridPos": {
        "h": 8,
        "w": 8,
        "x": 8,
        "y": 31
      },
      "id": 2068681614,
      "legend": {
        "alignAsTable": true,
        "avg": true,
        "current": true,
        "hideEmpty": true,
        "max": true,
        "min": true,
        "rightSide": false,
        "show": true,
        "total": false,
        "values": true
      },
      "lines": true,
      "linewidth": 2,
      "nullPointMode": "null",
      "percentage": false,
      "pointradius": 5,
      "points": false,
      "renderer": "flot",
      "seriesOverrides": [
        {
          "alias": "/.*shard (apdex|error ratio|RPS)$/",
          "color": "#E7D551"
        },
        {
          "alias": "sent_tcp_packets RPS",
          "color": "#E7D551",
          "zindex": 3
        },
        {
          "alias": "last week",
          "color": "#dddddd80",
          "dashLength": 4,
          "dashes": true,
          "fill": 0,
          "legend": true,
          "lines": true,
          "linewidth": 1,
          "nullPointMode": "connected",
          "spaceLength": 2,
          "zindex": -3
        }
      ],
      "spaceLength": 10,
      "stableId": "sli-sent_tcp_packets-ops-rate",
      "stack": false,
      "steppedLine": false,
      "targets": [
        {
          "expr": "avg_over_time(gitlab_component_ops:rate_5m{component=\"sent_tcp_packets\",env=\"$environment\",environment=\"$environment\",monitor=\"global\",type=\"nat\"}[$__interval])\n",
          "format": "time_series",
          "interval": "1m",
          "intervalFactor": 1,
          "legendFormat": "sent_tcp_packets RPS",
          "refId": "A"
        },
        {
          "expr": "gitlab_component_ops:rate_5m{component=\"sent_tcp_packets\",env=\"$environment\",environment=\"$environment\",monitor=\"global\",type=\"nat\"} offset 1w\n",
          "format": "time_series",
          "interval": "1m",
          "intervalFactor": 1,
          "legendFormat": "last week",
          "refId": "B"
        }
      ],
      "title": "sent_tcp_packets SLI RPS - Requests per Second",
      "tooltip": {
        "shared": true,
        "sort": 2,
        "value_type": "individual"
      },
      "type": "graph",
      "xaxis": {
        "mode": "time",
        "show": true
      },
      "yaxes": [
        {
          "format": "short",
          "label": "Operations per Second",
          "logBase": 1,
          "min": 0,
          "show": true
        },
        {
          "format": "short",
          "logBase": 1,
          "max": 1,
          "min": 0,
          "show": false
        }
      ]
    },
    {
      "content": "### Description\n\nMonitors GCP Cloud NAT TCP packets sent.\nRequest rate is measures in IP packets, sent by the Cloud NAT.\nErrors are dropped packets.\n\nHigh error rates could lead to network issues, including application errors, container fetch failures, etc.\n\n\n\n### Observability Tools\n\n* [Cloud NAT Stackdriver Dropped Packet Logs](https://console.cloud.google.com/logs/query;query=%2DjsonPayload%2Eallocation%5Fstatus%3D%22OK%22%0Aresource%2Etype%3D%22nat%5Fgateway%22;timeRange=PT30M?project=gitlab-production)\n\n",
      "gridPos": {
        "h": 8,
        "w": 8,
        "x": 16,
        "y": 31
      },
      "id": 15,
      "mode": "markdown",
      "title": "Details",
      "type": "text"
    },
    {
      "collapse": true,
      "collapsed": true,
      "gridPos": {
        "h": 10,
        "w": 24,
        "x": 0,
        "y": 200
      },
      "id": 16,
      "panels": [
        {
          "bars": false,
          "dashLength": 10,
          "dashes": false,
          "datasource": "$PROMETHEUS_DS",
          "decimals": 2,
          "description": "",
          "fill": 0,
          "fillGradient": 0,
          "gridPos": {
            "h": 10,
            "w": 12,
            "x": 0,
            "y": 0
          },
          "id": 17,
          "legend": {
            "alignAsTable": true,
            "avg": true,
            "current": true,
            "hideEmpty": true,
            "max": true,
            "min": true,
            "rightSide": false,
            "show": true,
            "total": false,
            "values": true
          },
          "lines": true,
          "linewidth": 2,
          "nullPointMode": "null",
          "percentage": false,
          "pointradius": 5,
          "points": false,
          "renderer": "flot",
          "spaceLength": 10,
          "stack": false,
          "steppedLine": false,
          "targets": [
            {
              "expr": "sum by () (\n  sum by (environment) (\n    avg_over_time(\n      stackdriver_nat_gateway_router_googleapis_com_nat_dropped_received_packets_count{metric_prefix=\"router.googleapis.com/nat\",  ip_protocol=\"6\", project_id=~\"gitlab-staging-1|gitlab-production\"}[$__interval]\n    )\n  )\n)\n > 0",
              "format": "time_series",
              "interval": "1m",
              "intervalFactor": 1,
              "legendFormat": "overall",
              "refId": "A"
            }
          ],
          "title": "received_tcp_packets Errors - Overall",
          "tooltip": {
            "shared": true,
            "sort": 2,
            "value_type": "individual"
          },
          "type": "graph",
          "xaxis": {
            "mode": "time",
            "show": true
          },
          "yaxes": [
            {
              "format": "short",
              "label": "Errors",
              "logBase": 1,
              "min": 0,
              "show": true
            },
            {
              "format": "short",
              "logBase": 1,
              "max": 1,
              "min": 0,
              "show": false
            }
          ]
        },
        {
          "bars": false,
          "dashLength": 10,
          "dashes": false,
          "datasource": "$PROMETHEUS_DS",
          "decimals": 0,
          "description": "",
          "fill": 0,
          "fillGradient": 0,
          "gridPos": {
            "h": 10,
            "w": 12,
            "x": 12,
            "y": 0
          },
          "id": 18,
          "legend": {
            "alignAsTable": true,
            "avg": true,
            "current": true,
            "hideEmpty": true,
            "max": true,
            "min": true,
            "rightSide": false,
            "show": true,
            "total": false,
            "values": true
          },
          "lines": true,
          "linewidth": 2,
          "nullPointMode": "null",
          "percentage": false,
          "pointradius": 5,
          "points": false,
          "renderer": "flot",
          "spaceLength": 10,
          "stack": false,
          "steppedLine": false,
          "targets": [
            {
              "expr": "sum by () (\n  sum by (environment) (\n    avg_over_time(\n      stackdriver_nat_gateway_router_googleapis_com_nat_received_packets_count{metric_prefix=\"router.googleapis.com/nat\",  ip_protocol=\"6\", project_id=~\"gitlab-staging-1|gitlab-production\"}[$__interval]\n    )\n  )\n)\n > 0",
              "format": "time_series",
              "interval": "1m",
              "intervalFactor": 1,
              "legendFormat": "overall",
              "refId": "A"
            }
          ],
          "title": "received_tcp_packets RPS - Overall",
          "tooltip": {
            "shared": true,
            "sort": 2,
            "value_type": "individual"
          },
          "type": "graph",
          "xaxis": {
            "mode": "time",
            "show": true
          },
          "yaxes": [
            {
              "format": "short",
              "label": "Requests per Second",
              "logBase": 1,
              "min": 0,
              "show": true
            },
            {
              "format": "short",
              "logBase": 1,
              "max": 1,
              "min": 0,
              "show": false
            }
          ]
        }
      ],
      "repeat": null,
      "repeatIteration": null,
      "repeatRowId": null,
      "showTitle": true,
      "title": "🔬 SLI Detail: received_tcp_packets",
      "titleSize": "h6",
      "type": "row"
    },
    {
      "collapse": true,
      "collapsed": true,
      "gridPos": {
        "h": 10,
        "w": 24,
        "x": 0,
        "y": 210
      },
      "id": 19,
      "panels": [
        {
          "bars": false,
          "dashLength": 10,
          "dashes": false,
          "datasource": "$PROMETHEUS_DS",
          "decimals": 2,
          "description": "",
          "fill": 0,
          "fillGradient": 0,
          "gridPos": {
            "h": 10,
            "w": 12,
            "x": 0,
            "y": 0
          },
          "id": 20,
          "legend": {
            "alignAsTable": true,
            "avg": true,
            "current": true,
            "hideEmpty": true,
            "max": true,
            "min": true,
            "rightSide": false,
            "show": true,
            "total": false,
            "values": true
          },
          "lines": true,
          "linewidth": 2,
          "nullPointMode": "null",
          "percentage": false,
          "pointradius": 5,
          "points": false,
          "renderer": "flot",
          "spaceLength": 10,
          "stack": false,
          "steppedLine": false,
          "targets": [
            {
              "expr": "sum by () (\n  sum by (environment) (\n    avg_over_time(\n      stackdriver_nat_gateway_router_googleapis_com_nat_dropped_sent_packets_count{metric_prefix=\"router.googleapis.com/nat\",  ip_protocol=\"6\", project_id=~\"gitlab-staging-1|gitlab-production\"}[$__interval]\n    )\n  )\n)\n > 0",
              "format": "time_series",
              "interval": "1m",
              "intervalFactor": 1,
              "legendFormat": "overall",
              "refId": "A"
            }
          ],
          "title": "sent_tcp_packets Errors - Overall",
          "tooltip": {
            "shared": true,
            "sort": 2,
            "value_type": "individual"
          },
          "type": "graph",
          "xaxis": {
            "mode": "time",
            "show": true
          },
          "yaxes": [
            {
              "format": "short",
              "label": "Errors",
              "logBase": 1,
              "min": 0,
              "show": true
            },
            {
              "format": "short",
              "logBase": 1,
              "max": 1,
              "min": 0,
              "show": false
            }
          ]
        },
        {
          "bars": false,
          "dashLength": 10,
          "dashes": false,
          "datasource": "$PROMETHEUS_DS",
          "decimals": 0,
          "description": "",
          "fill": 0,
          "fillGradient": 0,
          "gridPos": {
            "h": 10,
            "w": 12,
            "x": 12,
            "y": 0
          },
          "id": 21,
          "legend": {
            "alignAsTable": true,
            "avg": true,
            "current": true,
            "hideEmpty": true,
            "max": true,
            "min": true,
            "rightSide": false,
            "show": true,
            "total": false,
            "values": true
          },
          "lines": true,
          "linewidth": 2,
          "nullPointMode": "null",
          "percentage": false,
          "pointradius": 5,
          "points": false,
          "renderer": "flot",
          "spaceLength": 10,
          "stack": false,
          "steppedLine": false,
          "targets": [
            {
              "expr": "sum by () (\n  sum by (environment) (\n    avg_over_time(\n      stackdriver_nat_gateway_router_googleapis_com_nat_sent_packets_count{metric_prefix=\"router.googleapis.com/nat\",  ip_protocol=\"6\", project_id=~\"gitlab-staging-1|gitlab-production\"}[$__interval]\n    )\n  )\n)\n > 0",
              "format": "time_series",
              "interval": "1m",
              "intervalFactor": 1,
              "legendFormat": "overall",
              "refId": "A"
            }
          ],
          "title": "sent_tcp_packets RPS - Overall",
          "tooltip": {
            "shared": true,
            "sort": 2,
            "value_type": "individual"
          },
          "type": "graph",
          "xaxis": {
            "mode": "time",
            "show": true
          },
          "yaxes": [
            {
              "format": "short",
              "label": "Requests per Second",
              "logBase": 1,
              "min": 0,
              "show": true
            },
            {
              "format": "short",
              "logBase": 1,
              "max": 1,
              "min": 0,
              "show": false
            }
          ]
        }
      ],
      "repeat": null,
      "repeatIteration": null,
      "repeatRowId": null,
      "showTitle": true,
      "title": "🔬 SLI Detail: sent_tcp_packets",
      "titleSize": "h6",
      "type": "row"
    },
    {
      "collapse": true,
      "collapsed": true,
      "gridPos": {
        "h": 1,
        "w": 24,
        "x": 0,
        "y": 500
      },
      "id": 22,
      "panels": [
        {
          "aliasColors": {
          },
          "bars": false,
          "dashLength": 10,
          "dashes": false,
          "datasource": "$PROMETHEUS_DS",
          "decimals": 2,
          "description": "Each NAT IP address on a Cloud NAT gateway offers 64,512 TCP source ports and 64,512 UDP source ports.\n\nWhen these are exhausted, processes may experience connection problems to external destinations. In the application these\nmay manifest as SMTP connection drops or webhook delivery failures. In Kubernetes, nodes may fail while\nattempting to download images from external repositories.\n\nMore details in the Cloud NAT documentation: https://cloud.google.com/nat/docs/ports-and-addresses\n Lower is better.",
          "fill": 0,
          "fillGradient": 0,
          "gridPos": {
            "h": 10,
            "w": 12,
            "x": 0,
            "y": 0
          },
          "id": 1436589381,
          "legend": {
            "alignAsTable": true,
            "avg": true,
            "current": true,
            "hideEmpty": true,
            "max": true,
            "min": true,
            "rightSide": false,
            "show": true,
            "sideWidth": null,
            "sort": "max",
            "sortDesc": true,
            "total": false,
            "values": true
          },
          "lines": true,
          "linewidth": 1,
          "links": [

          ],
          "nullPointMode": "null",
          "percentage": false,
          "pointradius": 5,
          "points": false,
          "renderer": "flot",
          "repeat": null,
          "seriesOverrides": [
            {
              "alias": "/^Soft SLO/",
              "color": "#FF4500",
              "dashLength": 4,
              "dashes": true,
              "legend": true,
              "lines": true,
              "linewidth": 2,
              "nullPointMode": "connected",
              "spaceLength": 10,
              "zindex": -2
            },
            {
              "alias": "/^Hard SLO/",
              "color": "#F2495C",
              "dashLength": 4,
              "dashes": true,
              "legend": true,
              "lines": true,
              "linewidth": 4,
              "nullPointMode": "connected",
              "spaceLength": 4,
              "zindex": -2
            },
            {
              "alias": "/aggregated /",
              "color": "#E7D551",
              "linewidth": 2,
              "zindex": 3
            },
            {
              "alias": "/^95th quantile for week/",
              "color": "#37872D",
              "dashLength": 4,
              "dashes": true,
              "legend": true,
              "lines": true,
              "linewidth": 1,
              "nullPointMode": "connected",
              "spaceLength": 10,
              "zindex": -2
            },
            {
              "alias": "/^99th quantile for week/",
              "color": "#56A64B",
              "dashLength": 4,
              "dashes": true,
              "legend": true,
              "lines": true,
              "linewidth": 2,
              "nullPointMode": "connected",
              "spaceLength": 4,
              "zindex": -2
            }
          ],
          "spaceLength": 10,
          "stableId": "saturation-nat_gateway_port_allocation",
          "stack": false,
          "steppedLine": false,
          "targets": [
            {
              "expr": "clamp_min(\n  clamp_max(\n    max by(environment, shard, gateway_name, project_id) (\n  clamp_min(\n    clamp_max(\n      sum without(nat_ip) (\n        stackdriver_nat_gateway_router_googleapis_com_nat_allocated_ports{\n          job=\"stackdriver\",\n          project_id=\"gitlab-production\",\n          env=\"$environment\",environment=\"$environment\",type=\"nat\"\n        }\n      )\n      /\n      ( 64512 * 48 )\n      or\n      sum without(nat_ip) (\n        stackdriver_nat_gateway_router_googleapis_com_nat_allocated_ports{\n          job=\"stackdriver\",\n          project_id=\"gitlab-staging-1\",\n          env=\"$environment\",environment=\"$environment\",type=\"nat\"\n        }\n      )\n      /\n      ( 64512 * 16 )\n      ,\n      1)\n  ,\n  0)\n)\n\n  ,1)\n,0)\n",
              "format": "time_series",
              "interval": "1m",
              "intervalFactor": 1,
              "legendFormat": "{{ gateway_name }} {{ project_id }}",
              "refId": "A"
            },
            {
              "expr": "clamp_min(\n  clamp_max(\n    max(\n      max_over_time(gitlab_component_saturation:ratio{env=\"$environment\",environment=\"$environment\",type=\"nat\", component=\"nat_gateway_port_allocation\"}[$__interval])\n    ) by (component)\n  ,1)\n,0)\n",
              "format": "time_series",
              "interval": "1m",
              "intervalFactor": 1,
              "legendFormat": "aggregated {{ component }}",
              "refId": "B"
            },
            {
              "expr": "max(\n  gitlab_component_saturation:ratio_quantile95_1w{env=\"$environment\",environment=\"$environment\",type=\"nat\", component=\"nat_gateway_port_allocation\"}\n)\n",
              "format": "time_series",
              "interval": "1m",
              "intervalFactor": 1,
              "legendFormat": "95th quantile for week {{ component }}",
              "refId": "C"
            },
            {
              "expr": "max(\n  gitlab_component_saturation:ratio_quantile99_1w{env=\"$environment\",environment=\"$environment\",type=\"nat\", component=\"nat_gateway_port_allocation\"}\n)\n",
              "format": "time_series",
              "interval": "1m",
              "intervalFactor": 1,
              "legendFormat": "99th quantile for week {{ component }}",
              "refId": "D"
            },
            {
              "expr": "avg(slo:max:soft:gitlab_component_saturation:ratio{component=\"nat_gateway_port_allocation\"}) by (component)\n",
              "format": "time_series",
              "interval": "1m",
              "intervalFactor": 1,
              "legendFormat": "Soft SLO: {{ component }}",
              "refId": "E"
            },
            {
              "expr": "avg(slo:max:hard:gitlab_component_saturation:ratio{component=\"nat_gateway_port_allocation\"}) by (component)\n",
              "format": "time_series",
              "interval": "1m",
              "intervalFactor": 1,
              "legendFormat": "Hard SLO: {{ component }}",
              "refId": "F"
            }
          ],
          "thresholds": [

          ],
          "timeFrom": null,
          "timeShift": null,
          "title": "nat_gateway_port_allocation component saturation: Cloud NAT Gateway Port Allocation",
          "tooltip": {
            "shared": true,
            "sort": 2,
            "value_type": "individual"
          },
          "type": "graph",
          "xaxis": {
            "buckets": null,
            "mode": "time",
            "name": null,
            "show": true,
            "values": [

            ]
          },
          "yaxes": [
            {
              "format": "percentunit",
              "label": "Saturation %",
              "logBase": 1,
              "max": 1,
              "min": null,
              "show": true
            },
            {
              "format": "short",
              "label": null,
              "logBase": 1,
              "max": 1,
              "min": 0,
              "show": false
            }
          ]
        },
        {
          "aliasColors": {
          },
          "bars": false,
          "dashLength": 10,
          "dashes": false,
          "datasource": "$PROMETHEUS_DS",
          "decimals": 2,
          "description": "Cloud NAT will allocate a set of NAT ports to each host in a cluster. When these are all allocated,\nCloud NAT may be unable to allocate any more.\n\nWhen this happens, processes may experience connection problems to external destinations. In the application these\nmay manifest as SMTP connection drops or webhook delivery failures. In Kubernetes, nodes may fail while\nattempting to download images from external repositories.\n\nMore details in the Cloud NAT documentation: https://cloud.google.com/nat/docs/ports-and-addresses.\n\nNote: when reviewing the detail chart for this saturation point, the instance_id can be resolved using\n`gcloud compute instances list --project gitlab-production --filter \"id=$instance_id\"`.\n Lower is better.",
          "fill": 0,
          "fillGradient": 0,
          "gridPos": {
            "h": 10,
            "w": 12,
            "x": 12,
            "y": 0
          },
          "id": 2254997722,
          "legend": {
            "alignAsTable": true,
            "avg": true,
            "current": true,
            "hideEmpty": true,
            "max": true,
            "min": true,
            "rightSide": false,
            "show": true,
            "sideWidth": null,
            "sort": "max",
            "sortDesc": true,
            "total": false,
            "values": true
          },
          "lines": true,
          "linewidth": 1,
          "links": [

          ],
          "nullPointMode": "null",
          "percentage": false,
          "pointradius": 5,
          "points": false,
          "renderer": "flot",
          "repeat": null,
          "seriesOverrides": [
            {
              "alias": "/^Soft SLO/",
              "color": "#FF4500",
              "dashLength": 4,
              "dashes": true,
              "legend": true,
              "lines": true,
              "linewidth": 2,
              "nullPointMode": "connected",
              "spaceLength": 10,
              "zindex": -2
            },
            {
              "alias": "/^Hard SLO/",
              "color": "#F2495C",
              "dashLength": 4,
              "dashes": true,
              "legend": true,
              "lines": true,
              "linewidth": 4,
              "nullPointMode": "connected",
              "spaceLength": 4,
              "zindex": -2
            },
            {
              "alias": "/aggregated /",
              "color": "#E7D551",
              "linewidth": 2,
              "zindex": 3
            },
            {
              "alias": "/^95th quantile for week/",
              "color": "#37872D",
              "dashLength": 4,
              "dashes": true,
              "legend": true,
              "lines": true,
              "linewidth": 1,
              "nullPointMode": "connected",
              "spaceLength": 10,
              "zindex": -2
            },
            {
              "alias": "/^99th quantile for week/",
              "color": "#56A64B",
              "dashLength": 4,
              "dashes": true,
              "legend": true,
              "lines": true,
              "linewidth": 2,
              "nullPointMode": "connected",
              "spaceLength": 4,
              "zindex": -2
            }
          ],
          "spaceLength": 10,
          "stableId": "saturation-nat_host_port_allocation",
          "stack": false,
          "steppedLine": false,
          "targets": [
            {
              "expr": "clamp_min(\n  clamp_max(\n    max by(environment, shard, instance_id, nat_gateway_name, zone) (\n  clamp_min(\n    clamp_max(\n      sum without(ip_protocol) (\n        max_over_time(\n          stackdriver_gce_instance_compute_googleapis_com_nat_port_usage{\n            job=\"stackdriver\",\n            project_id=~\"gitlab-production|gitlab-staging-1\",\n            env=\"$environment\",environment=\"$environment\",type=\"nat\"\n          }[5m]\n        )\n      )\n      /\n      sum without (nat_ip) (\n        max_over_time(\n          stackdriver_gce_instance_compute_googleapis_com_nat_allocated_ports{\n            job=\"stackdriver\",\n            project_id=~\"gitlab-production|gitlab-staging-1\",\n            env=\"$environment\",environment=\"$environment\",type=\"nat\"\n          }[5m]\n        )\n      )\n      ,\n      1)\n  ,\n  0)\n)\n\n  ,1)\n,0)\n",
              "format": "time_series",
              "interval": "1m",
              "intervalFactor": 1,
              "legendFormat": "{{ instance_id }} {{ nat_gateway_name }} {{ zone }}",
              "refId": "A"
            },
            {
              "expr": "clamp_min(\n  clamp_max(\n    max(\n      max_over_time(gitlab_component_saturation:ratio{env=\"$environment\",environment=\"$environment\",type=\"nat\", component=\"nat_host_port_allocation\"}[$__interval])\n    ) by (component)\n  ,1)\n,0)\n",
              "format": "time_series",
              "interval": "1m",
              "intervalFactor": 1,
              "legendFormat": "aggregated {{ component }}",
              "refId": "B"
            },
            {
              "expr": "max(\n  gitlab_component_saturation:ratio_quantile95_1w{env=\"$environment\",environment=\"$environment\",type=\"nat\", component=\"nat_host_port_allocation\"}\n)\n",
              "format": "time_series",
              "interval": "1m",
              "intervalFactor": 1,
              "legendFormat": "95th quantile for week {{ component }}",
              "refId": "C"
            },
            {
              "expr": "max(\n  gitlab_component_saturation:ratio_quantile99_1w{env=\"$environment\",environment=\"$environment\",type=\"nat\", component=\"nat_host_port_allocation\"}\n)\n",
              "format": "time_series",
              "interval": "1m",
              "intervalFactor": 1,
              "legendFormat": "99th quantile for week {{ component }}",
              "refId": "D"
            },
            {
              "expr": "avg(slo:max:soft:gitlab_component_saturation:ratio{component=\"nat_host_port_allocation\"}) by (component)\n",
              "format": "time_series",
              "interval": "1m",
              "intervalFactor": 1,
              "legendFormat": "Soft SLO: {{ component }}",
              "refId": "E"
            },
            {
              "expr": "avg(slo:max:hard:gitlab_component_saturation:ratio{component=\"nat_host_port_allocation\"}) by (component)\n",
              "format": "time_series",
              "interval": "1m",
              "intervalFactor": 1,
              "legendFormat": "Hard SLO: {{ component }}",
              "refId": "F"
            }
          ],
          "thresholds": [

          ],
          "timeFrom": null,
          "timeShift": null,
          "title": "nat_host_port_allocation component saturation: Cloud NAT Host Port Allocation",
          "tooltip": {
            "shared": true,
            "sort": 2,
            "value_type": "individual"
          },
          "type": "graph",
          "xaxis": {
            "buckets": null,
            "mode": "time",
            "name": null,
            "show": true,
            "values": [

            ]
          },
          "yaxes": [
            {
              "format": "percentunit",
              "label": "Saturation %",
              "logBase": 1,
              "max": 1,
              "min": null,
              "show": true
            },
            {
              "format": "short",
              "label": null,
              "logBase": 1,
              "max": 1,
              "min": 0,
              "show": false
            }
          ]
        }
      ],
      "repeat": null,
      "repeatIteration": null,
      "repeatRowId": null,
      "showTitle": true,
      "title": "🌡 Saturation Details",
      "titleSize": "h6",
      "type": "row"
    },
    {
      "collapse": true,
      "collapsed": true,
      "gridPos": {
        "x": 0,
        "y": 100010
      },
      "id": 25,
      "panels": [
        {
          "colors": [
            "rgba(50, 172, 45, 0.97)",
            "rgba(237, 129, 40, 0.89)",
            "rgba(245, 54, 54, 0.9)"
          ],
          "composites": [

          ],
          "datasource": "$PROMETHEUS_DS",
          "decimals": 3,
          "format": "percentunit",
          "graphId": "diagram_errors",
          "gridPos": {
            "h": 10,
            "w": 24,
            "x": 0,
            "y": 0
          },
          "id": 26,
          "init": {
            "arrowMarkerAbsolute": true,
            "cloneCssStyles": true,
            "flowchart": {
              "htmlLabels": true,
              "useMaxWidth": true
            },
            "gantt": {
              "barGap": 4,
              "barHeight": 20,
              "fontFamily": "\"Open-Sans\", \"sans-serif\"",
              "fontSize": 11,
              "gridLineStartPadding": 35,
              "leftPadding": 75,
              "numberSectionStyles": 3,
              "titleTopMargin": 25,
              "topPadding": 50
            },
            "logLevel": 3,
            "sequenceDiagram": {
              "actorMargin": 50,
              "bottomMarginAdj": 1,
              "boxMargin": 10,
              "boxTextMargin": 5,
              "diagramMarginX": 50,
              "diagramMarginY": 10,
              "height": 65,
              "messageMargin": 35,
              "mirrorActors": true,
              "noteMargin": 10,
              "useMaxWidth": true,
              "width": 150
            },
            "startOnLoad": false
          },
          "interval": "",
          "legend": {
            "avg": true,
            "current": true,
            "gradient": {
              "enabled": true,
              "show": true
            },
            "max": true,
            "min": true,
            "show": false,
            "total": true
          },
          "mappingType": 1,
          "mappingTypes": [

          ],
          "maxDataPoints": 100,
          "maxWidth": false,
          "mermaidServiceUrl": "",
          "metricCharacterReplacements": [

          ],
          "moddedSeriesVal": 0,
          "mode": "content",
          "nullPointMode": "connected",
          "options": {
            "content": "graph TD\n  subgraph db\n  patroni\n  pgbouncer\n  redis\n  redis-cluster-cache\n  redis-cluster-chat-cache\n  redis-cluster-feature-flag\n  redis-cluster-queues-meta\n  redis-cluster-ratelimiting\n  redis-cluster-repo-cache\n  redis-cluster-shared-state\n  redis-db-load-balancing\n  redis-pubsub\n  redis-registry-cache\n  redis-sessions\n  redis-sidekiq\n  redis-tracechunks\nend\n\nsubgraph inf\n  nat\n  search\nend\n\nsubgraph lb\n  frontend\nend\n\nsubgraph stor\n  gitaly\n  google-cloud-storage\nend\n\nsubgraph sv\n  api\n  consul\n  ext-pvs\n  git\n  kas\n  registry\n  web\nend\n\n\n  api --> consul\napi --> ext-pvs\napi --> gitaly\napi --> google-cloud-storage\napi --> kas\napi --> patroni\napi --> pgbouncer\napi --> redis\napi --> redis-cluster-cache\napi --> redis-cluster-chat-cache\napi --> redis-cluster-feature-flag\napi --> redis-cluster-queues-meta\napi --> redis-cluster-ratelimiting\napi --> redis-cluster-repo-cache\napi --> redis-cluster-shared-state\napi --> redis-pubsub\napi --> redis-sessions\napi --> redis-sidekiq\napi --> redis-tracechunks\napi --> search\nfrontend --> api\nfrontend --> git\nfrontend --> registry\nfrontend --> web\ngit --> consul\ngit --> ext-pvs\ngit --> gitaly\ngit --> google-cloud-storage\ngit --> patroni\ngit --> pgbouncer\ngit --> redis\ngit --> redis-cluster-cache\ngit --> redis-sidekiq\ngitaly --> gitaly\nkas --> api\nkas --> gitaly\nkas --> kas\nkas --> redis\nnat --> frontend\npgbouncer --> patroni\nregistry --> api\nregistry --> redis-registry-cache\nweb --> consul\nweb --> ext-pvs\nweb --> gitaly\nweb --> google-cloud-storage\nweb --> patroni\nweb --> pgbouncer\nweb --> redis\nweb --> redis-cluster-cache\nweb --> redis-cluster-chat-cache\nweb --> redis-cluster-feature-flag\nweb --> redis-cluster-queues-meta\nweb --> redis-cluster-ratelimiting\nweb --> redis-cluster-repo-cache\nweb --> redis-cluster-shared-state\nweb --> redis-db-load-balancing\nweb --> redis-pubsub\nweb --> redis-sessions\nweb --> redis-sidekiq\nweb --> search\n"
          },
          "seriesOverrides": [

          ],
          "style": "",
          "targets": [
            {
              "expr": "clamp_max(\n  max_over_time(gitlab_service_errors:ratio_5m{environment=\"$environment\",monitor=\"global\",stage=\"$stage\"}[$__range])\n,\n  1\n)\n",
              "format": "time_series",
              "instant": true,
              "interval": "1m",
              "intervalFactor": 1,
              "legendFormat": "{{ type }}"
            }
          ],
          "thresholds": "0,0.001",
          "title": "System Diagram (Keyed by Error Rates)",
          "type": "jdbranham-diagram-panel",
          "valueMaps": [

          ],
          "valueName": "current",
          "valueOptions": [
            "avg",
            "min",
            "max",
            "total",
            "current"
          ]
        },
        {
          "colors": [
            "rgba(245, 54, 54, 0.9)",
            "#FF9830",
            "#73BF69"
          ],
          "composites": [

          ],
          "datasource": "$PROMETHEUS_DS",
          "decimals": 3,
          "format": "percentunit",
          "graphId": "diagram_apdex",
          "gridPos": {
            "h": 10,
            "w": 24,
            "x": 0,
            "y": 10
          },
          "id": 27,
          "init": {
            "arrowMarkerAbsolute": true,
            "cloneCssStyles": true,
            "flowchart": {
              "htmlLabels": true,
              "useMaxWidth": true
            },
            "gantt": {
              "barGap": 4,
              "barHeight": 20,
              "fontFamily": "\"Open-Sans\", \"sans-serif\"",
              "fontSize": 11,
              "gridLineStartPadding": 35,
              "leftPadding": 75,
              "numberSectionStyles": 3,
              "titleTopMargin": 25,
              "topPadding": 50
            },
            "logLevel": 3,
            "sequenceDiagram": {
              "actorMargin": 50,
              "bottomMarginAdj": 1,
              "boxMargin": 10,
              "boxTextMargin": 5,
              "diagramMarginX": 50,
              "diagramMarginY": 10,
              "height": 65,
              "messageMargin": 35,
              "mirrorActors": true,
              "noteMargin": 10,
              "useMaxWidth": true,
              "width": 150
            },
            "startOnLoad": false
          },
          "interval": "",
          "legend": {
            "avg": true,
            "current": true,
            "gradient": {
              "enabled": true,
              "show": true
            },
            "max": true,
            "min": true,
            "show": false,
            "total": true
          },
          "mappingType": 1,
          "mappingTypes": [

          ],
          "maxDataPoints": 100,
          "maxWidth": false,
          "mermaidServiceUrl": "",
          "metricCharacterReplacements": [

          ],
          "moddedSeriesVal": 0,
          "mode": "content",
          "nullPointMode": "connected",
          "options": {
            "content": "graph TD\n  subgraph db\n  patroni\n  pgbouncer\n  redis\n  redis-cluster-cache\n  redis-cluster-chat-cache\n  redis-cluster-feature-flag\n  redis-cluster-queues-meta\n  redis-cluster-ratelimiting\n  redis-cluster-repo-cache\n  redis-cluster-shared-state\n  redis-db-load-balancing\n  redis-pubsub\n  redis-registry-cache\n  redis-sessions\n  redis-sidekiq\n  redis-tracechunks\nend\n\nsubgraph inf\n  nat\n  search\nend\n\nsubgraph lb\n  frontend\nend\n\nsubgraph stor\n  gitaly\n  google-cloud-storage\nend\n\nsubgraph sv\n  api\n  consul\n  ext-pvs\n  git\n  kas\n  registry\n  web\nend\n\n\n  api --> consul\napi --> ext-pvs\napi --> gitaly\napi --> google-cloud-storage\napi --> kas\napi --> patroni\napi --> pgbouncer\napi --> redis\napi --> redis-cluster-cache\napi --> redis-cluster-chat-cache\napi --> redis-cluster-feature-flag\napi --> redis-cluster-queues-meta\napi --> redis-cluster-ratelimiting\napi --> redis-cluster-repo-cache\napi --> redis-cluster-shared-state\napi --> redis-pubsub\napi --> redis-sessions\napi --> redis-sidekiq\napi --> redis-tracechunks\napi --> search\nfrontend --> api\nfrontend --> git\nfrontend --> registry\nfrontend --> web\ngit --> consul\ngit --> ext-pvs\ngit --> gitaly\ngit --> google-cloud-storage\ngit --> patroni\ngit --> pgbouncer\ngit --> redis\ngit --> redis-cluster-cache\ngit --> redis-sidekiq\ngitaly --> gitaly\nkas --> api\nkas --> gitaly\nkas --> kas\nkas --> redis\nnat --> frontend\npgbouncer --> patroni\nregistry --> api\nregistry --> redis-registry-cache\nweb --> consul\nweb --> ext-pvs\nweb --> gitaly\nweb --> google-cloud-storage\nweb --> patroni\nweb --> pgbouncer\nweb --> redis\nweb --> redis-cluster-cache\nweb --> redis-cluster-chat-cache\nweb --> redis-cluster-feature-flag\nweb --> redis-cluster-queues-meta\nweb --> redis-cluster-ratelimiting\nweb --> redis-cluster-repo-cache\nweb --> redis-cluster-shared-state\nweb --> redis-db-load-balancing\nweb --> redis-pubsub\nweb --> redis-sessions\nweb --> redis-sidekiq\nweb --> search\n"
          },
          "seriesOverrides": [

          ],
          "style": "",
          "targets": [
            {
              "expr": "min_over_time(gitlab_service_apdex:ratio_5m{environment=\"$environment\",monitor=\"global\",stage=\"$stage\"}[$__range])\n",
              "format": "time_series",
              "instant": true,
              "interval": "1m",
              "intervalFactor": 1,
              "legendFormat": "{{ type }}"
            }
          ],
          "thresholds": "0.99,0.995,0.999",
          "title": "System Diagram (Keyed by Apdex/Latency Scores)",
          "type": "jdbranham-diagram-panel",
          "valueMaps": [

          ],
          "valueName": "current",
          "valueOptions": [
            "avg",
            "min",
            "max",
            "total",
            "current"
          ]
        },
        {
          "colors": [

          ],
          "composites": [

          ],
          "datasource": "$PROMETHEUS_DS",
          "decimals": 3,
          "format": "percentunit",
          "graphId": "diagram_maturity",
          "gridPos": {
            "h": 10,
            "w": 24,
            "x": 0,
            "y": 20
          },
          "id": 28,
          "init": {
            "arrowMarkerAbsolute": true,
            "cloneCssStyles": true,
            "flowchart": {
              "htmlLabels": true,
              "useMaxWidth": true
            },
            "gantt": {
              "barGap": 4,
              "barHeight": 20,
              "fontFamily": "\"Open-Sans\", \"sans-serif\"",
              "fontSize": 11,
              "gridLineStartPadding": 35,
              "leftPadding": 75,
              "numberSectionStyles": 3,
              "titleTopMargin": 25,
              "topPadding": 50
            },
            "logLevel": 3,
            "sequenceDiagram": {
              "actorMargin": 50,
              "bottomMarginAdj": 1,
              "boxMargin": 10,
              "boxTextMargin": 5,
              "diagramMarginX": 50,
              "diagramMarginY": 10,
              "height": 65,
              "messageMargin": 35,
              "mirrorActors": true,
              "noteMargin": 10,
              "useMaxWidth": true,
              "width": 150
            },
            "startOnLoad": false
          },
          "interval": "",
          "legend": {
            "avg": true,
            "current": true,
            "gradient": {
              "enabled": true,
              "show": true
            },
            "max": true,
            "min": true,
            "show": false,
            "total": true
          },
          "mappingType": 1,
          "mappingTypes": [

          ],
          "maxDataPoints": 100,
          "maxWidth": false,
          "mermaidServiceUrl": "",
          "metricCharacterReplacements": [

          ],
          "moddedSeriesVal": 0,
          "mode": "content",
          "nullPointMode": "connected",
          "options": {
            "content": "graph TD\n  subgraph db\n  patroni[\"patroni (Level 2)\"]\n  pgbouncer[\"pgbouncer (Level 1)\"]\n  redis-cluster-cache[\"redis-cluster-cache (Level 2)\"]\n  redis-cluster-chat-cache[\"redis-cluster-chat-cache (Level 2)\"]\n  redis-cluster-feature-flag[\"redis-cluster-feature-flag (Level 2)\"]\n  redis-cluster-queues-meta[\"redis-cluster-queues-meta (Level 2)\"]\n  redis-cluster-ratelimiting[\"redis-cluster-ratelimiting (Level 2)\"]\n  redis-cluster-repo-cache[\"redis-cluster-repo-cache (Level 2)\"]\n  redis-cluster-shared-state[\"redis-cluster-shared-state (Level 2)\"]\n  redis-db-load-balancing[\"redis-db-load-balancing (Level 2)\"]\n  redis-pubsub[\"redis-pubsub (Level 2)\"]\n  redis-registry-cache[\"redis-registry-cache (Level 2)\"]\n  redis-sessions[\"redis-sessions (Level 3)\"]\n  redis-sidekiq[\"redis-sidekiq (Level 3)\"]\n  redis-tracechunks[\"redis-tracechunks (Level 3)\"]\n  redis[\"redis (Level 3)\"]\nend\n\nsubgraph inf\n  nat[\"nat (Level 1)\"]\n  search[\"search (Level 1)\"]\nend\n\nsubgraph lb\n  frontend[\"frontend (Level 1)\"]\nend\n\nsubgraph stor\n  gitaly[\"gitaly (Level 3)\"]\n  google-cloud-storage[\"google-cloud-storage (Level 2)\"]\nend\n\nsubgraph sv\n  api[\"api (Level 2)\"]\n  consul[\"consul (Level 1)\"]\n  ext-pvs[\"ext-pvs (Level 2)\"]\n  git[\"git (Level 2)\"]\n  kas[\"kas (Level 3)\"]\n  registry[\"registry (Level 2)\"]\n  web[\"web (Level 2)\"]\nend\n\n\n  api[\"api (Level 2)\"] --> consul\napi[\"api (Level 2)\"] --> ext-pvs\napi[\"api (Level 2)\"] --> gitaly\napi[\"api (Level 2)\"] --> google-cloud-storage\napi[\"api (Level 2)\"] --> kas\napi[\"api (Level 2)\"] --> patroni\napi[\"api (Level 2)\"] --> pgbouncer\napi[\"api (Level 2)\"] --> redis\napi[\"api (Level 2)\"] --> redis-cluster-cache\napi[\"api (Level 2)\"] --> redis-cluster-chat-cache\napi[\"api (Level 2)\"] --> redis-cluster-feature-flag\napi[\"api (Level 2)\"] --> redis-cluster-queues-meta\napi[\"api (Level 2)\"] --> redis-cluster-ratelimiting\napi[\"api (Level 2)\"] --> redis-cluster-repo-cache\napi[\"api (Level 2)\"] --> redis-cluster-shared-state\napi[\"api (Level 2)\"] --> redis-pubsub\napi[\"api (Level 2)\"] --> redis-sessions\napi[\"api (Level 2)\"] --> redis-sidekiq\napi[\"api (Level 2)\"] --> redis-tracechunks\napi[\"api (Level 2)\"] --> search\nfrontend[\"frontend (Level 1)\"] --> api\nfrontend[\"frontend (Level 1)\"] --> git\nfrontend[\"frontend (Level 1)\"] --> registry\nfrontend[\"frontend (Level 1)\"] --> web\ngit[\"git (Level 2)\"] --> consul\ngit[\"git (Level 2)\"] --> ext-pvs\ngit[\"git (Level 2)\"] --> gitaly\ngit[\"git (Level 2)\"] --> google-cloud-storage\ngit[\"git (Level 2)\"] --> patroni\ngit[\"git (Level 2)\"] --> pgbouncer\ngit[\"git (Level 2)\"] --> redis\ngit[\"git (Level 2)\"] --> redis-cluster-cache\ngit[\"git (Level 2)\"] --> redis-sidekiq\ngitaly[\"gitaly (Level 3)\"] --> gitaly\nkas[\"kas (Level 3)\"] --> api\nkas[\"kas (Level 3)\"] --> gitaly\nkas[\"kas (Level 3)\"] --> kas\nkas[\"kas (Level 3)\"] --> redis\nnat[\"nat (Level 1)\"] --> frontend\npgbouncer[\"pgbouncer (Level 1)\"] --> patroni\nregistry[\"registry (Level 2)\"] --> api\nregistry[\"registry (Level 2)\"] --> redis-registry-cache\nweb[\"web (Level 2)\"] --> consul\nweb[\"web (Level 2)\"] --> ext-pvs\nweb[\"web (Level 2)\"] --> gitaly\nweb[\"web (Level 2)\"] --> google-cloud-storage\nweb[\"web (Level 2)\"] --> patroni\nweb[\"web (Level 2)\"] --> pgbouncer\nweb[\"web (Level 2)\"] --> redis\nweb[\"web (Level 2)\"] --> redis-cluster-cache\nweb[\"web (Level 2)\"] --> redis-cluster-chat-cache\nweb[\"web (Level 2)\"] --> redis-cluster-feature-flag\nweb[\"web (Level 2)\"] --> redis-cluster-queues-meta\nweb[\"web (Level 2)\"] --> redis-cluster-ratelimiting\nweb[\"web (Level 2)\"] --> redis-cluster-repo-cache\nweb[\"web (Level 2)\"] --> redis-cluster-shared-state\nweb[\"web (Level 2)\"] --> redis-db-load-balancing\nweb[\"web (Level 2)\"] --> redis-pubsub\nweb[\"web (Level 2)\"] --> redis-sessions\nweb[\"web (Level 2)\"] --> redis-sidekiq\nweb[\"web (Level 2)\"] --> search\n"
          },
          "seriesOverrides": [

          ],
          "style": "",
          "targets": [

          ],
          "thresholds": "",
          "title": "System Diagram (Keyed by Maturity Model)",
          "type": "jdbranham-diagram-panel",
          "valueMaps": [

          ],
          "valueName": "current",
          "valueOptions": [
            "avg",
            "min",
            "max",
            "total",
            "current"
          ]
        }
      ],
      "repeat": null,
      "repeatIteration": null,
      "repeatRowId": null,
      "showTitle": true,
      "title": "🗺️ System Diagrams",
      "titleSize": "h6",
      "type": "row"
    },
    {
      "content": "Made with ❤️ and [Grafonnet](https://github.com/grafana/grafonnet-lib). [Contribute to this dashboard on GitLab.com](https://gitlab.com/gitlab-com/runbooks/blob/master/dashboards)\n",
      "datasource": null,
      "gridPos": {
        "h": 2,
        "w": 24,
        "x": 0,
        "y": 110000
      },
      "id": 29,
      "mode": "markdown",
      "title": "Source",
      "type": "text"
    }
  ],
  "refresh": "",
  "rows": [

  ],
  "schemaVersion": 16,
  "style": "light",
  "tags": [
    "managed",
    "nat",
    "gitlab",
    "type:nat",
    "nat",
    "service overview"
  ],
  "templating": {
    "list": [
      {
        "current": {
          "text": "Global",
          "value": "Global"
        },
        "hide": 0,
        "label": null,
        "name": "PROMETHEUS_DS",
        "options": [

        ],
        "query": "prometheus",
        "refresh": 1,
        "regex": "",
        "type": "datasource"
      },
      {
        "allValue": null,
        "current": {
          "text": "gprd",
          "value": "gprd"
        },
        "datasource": "$PROMETHEUS_DS",
        "hide": 0,
        "includeAll": false,
        "label": null,
        "multi": false,
        "name": "environment",
        "options": [

        ],
        "query": "label_values(gitlab_service_ops:rate_1h, environment)",
        "refresh": 1,
        "regex": "",
        "sort": 1,
        "tagValuesQuery": "",
        "tags": [

        ],
        "tagsQuery": "",
        "type": "query",
        "useTags": false
      }
    ]
  },
  "time": {
    "from": "now-6h/m",
    "to": "now/m"
  },
  "timepicker": {
    "refresh_intervals": [
      "1m",
      "5m",
      "10m",
      "15m",
      "30m"
    ],
    "time_options": [
      "5m",
      "15m",
      "1h",
      "6h",
      "12h",
      "24h",
      "2d",
      "7d",
      "30d"
    ]
  },
  "timezone": "utc",
  "title": "nat: Overview",
  "uid": "nat-main",
  "version": 3498
}