{
  "annotations": {
    "list": [
      {
        "builtIn": 1,
        "datasource": {
          "type": "datasource",
          "uid": "grafana"
        },
        "enable": true,
        "hide": true,
        "iconColor": "rgba(0, 211, 255, 1)",
        "name": "Annotations & Alerts",
        "type": "dashboard"
      }
    ]
  },
  "description": "Uptycs OSQueryd Metrics",
  "editable": true,
  "fiscalYearStartMonth": 0,
  "graphTooltip": 0,
  "id": null,
  "links": [

  ],
  "liveNow": true,
  "panels": [
    {
      "aliasColors": {
      },
      "bars": false,
      "dashLength": 10,
      "dashes": false,
      "datasource": {
        "type": "prometheus",
        "uid": "PA258B30F88C30650"
      },
      "fieldConfig": {
        "defaults": {
          "links": [

          ]
        },
        "overrides": [

        ]
      },
      "fill": 1,
      "fillGradient": 0,
      "gridPos": {
        "h": 9,
        "w": 8,
        "x": 0,
        "y": 0
      },
      "hiddenSeries": false,
      "id": 2,
      "legend": {
        "avg": false,
        "current": false,
        "max": false,
        "min": false,
        "show": true,
        "total": false,
        "values": false
      },
      "lines": true,
      "linewidth": 1,
      "links": [

      ],
      "nullPointMode": "null",
      "options": {
        "alertThreshold": true
      },
      "paceLength": 10,
      "percentage": false,
      "pluginVersion": "10.1.5",
      "pointradius": 2,
      "points": false,
      "renderer": "flot",
      "seriesOverrides": [

      ],
      "spaceLength": 10,
      "stack": false,
      "steppedLine": false,
      "targets": [
        {
          "datasource": {
            "type": "prometheus",
            "uid": "PA258B30F88C30650"
          },
          "editorMode": "code",
          "expr": "avg by (env) (rate(namedprocess_namegroup_cpu_seconds_total{groupname=\"osqueryd\",environment=\"$environment\",mode=\"user\"}[5m]))",
          "format": "time_series",
          "intervalFactor": 1,
          "legendFormat": "user",
          "range": true,
          "refId": "A"
        },
        {
          "datasource": {
            "type": "prometheus",
            "uid": "PA258B30F88C30650"
          },
          "editorMode": "code",
          "expr": "avg by (env) (rate(namedprocess_namegroup_cpu_seconds_total{groupname=\"osqueryd\",environment=\"$environment\",mode=\"system\"}[5m]))",
          "format": "time_series",
          "intervalFactor": 1,
          "legendFormat": "system",
          "range": true,
          "refId": "B"
        },
        {
          "datasource": {
            "type": "prometheus",
            "uid": "PA258B30F88C30650"
          },
          "editorMode": "code",
          "expr": "avg by (env) (rate(namedprocess_namegroup_cpu_seconds_total{groupname=\"osqueryd\",environment=\"$environment\"}[5m]))",
          "format": "time_series",
          "intervalFactor": 1,
          "legendFormat": "total",
          "range": true,
          "refId": "C"
        }
      ],
      "thresholds": [

      ],
      "timeRegions": [

      ],
      "title": "osqueryd fleet CPU Usage",
      "tooltip": {
        "shared": true,
        "sort": 0,
        "value_type": "individual"
      },
      "type": "graph",
      "xaxis": {
        "mode": "time",
        "show": true,
        "values": [

        ]
      },
      "yaxes": [
        {
          "format": "percentunit",
          "logBase": 1,
          "show": true
        },
        {
          "format": "short",
          "logBase": 1,
          "show": true
        }
      ],
      "yaxis": {
        "align": false
      }
    },
    {
      "aliasColors": {
      },
      "bars": false,
      "dashLength": 10,
      "dashes": false,
      "datasource": {
        "type": "prometheus",
        "uid": "PA258B30F88C30650"
      },
      "fieldConfig": {
        "defaults": {
          "links": [

          ]
        },
        "overrides": [

        ]
      },
      "fill": 1,
      "fillGradient": 0,
      "gridPos": {
        "h": 9,
        "w": 8,
        "x": 8,
        "y": 0
      },
      "hiddenSeries": false,
      "id": 10,
      "legend": {
        "avg": false,
        "current": false,
        "max": false,
        "min": false,
        "show": true,
        "total": false,
        "values": false
      },
      "lines": true,
      "linewidth": 1,
      "links": [

      ],
      "nullPointMode": "null",
      "options": {
        "alertThreshold": true
      },
      "paceLength": 10,
      "percentage": false,
      "pluginVersion": "10.1.5",
      "pointradius": 2,
      "points": false,
      "renderer": "flot",
      "seriesOverrides": [

      ],
      "spaceLength": 10,
      "stack": false,
      "steppedLine": false,
      "targets": [
        {
          "datasource": {
            "type": "prometheus",
            "uid": "PA258B30F88C30650"
          },
          "expr": "topk(5,rate(namedprocess_namegroup_cpu_seconds_total{groupname=\"osqueryd\",environment=\"$environment\",mode=\"user\"}[1h]))",
          "format": "time_series",
          "intervalFactor": 1,
          "legendFormat": "{{fqdn}}",
          "refId": "A"
        }
      ],
      "thresholds": [

      ],
      "timeRegions": [

      ],
      "title": "top5 CPU User Usage",
      "tooltip": {
        "shared": true,
        "sort": 0,
        "value_type": "individual"
      },
      "type": "graph",
      "xaxis": {
        "mode": "time",
        "show": true,
        "values": [

        ]
      },
      "yaxes": [
        {
          "format": "percentunit",
          "logBase": 1,
          "show": true
        },
        {
          "format": "short",
          "logBase": 1,
          "show": true
        }
      ],
      "yaxis": {
        "align": false
      }
    },
    {
      "aliasColors": {
      },
      "bars": false,
      "dashLength": 10,
      "dashes": false,
      "datasource": {
        "type": "prometheus",
        "uid": "PA258B30F88C30650"
      },
      "fieldConfig": {
        "defaults": {
          "links": [

          ]
        },
        "overrides": [

        ]
      },
      "fill": 1,
      "fillGradient": 0,
      "gridPos": {
        "h": 9,
        "w": 8,
        "x": 16,
        "y": 0
      },
      "hiddenSeries": false,
      "id": 4,
      "legend": {
        "avg": false,
        "current": false,
        "max": false,
        "min": false,
        "show": true,
        "total": false,
        "values": false
      },
      "lines": true,
      "linewidth": 1,
      "links": [

      ],
      "nullPointMode": "null",
      "options": {
        "alertThreshold": true
      },
      "paceLength": 10,
      "percentage": false,
      "pluginVersion": "10.1.5",
      "pointradius": 2,
      "points": false,
      "renderer": "flot",
      "seriesOverrides": [

      ],
      "spaceLength": 10,
      "stack": false,
      "steppedLine": false,
      "targets": [
        {
          "datasource": {
            "type": "prometheus",
            "uid": "PA258B30F88C30650"
          },
          "expr": "topk(5,rate(namedprocess_namegroup_cpu_seconds_total{groupname=\"osqueryd\",environment=\"$environment\",mode=\"system\"}[1h]))",
          "format": "time_series",
          "intervalFactor": 1,
          "legendFormat": "{{fqdn}}",
          "refId": "A"
        }
      ],
      "thresholds": [

      ],
      "timeRegions": [

      ],
      "title": "top5 CPU System Usage",
      "tooltip": {
        "shared": true,
        "sort": 0,
        "value_type": "individual"
      },
      "type": "graph",
      "xaxis": {
        "mode": "time",
        "show": true,
        "values": [

        ]
      },
      "yaxes": [
        {
          "$$hashKey": "object:391",
          "format": "percentunit",
          "logBase": 1,
          "show": true
        },
        {
          "$$hashKey": "object:392",
          "format": "short",
          "logBase": 1,
          "show": true
        }
      ],
      "yaxis": {
        "align": false
      }
    },
    {
      "aliasColors": {
      },
      "bars": false,
      "dashLength": 10,
      "dashes": false,
      "datasource": {
        "type": "prometheus",
        "uid": "PA258B30F88C30650"
      },
      "fieldConfig": {
        "defaults": {
          "links": [

          ]
        },
        "overrides": [

        ]
      },
      "fill": 1,
      "fillGradient": 0,
      "gridPos": {
        "h": 9,
        "w": 8,
        "x": 0,
        "y": 9
      },
      "hiddenSeries": false,
      "id": 3,
      "legend": {
        "avg": false,
        "current": false,
        "max": false,
        "min": false,
        "show": true,
        "total": false,
        "values": false
      },
      "lines": true,
      "linewidth": 1,
      "links": [

      ],
      "nullPointMode": "null",
      "options": {
        "alertThreshold": true
      },
      "paceLength": 10,
      "percentage": false,
      "pluginVersion": "10.1.5",
      "pointradius": 2,
      "points": false,
      "renderer": "flot",
      "seriesOverrides": [

      ],
      "spaceLength": 10,
      "stack": false,
      "steppedLine": false,
      "targets": [
        {
          "datasource": {
            "type": "prometheus",
            "uid": "PA258B30F88C30650"
          },
          "expr": "sum by (env) (rate(namedprocess_namegroup_write_bytes_total{groupname=\"osqueryd\",environment=\"$environment\"}[5m]))",
          "format": "time_series",
          "intervalFactor": 1,
          "legendFormat": "write",
          "refId": "A"
        },
        {
          "datasource": {
            "type": "prometheus",
            "uid": "PA258B30F88C30650"
          },
          "expr": "sum by (env) (rate(namedprocess_namegroup_read_bytes_total{groupname=\"osqueryd\",environment=\"$environment\"}[5m]))",
          "format": "time_series",
          "intervalFactor": 1,
          "legendFormat": "read",
          "refId": "B"
        }
      ],
      "thresholds": [

      ],
      "timeRegions": [

      ],
      "title": "osqueryd fleet IO",
      "tooltip": {
        "shared": true,
        "sort": 0,
        "value_type": "individual"
      },
      "type": "graph",
      "xaxis": {
        "mode": "time",
        "show": true,
        "values": [

        ]
      },
      "yaxes": [
        {
          "format": "Bps",
          "logBase": 1,
          "show": true
        },
        {
          "format": "short",
          "logBase": 1,
          "show": true
        }
      ],
      "yaxis": {
        "align": false
      }
    },
    {
      "aliasColors": {
      },
      "bars": false,
      "dashLength": 10,
      "dashes": false,
      "datasource": {
        "type": "prometheus",
        "uid": "PA258B30F88C30650"
      },
      "fieldConfig": {
        "defaults": {
          "links": [

          ]
        },
        "overrides": [

        ]
      },
      "fill": 1,
      "fillGradient": 0,
      "gridPos": {
        "h": 9,
        "w": 8,
        "x": 8,
        "y": 9
      },
      "hiddenSeries": false,
      "id": 6,
      "legend": {
        "avg": false,
        "current": false,
        "max": false,
        "min": false,
        "show": true,
        "total": false,
        "values": false
      },
      "lines": true,
      "linewidth": 1,
      "links": [

      ],
      "nullPointMode": "null",
      "options": {
        "alertThreshold": true
      },
      "paceLength": 10,
      "percentage": false,
      "pluginVersion": "10.1.5",
      "pointradius": 2,
      "points": false,
      "renderer": "flot",
      "seriesOverrides": [

      ],
      "spaceLength": 10,
      "stack": false,
      "steppedLine": false,
      "targets": [
        {
          "datasource": {
            "type": "prometheus",
            "uid": "PA258B30F88C30650"
          },
          "expr": "topk(5,rate(namedprocess_namegroup_write_bytes_total{groupname=\"osqueryd\",environment=\"$environment\"}[2h]))",
          "format": "time_series",
          "intervalFactor": 1,
          "legendFormat": "{{fqdn}}",
          "refId": "A"
        }
      ],
      "thresholds": [

      ],
      "timeRegions": [

      ],
      "title": "top5 write IO",
      "tooltip": {
        "shared": true,
        "sort": 0,
        "value_type": "individual"
      },
      "type": "graph",
      "xaxis": {
        "mode": "time",
        "show": true,
        "values": [

        ]
      },
      "yaxes": [
        {
          "format": "Bps",
          "logBase": 1,
          "show": true
        },
        {
          "format": "short",
          "logBase": 1,
          "show": true
        }
      ],
      "yaxis": {
        "align": false
      }
    },
    {
      "aliasColors": {
      },
      "bars": false,
      "dashLength": 10,
      "dashes": false,
      "datasource": {
        "type": "prometheus",
        "uid": "PA258B30F88C30650"
      },
      "fieldConfig": {
        "defaults": {
          "links": [

          ]
        },
        "overrides": [

        ]
      },
      "fill": 1,
      "fillGradient": 0,
      "gridPos": {
        "h": 9,
        "w": 8,
        "x": 16,
        "y": 9
      },
      "hiddenSeries": false,
      "id": 7,
      "legend": {
        "avg": false,
        "current": false,
        "max": false,
        "min": false,
        "show": true,
        "total": false,
        "values": false
      },
      "lines": true,
      "linewidth": 1,
      "links": [

      ],
      "nullPointMode": "null",
      "options": {
        "alertThreshold": true
      },
      "paceLength": 10,
      "percentage": false,
      "pluginVersion": "10.1.5",
      "pointradius": 2,
      "points": false,
      "renderer": "flot",
      "seriesOverrides": [

      ],
      "spaceLength": 10,
      "stack": false,
      "steppedLine": false,
      "targets": [
        {
          "datasource": {
            "type": "prometheus",
            "uid": "PA258B30F88C30650"
          },
          "expr": "topk(5,rate(namedprocess_namegroup_read_bytes_total{groupname=\"osqueryd\",environment=\"$environment\"}[2h]))",
          "format": "time_series",
          "intervalFactor": 1,
          "legendFormat": "{{fqdn}}",
          "refId": "A"
        }
      ],
      "thresholds": [

      ],
      "timeRegions": [

      ],
      "title": "top5 read IO",
      "tooltip": {
        "shared": true,
        "sort": 0,
        "value_type": "individual"
      },
      "type": "graph",
      "xaxis": {
        "mode": "time",
        "show": true,
        "values": [

        ]
      },
      "yaxes": [
        {
          "format": "Bps",
          "logBase": 1,
          "show": true
        },
        {
          "format": "short",
          "logBase": 1,
          "show": true
        }
      ],
      "yaxis": {
        "align": false
      }
    },
    {
      "aliasColors": {
      },
      "bars": false,
      "dashLength": 10,
      "dashes": false,
      "datasource": {
        "type": "prometheus",
        "uid": "PA258B30F88C30650"
      },
      "fieldConfig": {
        "defaults": {
          "links": [

          ]
        },
        "overrides": [

        ]
      },
      "fill": 1,
      "fillGradient": 0,
      "gridPos": {
        "h": 9,
        "w": 8,
        "x": 0,
        "y": 18
      },
      "hiddenSeries": false,
      "id": 8,
      "legend": {
        "avg": false,
        "current": false,
        "max": false,
        "min": false,
        "show": true,
        "total": false,
        "values": false
      },
      "lines": true,
      "linewidth": 1,
      "links": [

      ],
      "nullPointMode": "null",
      "options": {
        "alertThreshold": true
      },
      "paceLength": 10,
      "percentage": false,
      "pluginVersion": "10.1.5",
      "pointradius": 2,
      "points": false,
      "renderer": "flot",
      "seriesOverrides": [

      ],
      "spaceLength": 10,
      "stack": false,
      "steppedLine": false,
      "targets": [
        {
          "datasource": {
            "type": "prometheus",
            "uid": "PA258B30F88C30650"
          },
          "expr": "sum(namedprocess_namegroup_memory_bytes{groupname=\"osqueryd\", environment=\"$environment\"}) / count(up{environment=\"$environment\"})",
          "format": "time_series",
          "intervalFactor": 1,
          "legendFormat": "memory per node",
          "refId": "B"
        }
      ],
      "thresholds": [

      ],
      "timeRegions": [

      ],
      "title": "avg. memory usage per node",
      "tooltip": {
        "shared": true,
        "sort": 0,
        "value_type": "individual"
      },
      "type": "graph",
      "xaxis": {
        "mode": "time",
        "show": true,
        "values": [

        ]
      },
      "yaxes": [
        {
          "format": "bytes",
          "logBase": 1,
          "show": true
        },
        {
          "format": "short",
          "logBase": 1,
          "show": true
        }
      ],
      "yaxis": {
        "align": false
      }
    },
    {
      "aliasColors": {
      },
      "bars": false,
      "dashLength": 10,
      "dashes": false,
      "datasource": {
        "type": "prometheus",
        "uid": "PA258B30F88C30650"
      },
      "fieldConfig": {
        "defaults": {
          "links": [

          ]
        },
        "overrides": [

        ]
      },
      "fill": 1,
      "fillGradient": 0,
      "gridPos": {
        "h": 9,
        "w": 8,
        "x": 8,
        "y": 18
      },
      "hiddenSeries": false,
      "id": 9,
      "legend": {
        "avg": false,
        "current": false,
        "max": false,
        "min": false,
        "show": true,
        "total": false,
        "values": false
      },
      "lines": true,
      "linewidth": 1,
      "links": [

      ],
      "nullPointMode": "null",
      "options": {
        "alertThreshold": true
      },
      "paceLength": 10,
      "percentage": false,
      "pluginVersion": "10.1.5",
      "pointradius": 2,
      "points": false,
      "renderer": "flot",
      "seriesOverrides": [

      ],
      "spaceLength": 10,
      "stack": false,
      "steppedLine": false,
      "targets": [
        {
          "datasource": {
            "type": "prometheus",
            "uid": "PA258B30F88C30650"
          },
          "editorMode": "code",
          "expr": "topk(5,namedprocess_namegroup_memory_bytes{groupname=\"osqueryd\",memtype=\"resident\",environment=\"$environment\"})",
          "format": "time_series",
          "intervalFactor": 1,
          "legendFormat": "{{fqdn}}",
          "range": true,
          "refId": "A"
        }
      ],
      "thresholds": [

      ],
      "timeRegions": [

      ],
      "title": "top5 memory usage",
      "tooltip": {
        "shared": true,
        "sort": 0,
        "value_type": "individual"
      },
      "type": "graph",
      "xaxis": {
        "mode": "time",
        "show": true,
        "values": [

        ]
      },
      "yaxes": [
        {
          "$$hashKey": "object:353",
          "format": "bytes",
          "logBase": 1,
          "show": true
        },
        {
          "$$hashKey": "object:354",
          "format": "short",
          "logBase": 1,
          "show": true
        }
      ],
      "yaxis": {
        "align": false
      }
    }
  ],
  "refresh": "5m",
  "schemaVersion": 38,
  "style": "dark",
  "tags": [
    "unmanaged"
  ],
  "templating": {
    "list": [
      {
        "current": {
          "selected": false,
          "text": "gstg",
          "value": "gstg"
        },
        "datasource": {
          "type": "prometheus",
          "uid": "PA258B30F88C30650"
        },
        "definition": "label_values(namedprocess_namegroup_memory_bytes{groupname=\"osqueryd\"},env)",
        "hide": 0,
        "includeAll": false,
        "label": "environment",
        "multi": false,
        "name": "environment",
        "options": [

        ],
        "query": {
          "query": "label_values(namedprocess_namegroup_memory_bytes{groupname=\"osqueryd\"},env)",
          "refId": "PrometheusVariableQueryEditor-VariableQuery"
        },
        "refresh": 1,
        "regex": "",
        "skipUrlSync": false,
        "sort": 0,
        "type": "query"
      }
    ]
  },
  "time": {
    "from": "now-6h",
    "to": "now"
  },
  "timepicker": {
    "refresh_intervals": [
      "5s",
      "10s",
      "30s",
      "1m",
      "5m",
      "15m",
      "30m",
      "1h",
      "2h",
      "1d"
    ],
    "time_options": [
      "5m",
      "15m",
      "1h",
      "6h",
      "12h",
      "24h",
      "2d",
      "7d",
      "30d"
    ]
  },
  "timezone": "",
  "title": "OSQuery",
  "uid": "fjSLYzRWz",
  "version": 46,
  "weekStart": ""
}